define OPT_ID_2 = 2
define OPT_VERTEX_15 = 15
define OPT_VERTEX_14 = 14
define OPT_VERTEX_13 = 13
define OPT_VERTEX_12 = 12
define OPT_VERTEX_11 = 11
define OPT_VERTEX_10 = 10
define OPT_VERTEX_9 = 9
define OPT_VERTEX_8 = 8
define OPT_VERTEX_7 = 7
define OPT_VERTEX_6 = 6
define OPT_VERTEX_19 = 19
define OPT_INT_63 = 63
define OPT_VERTEX_18 = 18
define OPT_INT_64 = 64
define OPT_INT_52 = 52
define OPT_INT_57 = 57
define OPT_FLOAT_55 = 55
define OPT_INT_61 = 61
define OPT_INT_58 = 58
define OPT_INT_53 = 53
define OPT_INT_55 = 55
define OPT_INT_62 = 62
define OPT_INT_54 = 54
define OPT_INT_49 = 49
define OPT_FLOAT_1 = 1
define OPT_FLOAT_0 = 0
define OPT_INT_48 = 48
define OPT_INT_45 = 45
define OPT_INT_46 = 46
define OPT_INT_44 = 44
define OPT_INT_47 = 47

object ob_0310_0055
id 564
rotation 0,000 0,000 0,000 1,000
position -93,250 -1,290 65,938 0,000
item_flag 00 00 00 00 00 00 00 00 00 00 00 00 00 00 00 00 00 00 00 00 04 00 00 00
byte_flag 02 00 00 00 00 00 00 00 00 00 00 00 00 00 08 00 40 3D 92 7B
OPT_INT_47 -1
OPT_INT_44 1
OPT_INT_46 1
OPT_INT_45 0
OPT_INT_48 5
OPT_FLOAT_0 1
OPT_FLOAT_1 1

object ob_0310_0055
id 566
rotation 0,000 0,500 0,000 0,866
position -93,188 -1,894 71,875 0,000
item_flag 00 00 00 00 00 00 00 00 00 00 00 00 00 00 00 00 00 00 00 00 04 00 00 00
byte_flag 02 00 00 00 00 00 00 00 00 00 00 00 00 00 08 00 40 3D 92 7B
OPT_INT_47 -1
OPT_INT_44 1
OPT_INT_46 1
OPT_INT_45 0
OPT_INT_48 5
OPT_FLOAT_0 1
OPT_FLOAT_1 1

object ob_0310_0055
id 560
rotation 0,000 0,000 0,000 1,000
position 103,750 -1,278 -83,500 0,000
item_flag 00 00 00 00 00 00 00 00 00 00 00 00 00 00 00 00 00 00 00 00 04 00 00 00
byte_flag 02 00 00 00 00 00 00 00 00 00 00 00 00 00 08 00 40 3D 92 7B
OPT_INT_47 -1
OPT_INT_44 1
OPT_INT_46 1
OPT_INT_45 0
OPT_INT_48 5
OPT_FLOAT_0 1
OPT_FLOAT_1 1

object ob_0310_0055
id 562
rotation 0,000 0,866 0,000 0,500
position 71,438 -0,825 -43,563 0,000
item_flag 00 00 00 00 00 00 00 00 00 00 00 00 00 00 00 00 00 00 00 00 04 00 00 00
byte_flag 02 00 00 00 00 00 00 00 00 00 00 00 00 00 08 00 40 3D 92 7B
OPT_INT_47 -1
OPT_INT_44 1
OPT_INT_46 1
OPT_INT_45 0
OPT_INT_48 5
OPT_FLOAT_0 1
OPT_FLOAT_1 1

object ob_0310_0055
id 556
rotation 0,000 1,000 0,000 0,000
position 72,188 -0,928 -46,000 0,000
item_flag 00 00 00 00 00 00 00 00 00 00 00 00 00 00 00 00 00 00 00 00 04 00 00 00
byte_flag 02 00 00 00 00 00 00 00 00 00 00 00 00 00 08 00 40 3D 92 7B
OPT_INT_47 -1
OPT_INT_44 1
OPT_INT_46 1
OPT_INT_45 0
OPT_INT_48 5
OPT_FLOAT_0 1
OPT_FLOAT_1 1

object ob_0310_0055
id 558
rotation 0,000 0,866 0,000 0,500
position 74,000 -0,701 -42,344 0,000
item_flag 00 00 00 00 00 00 00 00 00 00 00 00 00 00 00 00 00 00 00 00 04 00 00 00
byte_flag 02 00 00 00 00 00 00 00 00 00 00 00 00 00 08 00 40 3D 92 7B
OPT_INT_47 -1
OPT_INT_44 1
OPT_INT_46 1
OPT_INT_45 0
OPT_INT_48 5
OPT_FLOAT_0 1
OPT_FLOAT_1 1

object ob_0310_0055
id 552
rotation 0,000 1,000 0,000 0,000
position 72,500 -0,611 -68,500 0,000
item_flag 00 00 00 00 00 00 00 00 00 00 00 00 00 00 00 00 00 00 00 00 04 00 00 00
byte_flag 02 00 00 00 00 00 00 00 00 00 00 00 00 00 08 00 40 3D 92 7B
OPT_INT_47 -1
OPT_INT_44 1
OPT_INT_46 1
OPT_INT_45 0
OPT_INT_48 5
OPT_FLOAT_0 1
OPT_FLOAT_1 1

object ob_0310_0055
id 554
rotation 0,000 0,000 0,000 1,000
position 74,625 -0,806 -44,688 0,000
item_flag 00 00 00 00 00 00 00 00 00 00 00 00 00 00 00 00 00 00 00 00 04 00 00 00
byte_flag 02 00 00 00 00 00 00 00 00 00 00 00 00 00 08 00 40 3D 92 7B
OPT_INT_47 -1
OPT_INT_44 1
OPT_INT_46 1
OPT_INT_45 0
OPT_INT_48 5
OPT_FLOAT_0 1
OPT_FLOAT_1 1

object ob_0310_0055
id 548
rotation 0,000 0,000 0,000 1,000
position 67,875 -0,777 -72,438 0,000
item_flag 00 00 00 00 00 00 00 00 00 00 00 00 00 00 00 00 00 00 00 00 04 00 00 00
byte_flag 02 00 00 00 00 00 00 00 00 00 00 00 00 00 08 00 40 3D 92 7B
OPT_INT_47 -1
OPT_INT_44 1
OPT_INT_46 1
OPT_INT_45 0
OPT_INT_48 5
OPT_FLOAT_0 1
OPT_FLOAT_1 1

object ob_0310_0055
id 550
rotation 0,000 0,866 0,000 0,500
position 69,625 -0,777 -68,375 0,000
item_flag 00 00 00 00 00 00 00 00 00 00 00 00 00 00 00 00 00 00 00 00 04 00 00 00
byte_flag 02 00 00 00 00 00 00 00 00 00 00 00 00 00 08 00 40 3D 92 7B
OPT_INT_47 -1
OPT_INT_44 1
OPT_INT_46 1
OPT_INT_45 0
OPT_INT_48 5
OPT_FLOAT_0 1
OPT_FLOAT_1 1

object ob_0310_0055
id 544
rotation 0,000 0,866 0,000 0,500
position -102,188 -1,482 -56,125 0,000
item_flag 00 00 00 00 00 00 00 00 00 00 00 00 00 00 00 00 00 00 00 00 04 00 00 00
byte_flag 02 00 00 00 00 00 00 00 00 00 00 00 00 00 08 00 40 3D 92 7B
OPT_INT_47 -1
OPT_INT_44 1
OPT_INT_46 1
OPT_INT_45 0
OPT_INT_48 5
OPT_FLOAT_0 1
OPT_FLOAT_1 1

object ob_0310_0055
id 546
rotation 0,000 0,000 0,000 1,000
position -102,688 -1,566 -58,438 0,000
item_flag 00 00 00 00 00 00 00 00 00 00 00 00 00 00 00 00 00 00 00 00 04 00 00 00
byte_flag 02 00 00 00 00 00 00 00 00 00 00 00 00 00 08 00 40 3D 92 7B
OPT_INT_47 -1
OPT_INT_44 1
OPT_INT_46 1
OPT_INT_45 0
OPT_INT_48 5
OPT_FLOAT_0 1
OPT_FLOAT_1 1

object oa_transfer_machine
id 540
rotation 0,000 0,342 0,000 -0,939
position -49,438 -0,625 -69,000 0,000
item_flag 11 00 00 00 00 00 00 00 00 00 00 00 00 00 00 00 00 00 00 00 04 00 00 00
byte_flag 02 00 00 00 00 00 00 00 00 00 00 00 00 00 00 00 00 00 00 00
OPT_INT_47 0
OPT_INT_44 1
OPT_INT_46 1
OPT_INT_49 0
OPT_INT_54 0
OPT_INT_62 0
OPT_INT_55 -1
OPT_INT_53 0
OPT_INT_58 0
OPT_INT_61 1
OPT_FLOAT_55 2,20000004768372

object ob_0310_0055
id 542
rotation 0,000 0,866 0,000 0,500
position -103,500 -1,256 -54,094 0,000
item_flag 00 00 00 00 00 00 00 00 00 00 00 00 00 00 00 00 00 00 00 00 04 00 00 00
byte_flag 02 00 00 00 00 00 00 00 00 00 00 00 00 00 08 00 40 3D 92 7B
OPT_INT_47 -1
OPT_INT_44 1
OPT_INT_46 1
OPT_INT_45 0
OPT_INT_48 5
OPT_FLOAT_0 1
OPT_FLOAT_1 1

object oa_transfer_machine
id 537
rotation 0,000 -0,819 0,000 -0,573
position -106,125 1,172 -58,781 0,000
item_flag 11 00 00 00 00 00 00 00 00 00 00 00 00 00 00 00 00 00 00 00 04 00 00 00
byte_flag 02 00 00 00 00 00 00 00 00 00 00 00 00 00 00 00 00 00 00 00
OPT_INT_47 0
OPT_INT_44 1
OPT_INT_46 1
OPT_INT_49 0
OPT_INT_54 0
OPT_INT_62 0
OPT_INT_55 -1
OPT_INT_53 0
OPT_INT_58 0
OPT_INT_61 1
OPT_FLOAT_55 2,20000004768372

object oa_transfer_machine
id 539
rotation 0,000 -0,819 0,000 -0,573
position -96,313 -0,194 -100,313 0,000
item_flag 11 00 00 00 00 00 00 00 00 00 00 00 00 00 00 00 00 00 00 00 04 00 00 00
byte_flag 02 00 00 00 00 00 00 00 00 00 00 00 00 00 00 00 00 00 00 00
OPT_INT_47 0
OPT_INT_44 1
OPT_INT_46 1
OPT_INT_49 0
OPT_INT_54 0
OPT_INT_62 0
OPT_INT_55 -1
OPT_INT_53 0
OPT_INT_58 0
OPT_INT_61 1
OPT_FLOAT_55 2,20000004768372

object oa_transfer_machine
id 538
rotation 0,000 0,342 0,000 -0,939
position -80,000 -2,000 -80,000 0,000
item_flag 11 00 00 00 00 00 00 00 00 00 00 00 00 00 00 00 00 00 00 00 04 00 00 00
byte_flag 02 00 00 00 00 00 00 00 00 00 00 00 00 00 00 00 00 00 00 00
OPT_INT_47 0
OPT_INT_44 1
OPT_INT_46 1
OPT_INT_49 0
OPT_INT_54 0
OPT_INT_62 0
OPT_INT_55 -1
OPT_INT_53 0
OPT_INT_58 0
OPT_INT_61 1
OPT_FLOAT_55 2,20000004768372

trigger Transporter
id 533
rotation 0,000 0,707 0,000 0,707
position -163,000 -1,658 0,000 0,000
item_flag 03 00 00 00 00 00 A0 40 00 00 00 00 00 00 00 00 00 00 00 00

colision EventCollision
id 532
rotation 0,000 1,000 0,000 0,000
position 84,938 -1,214 25,172 0,000
byte_flag 01 00 00 00 00 00 00 00 00 00 00 00 10 00 00 00 00 00 00 00 00 00 00 00 00 00 70 42 00 00 80 3F 00 00 80 3F 00 00 00 00 00 00 00 00 00 00 00 00 00 00 00 00 04 00 00 00 00 00 00 00

object ob_9900_0304
id 534
rotation -0,012 1,000 -0,014 0,011
position -49,906 1,552 90,125 0,000
item_flag 0E 00 00 00 00 00 00 00 00 00 00 00 00 00 00 00 00 00 00 00 04 00 00 00
byte_flag 02 00 00 00 00 00 00 00 00 00 00 00 00 00 08 00 80 A7 0E 12
OPT_INT_47 -1
OPT_INT_44 1
OPT_INT_46 1
OPT_INT_45 0
OPT_INT_57 0
OPT_INT_52 0

colision EventCollision
id 528
rotation 0,000 0,000 0,000 1,000
position -14,984 0,052 87,063 0,000
byte_flag 01 00 00 00 00 00 00 00 00 00 00 00 10 00 00 00 00 00 00 00 00 00 00 00 00 00 70 42 00 00 80 3F 00 00 80 3F 00 00 00 00 00 00 00 00 00 00 00 00 00 00 00 00 84 A7 0E 12 00 00 00 00

colision EventCollision
id 530
rotation 0,000 0,707 0,000 0,707
position 87,438 -0,048 108,875 0,000
byte_flag 01 00 00 00 00 00 00 00 00 00 00 00 10 00 00 00 00 00 00 00 00 00 00 00 00 00 70 42 00 00 80 3F 00 00 80 3F 00 00 00 00 00 00 00 00 00 00 00 00 00 00 00 00 84 A7 0E 12 00 00 00 00

colision EventCollision
id 524
rotation 0,000 1,000 0,000 0,000
position 3,910 -0,926 -49,125 0,000
byte_flag 01 00 00 00 01 00 00 00 00 00 00 00 0C 00 00 00 00 00 00 00 00 00 00 00 00 00 34 42 00 00 80 3F 00 00 80 3F 00 00 00 00 00 00 00 00 00 00 00 00 00 00 00 00 84 A7 0E 12 00 00 00 00

colision EventCollision
id 526
rotation 0,000 1,000 0,000 0,000
position -0,041 4,348 -80,750 0,000
byte_flag 01 00 00 00 00 00 00 00 00 00 00 00 10 00 00 00 00 00 00 00 00 00 00 00 00 00 70 42 00 00 80 3F 00 00 80 3F 00 00 00 00 00 00 00 00 00 00 00 00 00 00 00 00 84 A7 0E 12 00 00 00 00

colision EventCollision
id 520
rotation 0,000 0,707 0,000 -0,707
position -97,688 -0,740 -81,500 0,000
byte_flag 01 00 00 00 00 00 00 00 00 00 00 00 10 00 00 00 00 00 00 00 00 00 00 00 00 00 70 42 00 00 80 3F 00 00 80 3F 00 00 00 00 00 00 00 00 00 00 00 00 00 00 00 00 84 A7 0E 12 00 00 00 00

colision EventCollision
id 522
rotation 0,000 0,707 0,000 -0,707
position -52,938 -0,980 -89,125 0,000
byte_flag 01 00 00 00 00 00 00 00 00 00 00 00 10 00 00 00 00 00 00 00 00 00 00 00 00 00 70 42 00 00 80 3F 00 00 80 3F 00 00 00 00 00 00 00 00 00 00 00 00 00 00 00 00 84 A7 0E 12 00 00 00 00

colision EventCollision
id 516
rotation 0,000 0,707 0,000 -0,707
position -74,750 -0,250 -24,453 0,000
byte_flag 01 00 00 00 00 00 00 00 00 00 00 00 10 00 00 00 00 00 00 00 00 00 00 00 00 00 70 42 00 00 80 3F 00 00 80 3F 00 00 00 00 00 00 00 00 00 00 00 00 00 00 00 00 84 A7 0E 12 00 00 00 00

colision EventCollision
id 518
rotation 0,000 1,000 0,000 0,000
position -84,375 -1,701 67,375 0,000
byte_flag 01 00 00 00 00 00 00 00 00 00 00 00 10 00 00 00 00 00 00 00 00 00 00 00 00 00 70 42 00 00 80 3F 00 00 80 3F 00 00 00 00 00 00 00 00 00 00 00 00 00 00 00 00 84 A7 0E 12 00 00 00 00

colision EventCollision
id 514
rotation 0,000 0,707 0,000 -0,707
position -91,938 -0,643 -0,579 0,000
byte_flag 01 00 00 00 00 00 00 00 00 00 00 00 10 00 00 00 00 00 00 00 00 00 00 00 00 00 70 42 00 00 80 3F 00 00 80 3F 00 00 00 00 00 00 00 00 00 00 00 00 00 00 00 00 84 A7 0E 12 00 00 00 00

object ob_9900_0430
id 629
rotation 0,000 0,707 0,000 0,707
position 57,344 -1,390 89,688 0,000
item_flag 00 00 00 00 00 00 00 00 00 00 00 00 00 00 00 00 00 00 00 00 04 00 00 00
byte_flag 02 00 00 00 00 00 00 00 00 00 00 00 00 00 08 00 00 00 00 00
OPT_INT_47 -1
OPT_INT_44 1
OPT_INT_46 1
OPT_INT_45 0
OPT_INT_48 5
OPT_INT_52 3
OPT_INT_64 0
OPT_VERTEX_18 65,250 -2,000 72,375 0,000

object ob_9900_0430
id 628
rotation 0,000 1,000 0,000 0,000
position -62,438 -1,819 82,063 0,000
item_flag 00 00 00 00 00 00 00 00 00 00 00 00 00 00 00 00 00 00 00 00 04 00 00 00
byte_flag 02 00 00 00 00 00 00 00 00 00 00 00 00 00 08 00 00 00 00 00
OPT_INT_47 -1
OPT_INT_44 1
OPT_INT_46 1
OPT_INT_45 0
OPT_INT_48 5
OPT_INT_52 3
OPT_INT_64 0
OPT_VERTEX_18 -79,188 -2,699 83,063 0,000

object ob_9900_0430
id 631
rotation 0,000 0,707 0,000 0,707
position 93,500 -1,460 58,094 0,000
item_flag 00 00 00 00 00 00 00 00 00 00 00 00 00 00 00 00 00 00 00 00 04 00 00 00
byte_flag 02 00 00 00 00 00 00 00 00 00 00 00 00 00 08 00 00 00 00 00
OPT_INT_47 -1
OPT_INT_44 1
OPT_INT_46 1
OPT_INT_45 0
OPT_INT_48 5
OPT_INT_52 3
OPT_INT_64 0
OPT_VERTEX_18 79,625 -2,000 65,563 0,000

object ob_9900_0430
id 630
rotation 0,000 0,707 0,000 0,707
position 87,688 -1,050 90,500 0,000
item_flag 00 00 00 00 00 00 00 00 00 00 00 00 00 00 00 00 00 00 00 00 04 00 00 00
byte_flag 02 00 00 00 00 00 00 00 00 00 00 00 00 00 08 00 00 00 00 00
OPT_INT_47 -1
OPT_INT_44 1
OPT_INT_46 1
OPT_INT_45 0
OPT_INT_48 5
OPT_INT_52 3
OPT_INT_64 0
OPT_VERTEX_18 75,250 -2,000 88,688 0,000

object ob_9900_0430
id 625
rotation 0,000 1,000 0,000 0,000
position 88,125 -1,390 19,406 0,000
item_flag 00 00 00 00 00 00 00 00 00 00 00 00 00 00 00 00 00 00 00 00 04 00 00 00
byte_flag 02 00 00 00 00 00 00 00 00 00 00 00 00 00 08 00 00 00 00 00
OPT_INT_47 -1
OPT_INT_44 1
OPT_INT_46 1
OPT_INT_45 0
OPT_INT_48 5
OPT_INT_52 3
OPT_INT_64 0
OPT_VERTEX_18 97,313 -2,359 23,719 0,000

object ob_9900_0430
id 624
rotation 0,000 1,000 0,000 0,000
position 88,375 -1,399 15,797 0,000
item_flag 00 00 00 00 00 00 00 00 00 00 00 00 00 00 00 00 00 00 00 00 04 00 00 00
byte_flag 02 00 00 00 00 00 00 00 00 00 00 00 00 00 08 00 00 00 00 00
OPT_INT_47 -1
OPT_INT_44 1
OPT_INT_46 1
OPT_INT_45 0
OPT_INT_48 5
OPT_INT_52 3
OPT_INT_64 0
OPT_VERTEX_18 97,750 -2,359 11,258 0,000

object ob_9900_0430
id 627
rotation 0,000 1,000 0,000 0,000
position -81,750 -1,789 97,813 0,000
item_flag 00 00 00 00 00 00 00 00 00 00 00 00 00 00 00 00 00 00 00 00 04 00 00 00
byte_flag 02 00 00 00 00 00 00 00 00 00 00 00 00 00 08 00 00 00 00 00
OPT_INT_47 -1
OPT_INT_44 1
OPT_INT_46 1
OPT_INT_45 0
OPT_INT_48 5
OPT_INT_52 3
OPT_INT_64 0
OPT_VERTEX_18 -79,188 -2,699 83,063 0,000

object ob_9900_0430
id 626
rotation 0,000 1,000 0,000 0,000
position -91,188 -1,859 94,563 0,000
item_flag 00 00 00 00 00 00 00 00 00 00 00 00 00 00 00 00 00 00 00 00 04 00 00 00
byte_flag 02 00 00 00 00 00 00 00 00 00 00 00 00 00 08 00 00 00 00 00
OPT_INT_47 -1
OPT_INT_44 1
OPT_INT_46 1
OPT_INT_45 0
OPT_INT_48 5
OPT_INT_52 3
OPT_INT_64 0
OPT_VERTEX_18 -79,188 -2,699 83,063 0,000

object ob_9900_0430
id 621
rotation 0,000 0,707 0,000 -0,707
position -87,688 -1,050 -90,500 0,000
item_flag 00 00 00 00 00 00 00 00 00 00 00 00 00 00 00 00 00 00 00 00 04 00 00 00
byte_flag 02 00 00 00 00 00 00 00 00 00 00 00 00 00 08 00 00 00 00 00
OPT_INT_47 -1
OPT_INT_44 1
OPT_INT_46 1
OPT_INT_45 0
OPT_INT_48 5
OPT_INT_52 3
OPT_INT_64 0
OPT_VERTEX_18 -75,250 -2,000 -88,688 0,000

object ob_9900_0430
id 620
rotation 0,000 0,707 0,000 -0,707
position -57,344 -1,390 -89,688 0,000
item_flag 00 00 00 00 00 00 00 00 00 00 00 00 00 00 00 00 00 00 00 00 04 00 00 00
byte_flag 02 00 00 00 00 00 00 00 00 00 00 00 00 00 08 00 00 00 00 00
OPT_INT_47 -1
OPT_INT_44 1
OPT_INT_46 1
OPT_INT_45 0
OPT_INT_48 5
OPT_INT_52 3
OPT_INT_64 0
OPT_VERTEX_18 -65,250 -2,000 -72,375 0,000

object ob_9900_0430
id 623
rotation 0,000 1,000 0,000 0,000
position 75,938 -0,810 -13,617 0,000
item_flag 00 00 00 00 00 00 00 00 00 00 00 00 00 00 00 00 00 00 00 00 04 00 00 00
byte_flag 02 00 00 00 00 00 00 00 00 00 00 00 00 00 08 00 00 00 00 00
OPT_INT_47 -1
OPT_INT_44 1
OPT_INT_46 1
OPT_INT_45 0
OPT_INT_48 5
OPT_INT_52 3
OPT_INT_64 0
OPT_VERTEX_18 67,688 -1,800 -11,586 0,000

object ob_9900_0430
id 622
rotation 0,000 0,707 0,000 -0,707
position -93,500 -1,460 -58,094 0,000
item_flag 00 00 00 00 00 00 00 00 00 00 00 00 00 00 00 00 00 00 00 00 04 00 00 00
byte_flag 02 00 00 00 00 00 00 00 00 00 00 00 00 00 08 00 00 00 00 00
OPT_INT_47 -1
OPT_INT_44 1
OPT_INT_46 1
OPT_INT_45 0
OPT_INT_48 5
OPT_INT_52 3
OPT_INT_64 0
OPT_VERTEX_18 -79,625 -2,000 -65,563 0,000

object oa_touch_screen_async
id 617
rotation 0,000 0,707 0,000 0,707
position -140,750 -1,333 2,338 0,000
item_flag 18 00 00 00 68 02 00 00 00 00 00 00 06 00 65 1D 00 00 00 00 04 00 00 00
byte_flag 02 00 00 00 00 00 00 00 00 00 00 00 00 00 00 00 80 A7 0E 12
OPT_INT_47 -1
OPT_INT_44 1
OPT_INT_46 2
OPT_INT_45 0
OPT_INT_48 5

object oa_msg_pack
id 616
rotation 0,000 0,707 0,000 0,707
position -140,750 -1,333 2,338 0,000
item_flag 1D 00 00 00 00 00 00 00 00 00 00 00 00 00 00 00 00 00 00 00 04 00 00 00
byte_flag 02 00 00 00 00 00 00 00 00 00 00 00 00 00 00 00 00 00 00 00
OPT_INT_47 -1
OPT_INT_44 1
OPT_INT_46 0
OPT_INT_52 0

object oa_bonus_collision
id 619
rotation 0,000 0,707 0,000 0,707
position -160,000 40,000 0,000 0,000
item_flag 00 00 00 00 00 00 00 00 00 00 00 00 00 00 00 00 00 00 00 00 04 00 00 00
byte_flag 02 00 00 00 00 00 00 00 00 00 00 00 00 00 08 00 00 00 00 00
OPT_INT_47 -1
OPT_INT_44 1
OPT_INT_46 1
OPT_INT_45 0
OPT_INT_63 0
OPT_INT_48 5
OPT_VERTEX_19 80,000 50,000 80,000 0,000

object oa_bonus_collision
id 618
rotation 0,000 0,707 0,000 -0,707
position 160,000 40,000 -80,000 0,000
item_flag 00 00 00 00 00 00 00 00 00 00 00 00 00 00 00 00 00 00 00 00 04 00 00 00
byte_flag 02 00 00 00 00 00 00 00 00 00 00 00 00 00 08 00 00 00 00 00
OPT_INT_47 -1
OPT_INT_44 1
OPT_INT_46 1
OPT_INT_45 0
OPT_INT_63 0
OPT_INT_48 5
OPT_VERTEX_19 80,000 50,000 80,000 0,000

object ob_9900_0308
id 613
rotation 0,000 0,000 0,000 1,000
position -26,234 -0,433 94,563 0,000
item_flag 00 00 00 00 00 00 00 00 00 00 00 00 00 00 00 00 00 00 00 00 04 00 00 00
byte_flag 02 00 00 00 00 00 00 00 00 00 00 00 00 00 08 00 00 00 00 00
OPT_INT_47 -1
OPT_INT_44 1
OPT_INT_46 0
OPT_INT_45 0
OPT_INT_48 5
OPT_FLOAT_0 1
OPT_FLOAT_1 1

object ob_9900_0308
id 612
rotation 0,000 1,000 0,000 0,000
position -99,000 -1,724 88,000 0,000
item_flag 00 00 00 00 00 00 00 00 00 00 00 00 00 00 00 00 00 00 00 00 04 00 00 00
byte_flag 02 00 00 00 00 00 00 00 00 00 00 00 00 00 08 00 00 00 00 00
OPT_INT_47 -1
OPT_INT_44 1
OPT_INT_46 0
OPT_INT_45 0
OPT_INT_48 5
OPT_FLOAT_0 1
OPT_FLOAT_1 1

object oa_touch_screen_async
id 615
rotation 0,000 0,707 0,000 -0,707
position 137,375 -0,169 -82,313 0,000
item_flag 18 00 00 00 66 02 00 00 00 00 00 00 06 00 65 1D 00 00 00 00 04 00 00 00
byte_flag 02 00 00 00 00 00 00 00 00 00 00 00 00 00 00 00 80 A7 0E 12
OPT_INT_47 -1
OPT_INT_44 1
OPT_INT_46 2
OPT_INT_45 0
OPT_INT_48 5

object oa_msg_pack
id 614
rotation 0,000 0,707 0,000 -0,707
position 137,375 -0,169 -82,313 0,000
item_flag 1D 00 00 00 00 00 00 00 00 00 00 00 00 00 00 00 00 00 00 00 04 00 00 00
byte_flag 02 00 00 00 00 00 00 00 00 00 00 00 00 00 00 00 00 00 00 00
OPT_INT_47 -1
OPT_INT_44 1
OPT_INT_46 0
OPT_INT_52 0

object ob_9900_0308
id 609
rotation 0,000 0,866 0,000 0,500
position -74,250 -2,699 89,000 0,000
item_flag 00 00 00 00 00 00 00 00 00 00 00 00 00 00 00 00 00 00 00 00 04 00 00 00
byte_flag 02 00 00 00 00 00 00 00 00 00 00 00 00 00 08 00 00 00 00 00
OPT_INT_47 -1
OPT_INT_44 1
OPT_INT_46 0
OPT_INT_45 0
OPT_INT_48 5
OPT_FLOAT_0 1
OPT_FLOAT_1 1

object ob_9900_0308
id 608
rotation 0,000 0,866 0,000 0,500
position -71,750 -2,699 87,500 0,000
item_flag 00 00 00 00 00 00 00 00 00 00 00 00 00 00 00 00 00 00 00 00 04 00 00 00
byte_flag 02 00 00 00 00 00 00 00 00 00 00 00 00 00 08 00 00 00 00 00
OPT_INT_47 -1
OPT_INT_44 1
OPT_INT_46 0
OPT_INT_45 0
OPT_INT_48 5
OPT_FLOAT_0 1
OPT_FLOAT_1 1

object ob_9900_0308
id 611
rotation 0,000 1,000 0,000 0,000
position -99,000 -1,804 83,438 0,000
item_flag 00 00 00 00 00 00 00 00 00 00 00 00 00 00 00 00 00 00 00 00 04 00 00 00
byte_flag 02 00 00 00 00 00 00 00 00 00 00 00 00 00 08 00 00 00 00 00
OPT_INT_47 -1
OPT_INT_44 1
OPT_INT_46 0
OPT_INT_45 0
OPT_INT_48 5
OPT_FLOAT_0 1
OPT_FLOAT_1 1

object ob_9900_0308
id 610
rotation 0,000 1,000 0,000 0,000
position -99,000 -1,769 85,750 0,000
item_flag 00 00 00 00 00 00 00 00 00 00 00 00 00 00 00 00 00 00 00 00 04 00 00 00
byte_flag 02 00 00 00 00 00 00 00 00 00 00 00 00 00 08 00 00 00 00 00
OPT_INT_47 -1
OPT_INT_44 1
OPT_INT_46 0
OPT_INT_45 0
OPT_INT_48 5
OPT_FLOAT_0 1
OPT_FLOAT_1 1

object ob_9900_0308
id 605
rotation 0,000 0,383 0,000 -0,924
position -75,000 -1,999 -75,000 0,000
item_flag 00 00 00 00 00 00 00 00 00 00 00 00 00 00 00 00 00 00 00 00 04 00 00 00
byte_flag 02 00 00 00 00 00 00 00 00 00 00 00 00 00 08 00 00 00 00 00
OPT_INT_47 -1
OPT_INT_44 1
OPT_INT_46 0
OPT_INT_45 0
OPT_INT_48 5
OPT_FLOAT_0 1
OPT_FLOAT_1 1

object ob_9900_0309
id 604
rotation 0,000 0,000 0,000 -1,000
position -74,000 -2,000 -80,000 0,000
item_flag 00 00 00 00 00 00 00 00 00 00 00 00 00 00 00 00 00 00 00 00 04 00 00 00
byte_flag 02 00 00 00 00 00 00 00 00 00 00 00 00 00 08 00 00 00 00 00
OPT_INT_47 -1
OPT_INT_44 1
OPT_INT_46 0
OPT_INT_45 0
OPT_INT_48 5
OPT_FLOAT_0 1
OPT_FLOAT_1 1

object ob_9900_0308
id 607
rotation 0,000 0,000 0,000 -1,000
position -69,250 1,856 -1,223 0,000
item_flag 00 00 00 00 00 00 00 00 00 00 00 00 00 00 00 00 00 00 00 00 04 00 00 00
byte_flag 02 00 00 00 00 00 00 00 00 00 00 00 00 00 08 00 00 00 00 00
OPT_INT_47 -1
OPT_INT_44 1
OPT_INT_46 0
OPT_INT_45 0
OPT_INT_48 5
OPT_FLOAT_0 1
OPT_FLOAT_1 1

object ob_9900_0308
id 606
rotation 0,000 0,707 0,000 -0,707
position 65,375 -0,433 -106,188 0,000
item_flag 00 00 00 00 00 00 00 00 00 00 00 00 00 00 00 00 00 00 00 00 04 00 00 00
byte_flag 02 00 00 00 00 00 00 00 00 00 00 00 00 00 08 00 00 00 00 00
OPT_INT_47 -1
OPT_INT_44 1
OPT_INT_46 0
OPT_INT_45 0
OPT_INT_48 5
OPT_FLOAT_0 1
OPT_FLOAT_1 1

object oa_fence_rail
id 600
rotation -0,010 0,753 0,006 -0,657
position -95,750 -1,778 91,250 0,000
item_flag 13 00 00 00 00 00 00 00 00 00 00 00 00 00 00 00 00 00 00 00 04 00 00 00
byte_flag 03 00 00 00 00 00 00 00 00 00 00 00 00 00 88 02 00 00 00 00
OPT_INT_47 -1
OPT_INT_44 1
OPT_INT_46 1
OPT_INT_48 5
OPT_INT_57 0
OPT_INT_53 0
OPT_INT_55 4
OPT_FLOAT_0 0
OPT_FLOAT_1 0
OPT_VERTEX_6 -103,000 -1,500 90,000 0,000
OPT_VERTEX_7 -103,000 -1,500 81,000 0,000
OPT_VERTEX_8 -97,500 -1,920 81,000 0,000
OPT_VERTEX_9 -97,500 -1,754 90,000 0,000
OPT_VERTEX_10 0,000 0,000 0,000 0,000
OPT_VERTEX_11 0,000 0,000 0,000 0,000
OPT_VERTEX_12 0,000 0,000 0,000 0,000
OPT_VERTEX_13 0,000 0,000 0,000 0,000
OPT_VERTEX_14 0,000 0,000 0,000 0,000
OPT_VERTEX_15 0,000 0,000 0,000 0,000

object ob_9900_0308
id 603
rotation 0,000 0,000 0,000 -1,000
position -80,000 -2,000 -74,000 0,000
item_flag 00 00 00 00 00 00 00 00 00 00 00 00 00 00 00 00 00 00 00 00 04 00 00 00
byte_flag 02 00 00 00 00 00 00 00 00 00 00 00 00 00 08 00 00 00 00 00
OPT_INT_47 -1
OPT_INT_44 1
OPT_INT_46 0
OPT_INT_45 0
OPT_INT_48 5
OPT_FLOAT_0 1
OPT_FLOAT_1 1

object ob_0310_0055
id 596
rotation 0,000 0,000 0,000 1,000
position -3,541 -1,278 56,219 0,000
item_flag 00 00 00 00 00 00 00 00 00 00 00 00 00 00 00 00 00 00 00 00 04 00 00 00
byte_flag 02 00 00 00 00 00 00 00 00 00 00 00 00 00 08 00 00 00 00 00
OPT_INT_47 -1
OPT_INT_44 1
OPT_INT_46 1
OPT_INT_45 0
OPT_INT_48 5
OPT_FLOAT_0 1
OPT_FLOAT_1 1

object oa_fence_rail
id 599
rotation -0,027 0,687 -0,119 -0,716
position -80,000 0,000 -80,000 0,000
item_flag 13 00 00 00 00 00 00 00 00 00 00 00 00 00 00 00 00 00 00 00 04 00 00 00
byte_flag 03 00 00 00 00 00 00 00 00 00 00 00 00 00 88 02 00 00 00 00
OPT_INT_47 -1
OPT_INT_44 1
OPT_INT_46 1
OPT_INT_48 5
OPT_INT_57 8
OPT_INT_53 0
OPT_INT_55 4
OPT_FLOAT_0 0
OPT_FLOAT_1 0
OPT_VERTEX_6 -85,000 -1,999 -71,000 0,000
OPT_VERTEX_7 -71,000 -1,999 -71,000 0,000
OPT_VERTEX_8 -71,000 -1,999 -85,000 0,000
OPT_VERTEX_9 -85,000 -1,999 -85,000 0,000
OPT_VERTEX_10 0,000 0,000 0,000 0,000
OPT_VERTEX_11 0,000 0,000 0,000 0,000
OPT_VERTEX_12 0,000 0,000 0,000 0,000
OPT_VERTEX_13 0,000 0,000 0,000 0,000
OPT_VERTEX_14 0,000 0,000 0,000 0,000
OPT_VERTEX_15 0,000 0,000 0,000 0,000

object ob_0310_0055
id 598
rotation 0,000 0,866 0,000 -0,500
position 36,406 -0,825 88,500 0,000
item_flag 00 00 00 00 00 00 00 00 00 00 00 00 00 00 00 00 00 00 00 00 04 00 00 00
byte_flag 02 00 00 00 00 00 00 00 00 00 00 00 00 00 08 00 00 00 00 00
OPT_INT_47 -1
OPT_INT_44 1
OPT_INT_46 1
OPT_INT_45 0
OPT_INT_48 5
OPT_FLOAT_0 1
OPT_FLOAT_1 1

object ob_0310_0055
id 592
rotation 0,000 1,000 0,000 0,000
position 33,969 -0,928 87,750 0,000
item_flag 00 00 00 00 00 00 00 00 00 00 00 00 00 00 00 00 00 00 00 00 04 00 00 00
byte_flag 02 00 00 00 00 00 00 00 00 00 00 00 00 00 08 00 00 00 00 00
OPT_INT_47 -1
OPT_INT_44 1
OPT_INT_46 1
OPT_INT_45 0
OPT_INT_48 5
OPT_FLOAT_0 1
OPT_FLOAT_1 1

object ob_0310_0055
id 594
rotation 0,000 0,866 0,000 0,500
position 37,625 -0,701 85,938 0,000
item_flag 00 00 00 00 00 00 00 00 00 00 00 00 00 00 00 00 00 00 00 00 04 00 00 00
byte_flag 02 00 00 00 00 00 00 00 00 00 00 00 00 00 08 00 00 00 00 00
OPT_INT_47 -1
OPT_INT_44 1
OPT_INT_46 1
OPT_INT_45 0
OPT_INT_48 5
OPT_FLOAT_0 1
OPT_FLOAT_1 1

object ob_0310_0055
id 588
rotation 0,000 0,500 0,000 0,866
position 11,438 -0,611 87,438 0,000
item_flag 00 00 00 00 00 00 00 00 00 00 00 00 00 00 00 00 00 00 00 00 04 00 00 00
byte_flag 02 00 00 00 00 00 00 00 00 00 00 00 00 00 08 00 00 00 00 00
OPT_INT_47 -1
OPT_INT_44 1
OPT_INT_46 1
OPT_INT_45 0
OPT_INT_48 5
OPT_FLOAT_0 1
OPT_FLOAT_1 1

object ob_0310_0055
id 590
rotation 0,000 0,000 0,000 1,000
position 35,281 -0,806 85,313 0,000
item_flag 00 00 00 00 00 00 00 00 00 00 00 00 00 00 00 00 00 00 00 00 04 00 00 00
byte_flag 02 00 00 00 00 00 00 00 00 00 00 00 00 00 08 00 00 00 00 00
OPT_INT_47 -1
OPT_INT_44 1
OPT_INT_46 1
OPT_INT_45 0
OPT_INT_48 5
OPT_FLOAT_0 1
OPT_FLOAT_1 1

object ob_0310_0055
id 584
rotation 0,000 0,000 0,000 1,000
position 7,520 -0,777 92,063 0,000
item_flag 00 00 00 00 00 00 00 00 00 00 00 00 00 00 00 00 00 00 00 00 04 00 00 00
byte_flag 02 00 00 00 00 00 00 00 00 00 00 00 00 00 08 00 00 00 00 00
OPT_INT_47 -1
OPT_INT_44 1
OPT_INT_46 1
OPT_INT_45 0
OPT_INT_48 5
OPT_FLOAT_0 1
OPT_FLOAT_1 1

object ob_0310_0055
id 586
rotation 0,000 0,866 0,000 0,500
position 11,578 -0,777 90,313 0,000
item_flag 00 00 00 00 00 00 00 00 00 00 00 00 00 00 00 00 00 00 00 00 04 00 00 00
byte_flag 02 00 00 00 00 00 00 00 00 00 00 00 00 00 08 00 00 00 00 00
OPT_INT_47 -1
OPT_INT_44 1
OPT_INT_46 1
OPT_INT_45 0
OPT_INT_48 5
OPT_FLOAT_0 1
OPT_FLOAT_1 1

object ob_0310_0055
id 580
rotation 0,000 1,000 0,000 0,000
position -91,688 -1,665 69,188 0,000
item_flag 00 00 00 00 00 00 00 00 00 00 00 00 00 00 00 00 00 00 00 00 04 00 00 00
byte_flag 02 00 00 00 00 00 00 00 00 00 00 00 00 00 08 00 00 00 00 00
OPT_INT_47 -1
OPT_INT_44 1
OPT_INT_46 1
OPT_INT_45 0
OPT_INT_48 5
OPT_FLOAT_0 1
OPT_FLOAT_1 1

object ob_0310_0055
id 582
rotation 0,000 0,000 0,000 1,000
position -95,188 -1,660 69,625 0,000
item_flag 00 00 00 00 00 00 00 00 00 00 00 00 00 00 00 00 00 00 00 00 04 00 00 00
byte_flag 02 00 00 00 00 00 00 00 00 00 00 00 00 00 08 00 00 00 00 00
OPT_INT_47 -1
OPT_INT_44 1
OPT_INT_46 1
OPT_INT_45 0
OPT_INT_48 5
OPT_FLOAT_0 1
OPT_FLOAT_1 1

object ob_0310_0055
id 576
rotation 0,000 0,866 0,000 0,500
position -98,188 -1,438 67,563 0,000
item_flag 00 00 00 00 00 00 00 00 00 00 00 00 00 00 00 00 00 00 00 00 04 00 00 00
byte_flag 02 00 00 00 00 00 00 00 00 00 00 00 00 00 08 00 00 00 00 00
OPT_INT_47 -1
OPT_INT_44 1
OPT_INT_46 1
OPT_INT_45 0
OPT_INT_48 5
OPT_FLOAT_0 1
OPT_FLOAT_1 1

object ob_0310_0055
id 578
rotation 0,000 1,000 0,000 0,000
position -91,188 -0,946 62,313 0,000
item_flag 00 00 00 00 00 00 00 00 00 00 00 00 00 00 00 00 00 00 00 00 04 00 00 00
byte_flag 02 00 00 00 00 00 00 00 00 00 00 00 00 00 08 00 00 00 00 00
OPT_INT_47 -1
OPT_INT_44 1
OPT_INT_46 1
OPT_INT_45 0
OPT_INT_48 5
OPT_FLOAT_0 1
OPT_FLOAT_1 1

object ob_0310_0055
id 572
rotation 0,000 0,500 0,000 0,866
position -78,125 -2,264 94,875 0,000
item_flag 00 00 00 00 00 00 00 00 00 00 00 00 00 00 00 00 00 00 00 00 04 00 00 00
byte_flag 02 00 00 00 00 00 00 00 00 00 00 00 00 00 08 00 00 00 00 00
OPT_INT_47 -1
OPT_INT_44 1
OPT_INT_46 1
OPT_INT_45 0
OPT_INT_48 5
OPT_FLOAT_0 1
OPT_FLOAT_1 1

object ob_0310_0055
id 574
rotation 0,000 0,500 0,000 0,866
position -75,375 -2,344 94,313 0,000
item_flag 00 00 00 00 00 00 00 00 00 00 00 00 00 00 00 00 00 00 00 00 04 00 00 00
byte_flag 02 00 00 00 00 00 00 00 00 00 00 00 00 00 08 00 00 00 00 00
OPT_INT_47 -1
OPT_INT_44 1
OPT_INT_46 1
OPT_INT_45 0
OPT_INT_48 5
OPT_FLOAT_0 1
OPT_FLOAT_1 1

object ob_0310_0055
id 568
rotation 0,000 0,500 0,000 0,866
position -91,750 -2,455 78,188 0,000
item_flag 00 00 00 00 00 00 00 00 00 00 00 00 00 00 00 00 00 00 00 00 04 00 00 00
byte_flag 02 00 00 00 00 00 00 00 00 00 00 00 00 00 08 00 00 00 00 00
OPT_INT_47 -1
OPT_INT_44 1
OPT_INT_46 1
OPT_INT_45 0
OPT_INT_48 5
OPT_FLOAT_0 1
OPT_FLOAT_1 1

object ob_0310_0055
id 570
rotation 0,000 0,866 0,000 -0,500
position -91,000 -2,615 84,188 0,000
item_flag 00 00 00 00 00 00 00 00 00 00 00 00 00 00 00 00 00 00 00 00 04 00 00 00
byte_flag 02 00 00 00 00 00 00 00 00 00 00 00 00 00 08 00 00 00 00 00
OPT_INT_47 -1
OPT_INT_44 1
OPT_INT_46 1
OPT_INT_45 0
OPT_INT_48 5
OPT_FLOAT_0 1
OPT_FLOAT_1 1

object oa_telepipe_start
id 633
rotation 0,000 0,707 0,000 -0,707
position 163,625 0,299 -80,125 0,000
item_flag 10 00 00 00 00 00 00 00 00 00 00 00 00 00 00 00 00 00 00 00 04 00 00 00
byte_flag 02 00 00 00 00 00 00 00 00 00 00 00 00 00 08 00 00 00 00 00
OPT_INT_47 -1
OPT_INT_44 1
OPT_INT_46 0
OPT_INT_53 1
OPT_INT_54 1
OPT_ID_2 0

object oa_telepipe_clear
id 632
rotation 0,000 0,000 0,000 1,000
position 0,000 0,000 0,000 0,000
item_flag 10 00 00 00 00 00 00 00 00 00 00 00 00 00 00 00 00 00 00 00 04 00 00 00
byte_flag 02 00 00 00 00 00 00 00 00 00 00 00 00 00 08 00 00 00 00 00
OPT_INT_47 -1
OPT_INT_44 1
OPT_INT_46 0
OPT_INT_53 2
OPT_INT_54 0
OPT_ID_2 0

