define OPT_FLOAT_53 = 53
define OPT_FLOAT_1 = 1
define OPT_FLOAT_0 = 0
define OPT_INT_48 = 48
define OPT_INT_45 = 45
define OPT_INT_46 = 46
define OPT_INT_44 = 44
define OPT_INT_47 = 47

object ob_9900_0361
id 1757
rotation 0,000 0,000 0,000 1,000
position -29,547 -0,132 -136,125 0,000
item_flag 00 00 00 00 00 00 00 00 00 00 00 00 00 00 00 00 00 00 00 00 04 00 00 00
byte_flag 02 00 00 00 00 00 00 00 00 00 00 00 00 00 08 00 00 00 00 00
OPT_INT_47 -1
OPT_INT_44 1
OPT_INT_46 2
OPT_INT_45 0
OPT_INT_48 9
OPT_FLOAT_0 1
OPT_FLOAT_1 1
OPT_FLOAT_53 5

