ver 1

define OPT_INT_59 = 59
define OPT_FLOAT_43 = 43
define OPT_INT_63 = 63
define OPT_ID_2 = 2
define OPT_INT_54 = 54
define OPT_INT_53 = 53
define OPT_INT_64 = 64
define OPT_INT_52 = 52
define OPT_FLOAT_1 = 1
define OPT_FLOAT_0 = 0
define OPT_INT_48 = 48
define OPT_INT_45 = 45
define OPT_INT_46 = 46
define OPT_INT_44 = 44
define OPT_INT_47 = 47

object ob_0310_0055
id 808
rotation 0,000 0,866 0,000 0,500
position 196,250 5,223 -18,875 0,000
item_flag 00 00 00 00 00 00 00 00 00 00 00 00 00 00 00 00 00 00 00 00 04 00 00 00
byte_flag 02 00 00 00 00 00 00 00 00 00 00 00 00 00 08 00 00 00 00 00
OPT_INT_47 -1
OPT_INT_44 1
OPT_INT_46 1
OPT_INT_45 0
OPT_INT_48 5
OPT_FLOAT_0 1
OPT_FLOAT_1 1

object ob_0310_0055
id 810
rotation 0,000 0,866 0,000 0,500
position 187,625 4,039 -12,898 0,000
item_flag 00 00 00 00 00 00 00 00 00 00 00 00 00 00 00 00 00 00 00 00 04 00 00 00
byte_flag 02 00 00 00 00 00 00 00 00 00 00 00 00 00 08 00 00 00 00 00
OPT_INT_47 -1
OPT_INT_44 1
OPT_INT_46 1
OPT_INT_45 0
OPT_INT_48 5
OPT_FLOAT_0 1
OPT_FLOAT_1 1

object ob_0310_0055
id 812
rotation 0,000 0,866 0,000 0,500
position 181,500 4,148 -13,484 0,000
item_flag 00 00 00 00 00 00 00 00 00 00 00 00 00 00 00 00 00 00 00 00 04 00 00 00
byte_flag 02 00 00 00 00 00 00 00 00 00 00 00 00 00 08 00 00 00 00 00
OPT_INT_47 -1
OPT_INT_44 1
OPT_INT_46 1
OPT_INT_45 0
OPT_INT_48 5
OPT_FLOAT_0 1
OPT_FLOAT_1 1

object ob_0310_0055
id 798
rotation 0,000 0,866 0,000 -0,500
position 190,125 4,133 -13,258 0,000
item_flag 00 00 00 00 00 00 00 00 00 00 00 00 00 00 00 00 00 00 00 00 04 00 00 00
byte_flag 02 00 00 00 00 00 00 00 00 00 00 00 00 00 08 00 00 00 00 00
OPT_INT_47 -1
OPT_INT_44 1
OPT_INT_46 1
OPT_INT_45 0
OPT_INT_48 5
OPT_FLOAT_0 1
OPT_FLOAT_1 1

object ob_0310_0055
id 800
rotation 0,000 0,000 0,000 1,000
position 188,875 4,086 -14,984 0,000
item_flag 00 00 00 00 00 00 00 00 00 00 00 00 00 00 00 00 00 00 00 00 04 00 00 00
byte_flag 02 00 00 00 00 00 00 00 00 00 00 00 00 00 08 00 00 00 00 00
OPT_INT_47 -1
OPT_INT_44 1
OPT_INT_46 1
OPT_INT_45 0
OPT_INT_48 5
OPT_FLOAT_0 1
OPT_FLOAT_1 1

object ob_0310_0055
id 802
rotation 0,000 0,866 0,000 0,500
position 183,375 4,250 -14,219 0,000
item_flag 00 00 00 00 00 00 00 00 00 00 00 00 00 00 00 00 00 00 00 00 04 00 00 00
byte_flag 02 00 00 00 00 00 00 00 00 00 00 00 00 00 08 00 00 00 00 00
OPT_INT_47 -1
OPT_INT_44 1
OPT_INT_46 1
OPT_INT_45 0
OPT_INT_48 5
OPT_FLOAT_0 1
OPT_FLOAT_1 1

object ob_0310_0055
id 804
rotation 0,000 0,000 0,000 1,000
position 185,000 4,117 -10,563 0,000
item_flag 00 00 00 00 00 00 00 00 00 00 00 00 00 00 00 00 00 00 00 00 04 00 00 00
byte_flag 02 00 00 00 00 00 00 00 00 00 00 00 00 00 08 00 00 00 00 00
OPT_INT_47 -1
OPT_INT_44 1
OPT_INT_46 1
OPT_INT_45 0
OPT_INT_48 5
OPT_FLOAT_0 1
OPT_FLOAT_1 1

trigger Transporter
id 758
rotation 0,000 0,966 0,000 -0,259
position 217,375 0,281 95,625 0,000
item_flag 01 00 00 00 00 00 E0 40 00 00 00 00 00 00 00 00 00 00 00 00

trigger Transporter
id 757
rotation 0,000 0,259 0,000 0,966
position -217,375 0,281 -15,680 0,000
item_flag 03 00 00 00 00 00 E0 40 00 00 00 00 00 00 00 00 00 00 00 00

trigger Transporter
id 759
rotation 0,000 0,866 0,000 0,500
position 104,313 0,281 177,375 0,000
item_flag 02 00 00 00 00 00 E0 40 00 00 00 00 00 00 00 00 00 00 00 00

object ob_0310_0055
id 763
rotation 0,000 0,500 0,000 0,866
position -83,688 -3,398 -84,063 0,000
item_flag 00 00 00 00 00 00 00 00 00 00 00 00 00 00 00 00 00 00 00 00 04 00 00 00
byte_flag 02 00 00 00 00 00 00 00 00 00 00 00 00 00 08 00 00 00 00 00
OPT_INT_47 -1
OPT_INT_44 1
OPT_INT_46 1
OPT_INT_45 0
OPT_INT_48 5
OPT_FLOAT_0 1
OPT_FLOAT_1 1

object ob_0310_0055
id 773
rotation 0,000 1,000 0,000 0,000
position -151,375 -3,199 -84,063 0,000
item_flag 00 00 00 00 00 00 00 00 00 00 00 00 00 00 00 00 00 00 00 00 04 00 00 00
byte_flag 02 00 00 00 00 00 00 00 00 00 00 00 00 00 08 00 00 00 00 00
OPT_INT_47 -1
OPT_INT_44 1
OPT_INT_46 1
OPT_INT_45 0
OPT_INT_48 5
OPT_FLOAT_0 1
OPT_FLOAT_1 1

object ob_0310_0055
id 776
rotation 0,000 1,000 0,000 0,000
position -152,625 -3,500 -76,063 0,000
item_flag 00 00 00 00 00 00 00 00 00 00 00 00 00 00 00 00 00 00 00 00 04 00 00 00
byte_flag 02 00 00 00 00 00 00 00 00 00 00 00 00 00 08 00 00 00 00 00
OPT_INT_47 -1
OPT_INT_44 1
OPT_INT_46 1
OPT_INT_45 0
OPT_INT_48 5
OPT_FLOAT_0 1
OPT_FLOAT_1 1

object ob_0310_0055
id 775
rotation 0,000 0,000 0,000 1,000
position -155,625 -3,500 -76,063 0,000
item_flag 00 00 00 00 00 00 00 00 00 00 00 00 00 00 00 00 00 00 00 00 04 00 00 00
byte_flag 02 00 00 00 00 00 00 00 00 00 00 00 00 00 08 00 00 00 00 00
OPT_INT_47 -1
OPT_INT_44 1
OPT_INT_46 1
OPT_INT_45 0
OPT_INT_48 5
OPT_FLOAT_0 1
OPT_FLOAT_1 1

object ob_0310_0055
id 778
rotation 0,000 0,866 0,000 -0,500
position -148,875 -3,398 -75,000 0,000
item_flag 00 00 00 00 00 00 00 00 00 00 00 00 00 00 00 00 00 00 00 00 04 00 00 00
byte_flag 02 00 00 00 00 00 00 00 00 00 00 00 00 00 08 00 00 00 00 00
OPT_INT_47 -1
OPT_INT_44 1
OPT_INT_46 1
OPT_INT_45 0
OPT_INT_48 5
OPT_FLOAT_0 1
OPT_FLOAT_1 1

object ob_0310_0055
id 780
rotation 0,000 0,000 0,000 1,000
position -127,500 -0,777 -12,078 0,000
item_flag 00 00 00 00 00 00 00 00 00 00 00 00 00 00 00 00 00 00 00 00 04 00 00 00
byte_flag 02 00 00 00 00 00 00 00 00 00 00 00 00 00 08 00 00 00 00 00
OPT_INT_47 -1
OPT_INT_44 1
OPT_INT_46 1
OPT_INT_45 0
OPT_INT_48 5
OPT_FLOAT_0 1
OPT_FLOAT_1 1

object ob_0310_0055
id 765
rotation 0,000 1,000 0,000 0,000
position -93,625 -3,500 -80,438 0,000
item_flag 00 00 00 00 00 00 00 00 00 00 00 00 00 00 00 00 00 00 00 00 04 00 00 00
byte_flag 02 00 00 00 00 00 00 00 00 00 00 00 00 00 08 00 00 00 00 00
OPT_INT_47 -1
OPT_INT_44 1
OPT_INT_46 1
OPT_INT_45 0
OPT_INT_48 5
OPT_FLOAT_0 1
OPT_FLOAT_1 1

object ob_0310_0055
id 768
rotation 0,000 0,866 0,000 -0,500
position -93,875 -3,500 -89,563 0,000
item_flag 00 00 00 00 00 00 00 00 00 00 00 00 00 00 00 00 00 00 00 00 04 00 00 00
byte_flag 02 00 00 00 00 00 00 00 00 00 00 00 00 00 08 00 00 00 00 00
OPT_INT_47 -1
OPT_INT_44 1
OPT_INT_46 1
OPT_INT_45 0
OPT_INT_48 5
OPT_FLOAT_0 1
OPT_FLOAT_1 1

object ob_0310_0055
id 767
rotation 0,000 0,500 0,000 0,866
position -92,063 -3,500 -87,250 0,000
item_flag 00 00 00 00 00 00 00 00 00 00 00 00 00 00 00 00 00 00 00 00 04 00 00 00
byte_flag 02 00 00 00 00 00 00 00 00 00 00 00 00 00 08 00 00 00 00 00
OPT_INT_47 -1
OPT_INT_44 1
OPT_INT_46 1
OPT_INT_45 0
OPT_INT_48 5
OPT_FLOAT_0 1
OPT_FLOAT_1 1

object ob_0310_0055
id 770
rotation 0,000 0,866 0,000 0,500
position -97,938 -3,299 -91,625 0,000
item_flag 00 00 00 00 00 00 00 00 00 00 00 00 00 00 00 00 00 00 00 00 04 00 00 00
byte_flag 02 00 00 00 00 00 00 00 00 00 00 00 00 00 08 00 00 00 00 00
OPT_INT_47 -1
OPT_INT_44 1
OPT_INT_46 1
OPT_INT_45 0
OPT_INT_48 5
OPT_FLOAT_0 1
OPT_FLOAT_1 1

object ob_0310_0055
id 772
rotation 0,000 0,866 0,000 -0,500
position -154,375 -3,199 -84,063 0,000
item_flag 00 00 00 00 00 00 00 00 00 00 00 00 00 00 00 00 00 00 00 00 04 00 00 00
byte_flag 02 00 00 00 00 00 00 00 00 00 00 00 00 00 08 00 00 00 00 00
OPT_INT_47 -1
OPT_INT_44 1
OPT_INT_46 1
OPT_INT_45 0
OPT_INT_48 5
OPT_FLOAT_0 1
OPT_FLOAT_1 1

object ob_9900_0430
id 1038
rotation 0,000 0,000 0,000 1,000
position -135,000 0,940 61,656 0,000
item_flag 00 00 00 00 00 00 00 00 00 00 00 00 00 00 00 00 00 00 00 00 04 00 00 00
byte_flag 02 00 00 00 00 00 00 00 00 00 00 00 00 00 08 00 00 00 00 00
OPT_INT_47 -1
OPT_INT_44 1
OPT_INT_46 1
OPT_INT_45 0
OPT_INT_48 5
OPT_INT_52 3
OPT_INT_64 0

object ob_9900_0430
id 1037
rotation 0,000 0,000 0,000 1,000
position -115,250 -1,350 96,375 0,000
item_flag 00 00 00 00 00 00 00 00 00 00 00 00 00 00 00 00 00 00 00 00 04 00 00 00
byte_flag 02 00 00 00 00 00 00 00 00 00 00 00 00 00 08 00 00 00 00 00
OPT_INT_47 -1
OPT_INT_44 1
OPT_INT_46 1
OPT_INT_45 0
OPT_INT_48 5
OPT_INT_52 3
OPT_INT_64 0

object oa_telepipe_clear
id 1040
rotation 0,000 0,000 0,000 1,000
position 0,000 0,000 0,000 0,000
item_flag 10 00 00 00 00 00 00 00 00 00 00 00 00 00 00 00 00 00 00 00 04 00 00 00
byte_flag 02 00 00 00 00 00 00 00 00 00 00 00 00 00 08 00 00 00 00 00
OPT_INT_47 -1
OPT_INT_44 1
OPT_INT_46 0
OPT_INT_53 2
OPT_INT_54 0
OPT_ID_2 0

object ob_9900_0430
id 1039
rotation 0,000 0,000 0,000 1,000
position -118,063 -1,340 95,750 0,000
item_flag 00 00 00 00 00 00 00 00 00 00 00 00 00 00 00 00 00 00 00 00 04 00 00 00
byte_flag 02 00 00 00 00 00 00 00 00 00 00 00 00 00 08 00 00 00 00 00
OPT_INT_47 -1
OPT_INT_44 1
OPT_INT_46 1
OPT_INT_45 0
OPT_INT_48 5
OPT_INT_52 3
OPT_INT_64 0

object ob_9900_0430
id 1014
rotation 0,000 0,707 0,000 0,707
position -174,375 -1,350 -78,500 0,000
item_flag 00 00 00 00 00 00 00 00 00 00 00 00 00 00 00 00 00 00 00 00 04 00 00 00
byte_flag 02 00 00 00 00 00 00 00 00 00 00 00 00 00 08 00 00 00 00 00
OPT_INT_47 -1
OPT_INT_44 1
OPT_INT_46 1
OPT_INT_45 0
OPT_INT_48 5
OPT_INT_52 3
OPT_INT_64 0

object ob_9900_0430
id 1013
rotation 0,000 0,707 0,000 0,707
position -179,125 -2,209 -70,188 0,000
item_flag 00 00 00 00 00 00 00 00 00 00 00 00 00 00 00 00 00 00 00 00 04 00 00 00
byte_flag 02 00 00 00 00 00 00 00 00 00 00 00 00 00 08 00 00 00 00 00
OPT_INT_47 -1
OPT_INT_44 1
OPT_INT_46 1
OPT_INT_45 0
OPT_INT_48 5
OPT_INT_52 3
OPT_INT_64 0

object ob_9900_0430
id 1016
rotation 0,000 0,707 0,000 0,707
position -126,375 -2,289 -73,313 0,000
item_flag 00 00 00 00 00 00 00 00 00 00 00 00 00 00 00 00 00 00 00 00 04 00 00 00
byte_flag 02 00 00 00 00 00 00 00 00 00 00 00 00 00 08 00 00 00 00 00
OPT_INT_47 -1
OPT_INT_44 1
OPT_INT_46 1
OPT_INT_45 0
OPT_INT_48 5
OPT_INT_52 3
OPT_INT_64 0

object ob_9900_0430
id 1015
rotation 0,000 0,707 0,000 0,707
position -173,000 -1,800 -75,125 0,000
item_flag 00 00 00 00 00 00 00 00 00 00 00 00 00 00 00 00 00 00 00 00 04 00 00 00
byte_flag 02 00 00 00 00 00 00 00 00 00 00 00 00 00 08 00 00 00 00 00
OPT_INT_47 -1
OPT_INT_44 1
OPT_INT_46 1
OPT_INT_45 0
OPT_INT_48 5
OPT_INT_52 3
OPT_INT_64 0

object ob_9900_0430
id 1018
rotation 0,000 0,707 0,000 0,707
position -111,188 0,030 -88,000 0,000
item_flag 00 00 00 00 00 00 00 00 00 00 00 00 00 00 00 00 00 00 00 00 04 00 00 00
byte_flag 02 00 00 00 00 00 00 00 00 00 00 00 00 00 08 00 00 00 00 00
OPT_INT_47 -1
OPT_INT_44 1
OPT_INT_46 1
OPT_INT_45 0
OPT_INT_48 5
OPT_INT_52 3
OPT_INT_64 0

object ob_9900_0430
id 1017
rotation 0,000 0,707 0,000 0,707
position -142,875 -1,140 -73,125 0,000
item_flag 00 00 00 00 00 00 00 00 00 00 00 00 00 00 00 00 00 00 00 00 04 00 00 00
byte_flag 02 00 00 00 00 00 00 00 00 00 00 00 00 00 08 00 00 00 00 00
OPT_INT_47 -1
OPT_INT_44 1
OPT_INT_46 1
OPT_INT_45 0
OPT_INT_48 5
OPT_INT_52 3
OPT_INT_64 0

object ob_9900_0430
id 1020
rotation 0,000 0,707 0,000 0,707
position -34,438 0,720 -60,000 0,000
item_flag 00 00 00 00 00 00 00 00 00 00 00 00 00 00 00 00 00 00 00 00 04 00 00 00
byte_flag 02 00 00 00 00 00 00 00 00 00 00 00 00 00 08 00 00 00 00 00
OPT_INT_47 -1
OPT_INT_44 1
OPT_INT_46 1
OPT_INT_45 0
OPT_INT_48 5
OPT_INT_52 3
OPT_INT_64 0

object ob_9900_0430
id 1019
rotation 0,000 0,707 0,000 0,707
position -66,688 -1,229 -74,000 0,000
item_flag 00 00 00 00 00 00 00 00 00 00 00 00 00 00 00 00 00 00 00 00 04 00 00 00
byte_flag 02 00 00 00 00 00 00 00 00 00 00 00 00 00 08 00 00 00 00 00
OPT_INT_47 -1
OPT_INT_44 1
OPT_INT_46 1
OPT_INT_45 0
OPT_INT_48 5
OPT_INT_52 3
OPT_INT_64 0

object oa_touch_screen_async
id 1006
rotation 0,000 0,707 0,000 -0,707
position 191,250 -1,279 81,438 0,000
item_flag 18 00 00 00 ED 03 00 00 00 00 00 00 06 00 72 1D 00 00 00 00 04 00 00 00
byte_flag 02 00 00 00 00 00 00 00 00 00 00 00 00 00 00 00 C0 45 71 1E
OPT_INT_47 -1
OPT_INT_44 1
OPT_INT_46 2
OPT_INT_45 0
OPT_INT_48 5

object oa_msg_pack
id 1005
rotation 0,000 0,707 0,000 -0,707
position 191,250 -1,279 81,438 0,000
item_flag 1D 00 00 00 00 00 00 00 00 00 00 00 00 00 00 00 00 00 00 00 04 00 00 00
byte_flag 02 00 00 00 00 00 00 00 00 00 00 00 00 00 00 00 00 00 00 00
OPT_INT_47 -1
OPT_INT_44 1
OPT_INT_46 0
OPT_INT_52 0

object oa_touch_screen_async
id 1008
rotation 0,000 1,000 0,000 0,000
position 118,500 -1,279 151,250 0,000
item_flag 18 00 00 00 EF 03 00 00 00 00 00 00 06 00 72 1D 00 00 00 00 04 00 00 00
byte_flag 02 00 00 00 00 00 00 00 00 00 00 00 00 00 00 00 C0 45 71 1E
OPT_INT_47 -1
OPT_INT_44 1
OPT_INT_46 2
OPT_INT_45 0
OPT_INT_48 5

object oa_msg_pack
id 1007
rotation 0,000 1,000 0,000 0,000
position 118,500 -1,279 151,250 0,000
item_flag 1D 00 00 00 00 00 00 00 00 00 00 00 00 00 00 00 00 00 00 00 04 00 00 00
byte_flag 02 00 00 00 00 00 00 00 00 00 00 00 00 00 00 00 00 00 00 00
OPT_INT_47 -1
OPT_INT_44 1
OPT_INT_46 0
OPT_INT_52 0

object oa_bonus_collision
id 1010
rotation 0,000 0,707 0,000 -0,707
position 200,000 40,000 80,000 0,000
item_flag 00 00 00 00 00 00 00 00 00 00 00 00 00 00 00 00 00 00 00 00 04 00 00 00
byte_flag 02 00 00 00 00 00 00 00 00 00 00 00 00 00 08 00 00 00 00 00
OPT_INT_47 -1
OPT_INT_44 1
OPT_INT_46 1
OPT_INT_45 0
OPT_INT_63 0
OPT_INT_48 5

object oa_bonus_collision
id 1009
rotation 0,000 0,707 0,000 0,707
position -200,000 40,000 0,000 0,000
item_flag 00 00 00 00 00 00 00 00 00 00 00 00 00 00 00 00 00 00 00 00 04 00 00 00
byte_flag 02 00 00 00 00 00 00 00 00 00 00 00 00 00 08 00 00 00 00 00
OPT_INT_47 -1
OPT_INT_44 1
OPT_INT_46 1
OPT_INT_45 0
OPT_INT_63 0
OPT_INT_48 5

object oa_mine
id 1012
rotation 0,000 0,707 0,000 -0,707
position 200,500 6,773 -20,766 0,000
item_flag 25 00 00 00 00 00 00 00 00 00 00 00 00 00 00 00 00 00 00 00 05 00 00 00
byte_flag 02 00 00 00 00 00 00 00 00 00 00 00 00 00 88 00 00 00 00 00
OPT_INT_47 -1
OPT_INT_44 1
OPT_INT_46 1
OPT_INT_45 0
OPT_INT_53 1
OPT_INT_48 5
OPT_FLOAT_0 1
OPT_FLOAT_1 1
OPT_FLOAT_43 0,600000023841858

object oa_bonus_collision
id 1011
rotation 0,000 1,000 0,000 0,000
position 120,000 40,000 160,000 0,000
item_flag 00 00 00 00 00 00 00 00 00 00 00 00 00 00 00 00 00 00 00 00 04 00 00 00
byte_flag 02 00 00 00 00 00 00 00 00 00 00 00 00 00 08 00 00 00 00 00
OPT_INT_47 -1
OPT_INT_44 1
OPT_INT_46 1
OPT_INT_45 0
OPT_INT_63 0
OPT_INT_48 5

object ob_9900_0430
id 1030
rotation 0,000 0,707 0,000 0,707
position 64,875 -0,910 2,658 0,000
item_flag 00 00 00 00 00 00 00 00 00 00 00 00 00 00 00 00 00 00 00 00 04 00 00 00
byte_flag 02 00 00 00 00 00 00 00 00 00 00 00 00 00 08 00 00 00 00 00
OPT_INT_47 -1
OPT_INT_44 1
OPT_INT_46 1
OPT_INT_45 0
OPT_INT_48 5
OPT_INT_52 3
OPT_INT_64 0

object ob_9900_0430
id 1029
rotation 0,000 0,707 0,000 0,707
position 25,047 -1,390 5,906 0,000
item_flag 00 00 00 00 00 00 00 00 00 00 00 00 00 00 00 00 00 00 00 00 04 00 00 00
byte_flag 02 00 00 00 00 00 00 00 00 00 00 00 00 00 08 00 00 00 00 00
OPT_INT_47 -1
OPT_INT_44 1
OPT_INT_46 1
OPT_INT_45 0
OPT_INT_48 5
OPT_INT_52 3
OPT_INT_64 0

object ob_9900_0430
id 1032
rotation 0,000 0,707 0,000 0,707
position 118,688 -1,770 -1,300 0,000
item_flag 00 00 00 00 00 00 00 00 00 00 00 00 00 00 00 00 00 00 00 00 04 00 00 00
byte_flag 02 00 00 00 00 00 00 00 00 00 00 00 00 00 08 00 00 00 00 00
OPT_INT_47 -1
OPT_INT_44 1
OPT_INT_46 1
OPT_INT_45 0
OPT_INT_48 5
OPT_INT_52 3
OPT_INT_64 0

object ob_9900_0430
id 1031
rotation 0,000 0,707 0,000 0,707
position 126,563 -0,630 0,770 0,000
item_flag 00 00 00 00 00 00 00 00 00 00 00 00 00 00 00 00 00 00 00 00 04 00 00 00
byte_flag 02 00 00 00 00 00 00 00 00 00 00 00 00 00 08 00 00 00 00 00
OPT_INT_47 -1
OPT_INT_44 1
OPT_INT_46 1
OPT_INT_45 0
OPT_INT_48 5
OPT_INT_52 3
OPT_INT_64 0

object ob_9900_0430
id 1034
rotation 0,000 0,707 0,000 -0,707
position 201,125 -1,420 1,460 0,000
item_flag 00 00 00 00 00 00 00 00 00 00 00 00 00 00 00 00 00 00 00 00 04 00 00 00
byte_flag 02 00 00 00 00 00 00 00 00 00 00 00 00 00 08 00 00 00 00 00
OPT_INT_47 -1
OPT_INT_44 1
OPT_INT_46 1
OPT_INT_45 0
OPT_INT_48 5
OPT_INT_52 3
OPT_INT_64 0

object ob_9900_0430
id 1033
rotation 0,000 0,707 0,000 0,707
position 135,250 -1,649 7,500 0,000
item_flag 00 00 00 00 00 00 00 00 00 00 00 00 00 00 00 00 00 00 00 00 04 00 00 00
byte_flag 02 00 00 00 00 00 00 00 00 00 00 00 00 00 08 00 00 00 00 00
OPT_INT_47 -1
OPT_INT_44 1
OPT_INT_46 1
OPT_INT_45 0
OPT_INT_48 5
OPT_INT_52 3
OPT_INT_64 0

object ob_9900_0430
id 1036
rotation 0,000 0,707 0,000 -0,707
position 177,625 -1,689 2,828 0,000
item_flag 00 00 00 00 00 00 00 00 00 00 00 00 00 00 00 00 00 00 00 00 04 00 00 00
byte_flag 02 00 00 00 00 00 00 00 00 00 00 00 00 00 08 00 00 00 00 00
OPT_INT_47 -1
OPT_INT_44 1
OPT_INT_46 1
OPT_INT_45 0
OPT_INT_48 5
OPT_INT_52 3
OPT_INT_64 0

object ob_9900_0430
id 1035
rotation 0,000 0,707 0,000 -0,707
position 178,875 -1,210 4,539 0,000
item_flag 00 00 00 00 00 00 00 00 00 00 00 00 00 00 00 00 00 00 00 00 04 00 00 00
byte_flag 02 00 00 00 00 00 00 00 00 00 00 00 00 00 08 00 00 00 00 00
OPT_INT_47 -1
OPT_INT_44 1
OPT_INT_46 1
OPT_INT_45 0
OPT_INT_48 5
OPT_INT_52 3
OPT_INT_64 0

object ob_9900_0430
id 1022
rotation 0,000 0,707 0,000 0,707
position 34,688 -1,949 -96,750 0,000
item_flag 00 00 00 00 00 00 00 00 00 00 00 00 00 00 00 00 00 00 00 00 04 00 00 00
byte_flag 02 00 00 00 00 00 00 00 00 00 00 00 00 00 08 00 00 00 00 00
OPT_INT_47 -1
OPT_INT_44 1
OPT_INT_46 1
OPT_INT_45 0
OPT_INT_48 5
OPT_INT_52 3
OPT_INT_64 0

object ob_9900_0430
id 1021
rotation 0,000 0,707 0,000 0,707
position -45,375 -0,820 -81,750 0,000
item_flag 00 00 00 00 00 00 00 00 00 00 00 00 00 00 00 00 00 00 00 00 04 00 00 00
byte_flag 02 00 00 00 00 00 00 00 00 00 00 00 00 00 08 00 00 00 00 00
OPT_INT_47 -1
OPT_INT_44 1
OPT_INT_46 1
OPT_INT_45 0
OPT_INT_48 5
OPT_INT_52 3
OPT_INT_64 0

object ob_9900_0430
id 1024
rotation 0,000 0,707 0,000 0,707
position 31,656 1,640 -54,438 0,000
item_flag 00 00 00 00 00 00 00 00 00 00 00 00 00 00 00 00 00 00 00 00 04 00 00 00
byte_flag 02 00 00 00 00 00 00 00 00 00 00 00 00 00 08 00 00 00 00 00
OPT_INT_47 -1
OPT_INT_44 1
OPT_INT_46 1
OPT_INT_45 0
OPT_INT_48 5
OPT_INT_52 3
OPT_INT_64 0

object ob_9900_0430
id 1023
rotation 0,000 0,707 0,000 0,707
position 20,578 -1,590 -82,688 0,000
item_flag 00 00 00 00 00 00 00 00 00 00 00 00 00 00 00 00 00 00 00 00 04 00 00 00
byte_flag 02 00 00 00 00 00 00 00 00 00 00 00 00 00 08 00 00 00 00 00
OPT_INT_47 -1
OPT_INT_44 1
OPT_INT_46 1
OPT_INT_45 0
OPT_INT_48 5
OPT_INT_52 3
OPT_INT_64 0

object ob_9900_0430
id 1026
rotation 0,000 0,000 0,000 1,000
position -30,859 -0,420 15,797 0,000
item_flag 00 00 00 00 00 00 00 00 00 00 00 00 00 00 00 00 00 00 00 00 04 00 00 00
byte_flag 02 00 00 00 00 00 00 00 00 00 00 00 00 00 08 00 00 00 00 00
OPT_INT_47 -1
OPT_INT_44 1
OPT_INT_46 1
OPT_INT_45 0
OPT_INT_48 5
OPT_INT_52 3
OPT_INT_64 0

object ob_9900_0430
id 1025
rotation 0,000 0,000 0,000 1,000
position -40,594 -2,479 -9,445 0,000
item_flag 00 00 00 00 00 00 00 00 00 00 00 00 00 00 00 00 00 00 00 00 04 00 00 00
byte_flag 02 00 00 00 00 00 00 00 00 00 00 00 00 00 08 00 00 00 00 00
OPT_INT_47 -1
OPT_INT_44 1
OPT_INT_46 1
OPT_INT_45 0
OPT_INT_48 5
OPT_INT_52 3
OPT_INT_64 0

object ob_9900_0430
id 1028
rotation 0,000 0,707 0,000 0,707
position 48,875 -1,479 -5,598 0,000
item_flag 00 00 00 00 00 00 00 00 00 00 00 00 00 00 00 00 00 00 00 00 04 00 00 00
byte_flag 02 00 00 00 00 00 00 00 00 00 00 00 00 00 08 00 00 00 00 00
OPT_INT_47 -1
OPT_INT_44 1
OPT_INT_46 1
OPT_INT_45 0
OPT_INT_48 5
OPT_INT_52 3
OPT_INT_64 0

object ob_9900_0430
id 1027
rotation 0,000 0,000 0,000 1,000
position -27,250 -1,560 17,172 0,000
item_flag 00 00 00 00 00 00 00 00 00 00 00 00 00 00 00 00 00 00 00 00 04 00 00 00
byte_flag 02 00 00 00 00 00 00 00 00 00 00 00 00 00 08 00 00 00 00 00
OPT_INT_47 -1
OPT_INT_44 1
OPT_INT_46 1
OPT_INT_45 0
OPT_INT_48 5
OPT_INT_52 3
OPT_INT_64 0

object ob_0310_0044
id 982
rotation 0,000 0,000 0,000 1,000
position 117,000 5,000 -14,992 0,000
item_flag 00 00 00 00 00 00 00 00 00 00 00 00 00 00 00 00 00 00 00 00 04 00 00 00
byte_flag 02 00 00 00 00 00 00 00 00 00 00 00 00 00 08 00 C0 45 71 1E
OPT_INT_47 -1
OPT_INT_44 1
OPT_INT_46 0
OPT_INT_53 0
OPT_INT_54 1
OPT_INT_59 269484333

object ob_0310_0044
id 984
rotation 0,000 0,707 0,000 0,707
position 95,563 12,008 -16,172 0,000
item_flag 00 00 00 00 00 00 00 00 00 00 00 00 00 00 00 00 00 00 00 00 04 00 00 00
byte_flag 02 00 00 00 00 00 00 00 00 00 00 00 00 00 08 00 C0 45 71 1E
OPT_INT_47 -1
OPT_INT_44 1
OPT_INT_46 0
OPT_INT_53 0
OPT_INT_54 1
OPT_INT_59 269484334

object ob_0310_0044
id 986
rotation 0,000 0,966 0,000 0,259
position -143,500 14,313 72,688 0,000
item_flag 00 00 00 00 00 00 00 00 00 00 00 00 00 00 00 00 00 00 00 00 04 00 00 00
byte_flag 02 00 00 00 00 00 00 00 00 00 00 00 00 00 08 00 C0 45 71 1E
OPT_INT_47 -1
OPT_INT_44 1
OPT_INT_46 0
OPT_INT_53 0
OPT_INT_54 2
OPT_INT_59 269680642

object ob_0310_0044
id 988
rotation 0,000 -0,643 0,000 -0,766
position -17,000 13,016 68,500 0,000
item_flag 00 00 00 00 00 00 00 00 00 00 00 00 00 00 00 00 00 00 00 00 04 00 00 00
byte_flag 02 00 00 00 00 00 00 00 00 00 00 00 00 00 08 00 C0 45 71 1E
OPT_INT_47 -1
OPT_INT_44 1
OPT_INT_46 0
OPT_INT_53 0
OPT_INT_54 2
OPT_INT_59 269746454

object ob_0310_0044
id 974
rotation 0,000 0,707 0,000 -0,707
position 35,000 11,000 9,992 0,000
item_flag 00 00 00 00 00 00 00 00 00 00 00 00 00 00 00 00 00 00 00 00 04 00 00 00
byte_flag 02 00 00 00 00 00 00 00 00 00 00 00 00 00 08 00 C0 45 71 1E
OPT_INT_47 -1
OPT_INT_44 1
OPT_INT_46 0
OPT_INT_53 0
OPT_INT_54 2
OPT_INT_59 269418756

object ob_0310_0044
id 976
rotation 0,000 0,906 0,000 0,423
position 39,500 12,500 -7,996 0,000
item_flag 00 00 00 00 00 00 00 00 00 00 00 00 00 00 00 00 00 00 00 00 04 00 00 00
byte_flag 02 00 00 00 00 00 00 00 00 00 00 00 00 00 08 00 C0 45 71 1E
OPT_INT_47 -1
OPT_INT_44 1
OPT_INT_46 0
OPT_INT_53 0
OPT_INT_54 1
OPT_INT_59 269418757

object ob_0310_0044
id 978
rotation 0,000 0,707 0,000 0,707
position 145,000 15,000 -9,492 0,000
item_flag 00 00 00 00 00 00 00 00 00 00 00 00 00 00 00 00 00 00 00 00 04 00 00 00
byte_flag 02 00 00 00 00 00 00 00 00 00 00 00 00 00 08 00 C0 45 71 1E
OPT_INT_47 -1
OPT_INT_44 1
OPT_INT_46 0
OPT_INT_53 0
OPT_INT_54 1
OPT_INT_59 269484331

object ob_0310_0044
id 980
rotation 0,000 0,707 0,000 -0,707
position 131,000 12,000 17,984 0,000
item_flag 00 00 00 00 00 00 00 00 00 00 00 00 00 00 00 00 00 00 00 00 04 00 00 00
byte_flag 02 00 00 00 00 00 00 00 00 00 00 00 00 00 08 00 C0 45 71 1E
OPT_INT_47 -1
OPT_INT_44 1
OPT_INT_46 0
OPT_INT_53 0
OPT_INT_54 4
OPT_INT_59 269484332

object ob_0310_0044
id 998
rotation 0,000 0,000 0,000 1,000
position 113,000 17,000 78,000 0,000
item_flag 00 00 00 00 00 00 00 00 00 00 00 00 00 00 00 00 00 00 00 00 04 00 00 00
byte_flag 02 00 00 00 00 00 00 00 00 00 00 00 00 00 08 00 C0 45 71 1E
OPT_INT_47 -1
OPT_INT_44 1
OPT_INT_46 0
OPT_INT_53 0
OPT_INT_54 1
OPT_INT_59 269877826

object ob_0310_0044
id 1000
rotation 0,000 0,707 0,000 0,707
position 122,000 20,000 88,000 0,000
item_flag 00 00 00 00 00 00 00 00 00 00 00 00 00 00 00 00 00 00 00 00 04 00 00 00
byte_flag 02 00 00 00 00 00 00 00 00 00 00 00 00 00 08 00 C0 45 71 1E
OPT_INT_47 -1
OPT_INT_44 1
OPT_INT_46 0
OPT_INT_53 0
OPT_INT_54 3
OPT_INT_59 269877827

object ob_0310_0044
id 1002
rotation 0,000 0,707 0,000 -0,707
position 120,000 17,500 71,000 0,000
item_flag 00 00 00 00 00 00 00 00 00 00 00 00 00 00 00 00 00 00 00 00 04 00 00 00
byte_flag 02 00 00 00 00 00 00 00 00 00 00 00 00 00 08 00 C0 45 71 1E
OPT_INT_47 -1
OPT_INT_44 1
OPT_INT_46 0
OPT_INT_53 0
OPT_INT_54 4
OPT_INT_59 269877828

object oa_touch_screen_async
id 1004
rotation 0,000 0,707 0,000 0,707
position -191,250 -1,279 -1,452 0,000
item_flag 18 00 00 00 EB 03 00 00 00 00 00 00 06 00 72 1D 00 00 00 00 04 00 00 00
byte_flag 02 00 00 00 00 00 00 00 00 00 00 00 00 00 00 00 C0 45 71 1E
OPT_INT_47 -1
OPT_INT_44 1
OPT_INT_46 2
OPT_INT_45 0
OPT_INT_48 5

object oa_msg_pack
id 1003
rotation 0,000 0,707 0,000 0,707
position -191,250 -1,279 -1,452 0,000
item_flag 1D 00 00 00 00 00 00 00 00 00 00 00 00 00 00 00 00 00 00 00 04 00 00 00
byte_flag 02 00 00 00 00 00 00 00 00 00 00 00 00 00 00 00 00 00 00 00
OPT_INT_47 -1
OPT_INT_44 1
OPT_INT_46 0
OPT_INT_52 0

object ob_0310_0044
id 990
rotation 0,000 0,737 0,000 -0,675
position -44,000 12,000 99,500 0,000
item_flag 00 00 00 00 00 00 00 00 00 00 00 00 00 00 00 00 00 00 00 00 04 00 00 00
byte_flag 02 00 00 00 00 00 00 00 00 00 00 00 00 00 08 00 C0 45 71 1E
OPT_INT_47 -1
OPT_INT_44 1
OPT_INT_46 0
OPT_INT_53 0
OPT_INT_54 1
OPT_INT_59 269746455

object ob_0310_0044
id 992
rotation 0,000 0,573 0,000 -0,819
position 63,219 9,641 78,313 0,000
item_flag 00 00 00 00 00 00 00 00 00 00 00 00 00 00 00 00 00 00 00 00 04 00 00 00
byte_flag 02 00 00 00 00 00 00 00 00 00 00 00 00 00 08 00 C0 45 71 1E
OPT_INT_47 -1
OPT_INT_44 1
OPT_INT_46 0
OPT_INT_53 0
OPT_INT_54 2
OPT_INT_59 269811926

object ob_0310_0044
id 994
rotation 0,000 0,595 0,000 0,803
position 16,672 16,891 72,813 0,000
item_flag 00 00 00 00 00 00 00 00 00 00 00 00 00 00 00 00 00 00 00 00 04 00 00 00
byte_flag 02 00 00 00 00 00 00 00 00 00 00 00 00 00 08 00 C0 45 71 1E
OPT_INT_47 -1
OPT_INT_44 1
OPT_INT_46 0
OPT_INT_53 0
OPT_INT_54 1
OPT_INT_59 269811927

object ob_0310_0044
id 996
rotation 0,000 1,000 0,000 0,000
position 130,000 17,500 80,000 0,000
item_flag 00 00 00 00 00 00 00 00 00 00 00 00 00 00 00 00 00 00 00 00 04 00 00 00
byte_flag 02 00 00 00 00 00 00 00 00 00 00 00 00 00 08 00 C0 45 71 1E
OPT_INT_47 -1
OPT_INT_44 1
OPT_INT_46 0
OPT_INT_53 0
OPT_INT_54 2
OPT_INT_59 269877825

object ob_0310_0044
id 950
rotation 0,000 0,707 0,000 -0,707
position -195,000 15,000 -65,000 0,000
item_flag 00 00 00 00 00 00 00 00 00 00 00 00 00 00 00 00 00 00 00 00 04 00 00 00
byte_flag 02 00 00 00 00 00 00 00 00 00 00 00 00 00 08 00 C0 45 71 1E
OPT_INT_47 -1
OPT_INT_44 1
OPT_INT_46 0
OPT_INT_53 0
OPT_INT_54 2
OPT_INT_59 268828728

object ob_0310_0044
id 952
rotation 0,000 -0,707 0,000 -0,707
position -177,000 15,000 -96,000 0,000
item_flag 00 00 00 00 00 00 00 00 00 00 00 00 00 00 00 00 00 00 00 00 04 00 00 00
byte_flag 02 00 00 00 00 00 00 00 00 00 00 00 00 00 08 00 C0 45 71 1E
OPT_INT_47 -1
OPT_INT_44 1
OPT_INT_46 0
OPT_INT_53 0
OPT_INT_54 2
OPT_INT_59 268828729

object ob_0310_0044
id 954
rotation 0,000 0,924 0,000 0,383
position -51,000 18,000 -100,000 0,000
item_flag 00 00 00 00 00 00 00 00 00 00 00 00 00 00 00 00 00 00 00 00 04 00 00 00
byte_flag 02 00 00 00 00 00 00 00 00 00 00 00 00 00 08 00 C0 45 71 1E
OPT_INT_47 -1
OPT_INT_44 1
OPT_INT_46 0
OPT_INT_53 0
OPT_INT_54 1
OPT_INT_59 268959968

object ob_0310_0044
id 956
rotation 0,000 1,000 0,000 0,000
position -53,500 13,000 -56,750 0,000
item_flag 00 00 00 00 00 00 00 00 00 00 00 00 00 00 00 00 00 00 00 00 04 00 00 00
byte_flag 02 00 00 00 00 00 00 00 00 00 00 00 00 00 08 00 C0 45 71 1E
OPT_INT_47 -1
OPT_INT_44 1
OPT_INT_46 0
OPT_INT_53 0
OPT_INT_54 1
OPT_INT_59 268959969

object ob_9900_0308
id 942
rotation 0,000 0,707 0,000 0,707
position -189,750 2,074 -94,563 0,000
item_flag 00 00 00 00 00 00 00 00 00 00 00 00 00 00 00 00 00 00 00 00 04 00 00 00
byte_flag 02 00 00 00 00 00 00 00 00 00 00 00 00 00 08 00 00 00 00 00
OPT_INT_47 -1
OPT_INT_44 1
OPT_INT_46 0
OPT_INT_45 0
OPT_INT_48 5
OPT_FLOAT_0 1
OPT_FLOAT_1 1

object ob_9900_0308
id 941
rotation 0,000 0,707 0,000 0,707
position -192,750 2,053 -94,375 0,000
item_flag 00 00 00 00 00 00 00 00 00 00 00 00 00 00 00 00 00 00 00 00 04 00 00 00
byte_flag 02 00 00 00 00 00 00 00 00 00 00 00 00 00 08 00 00 00 00 00
OPT_INT_47 -1
OPT_INT_44 1
OPT_INT_46 0
OPT_INT_45 0
OPT_INT_48 5
OPT_FLOAT_0 1
OPT_FLOAT_1 1

object ob_9900_0308
id 944
rotation 0,000 0,707 0,000 -0,707
position 205,375 -1,372 -15,023 0,000
item_flag 00 00 00 00 00 00 00 00 00 00 00 00 00 00 00 00 00 00 00 00 04 00 00 00
byte_flag 02 00 00 00 00 00 00 00 00 00 00 00 00 00 08 00 00 00 00 00
OPT_INT_47 -1
OPT_INT_44 1
OPT_INT_46 0
OPT_INT_45 0
OPT_INT_48 5
OPT_FLOAT_0 1
OPT_FLOAT_1 1

object ob_9900_0308
id 943
rotation 0,000 0,707 0,000 -0,707
position 201,875 -1,295 -14,914 0,000
item_flag 00 00 00 00 00 00 00 00 00 00 00 00 00 00 00 00 00 00 00 00 04 00 00 00
byte_flag 02 00 00 00 00 00 00 00 00 00 00 00 00 00 08 00 00 00 00 00
OPT_INT_47 -1
OPT_INT_44 1
OPT_INT_46 0
OPT_INT_45 0
OPT_INT_48 5
OPT_FLOAT_0 1
OPT_FLOAT_1 1

object ob_9900_0308
id 946
rotation 0,000 0,423 0,000 -0,906
position 188,500 4,512 -17,328 0,000
item_flag 00 00 00 00 00 00 00 00 00 00 00 00 00 00 00 00 00 00 00 00 04 00 00 00
byte_flag 02 00 00 00 00 00 00 00 00 00 00 00 00 00 08 00 00 00 00 00
OPT_INT_47 -1
OPT_INT_44 1
OPT_INT_46 0
OPT_INT_45 0
OPT_INT_48 5
OPT_FLOAT_0 1
OPT_FLOAT_1 1

object ob_9900_0308
id 945
rotation 0,000 0,423 0,000 -0,906
position 191,250 4,730 -19,484 0,000
item_flag 00 00 00 00 00 00 00 00 00 00 00 00 00 00 00 00 00 00 00 00 04 00 00 00
byte_flag 02 00 00 00 00 00 00 00 00 00 00 00 00 00 08 00 00 00 00 00
OPT_INT_47 -1
OPT_INT_44 1
OPT_INT_46 0
OPT_INT_45 0
OPT_INT_48 5
OPT_FLOAT_0 1
OPT_FLOAT_1 1

object ob_9900_0308
id 948
rotation 0,000 0,000 0,000 1,000
position -122,125 -1,999 68,438 0,000
item_flag 00 00 00 00 00 00 00 00 00 00 00 00 00 00 00 00 00 00 00 00 04 00 00 00
byte_flag 02 00 00 00 00 00 00 00 00 00 00 00 00 00 08 00 00 00 00 00
OPT_INT_47 -1
OPT_INT_44 1
OPT_INT_46 0
OPT_INT_45 0
OPT_INT_48 5
OPT_FLOAT_0 1
OPT_FLOAT_1 1

object ob_9900_0308
id 947
rotation 0,000 0,423 0,000 -0,906
position 186,000 4,344 -15,086 0,000
item_flag 00 00 00 00 00 00 00 00 00 00 00 00 00 00 00 00 00 00 00 00 04 00 00 00
byte_flag 02 00 00 00 00 00 00 00 00 00 00 00 00 00 08 00 00 00 00 00
OPT_INT_47 -1
OPT_INT_44 1
OPT_INT_46 0
OPT_INT_45 0
OPT_INT_48 5
OPT_FLOAT_0 1
OPT_FLOAT_1 1

object ob_0310_0044
id 966
rotation 0,000 0,984 0,000 0,177
position -107,250 16,656 -3,205 0,000
item_flag 00 00 00 00 00 00 00 00 00 00 00 00 00 00 00 00 00 00 00 00 04 00 00 00
byte_flag 02 00 00 00 00 00 00 00 00 00 00 00 00 00 08 00 C0 45 71 1E
OPT_INT_47 -1
OPT_INT_44 1
OPT_INT_46 0
OPT_INT_53 0
OPT_INT_54 2
OPT_INT_59 269287427

object ob_0310_0044
id 968
rotation 0,000 0,129 0,000 -0,991
position -100,938 13,094 19,438 0,000
item_flag 00 00 00 00 00 00 00 00 00 00 00 00 00 00 00 00 00 00 00 00 04 00 00 00
byte_flag 02 00 00 00 00 00 00 00 00 00 00 00 00 00 08 00 C0 45 71 1E
OPT_INT_47 -1
OPT_INT_44 1
OPT_INT_46 0
OPT_INT_53 0
OPT_INT_54 2
OPT_INT_59 269287428

object ob_0310_0044
id 970
rotation 0,000 0,000 0,000 1,000
position -41,000 7,000 -18,000 0,000
item_flag 00 00 00 00 00 00 00 00 00 00 00 00 00 00 00 00 00 00 00 00 04 00 00 00
byte_flag 02 00 00 00 00 00 00 00 00 00 00 00 00 00 08 00 C0 45 71 1E
OPT_INT_47 -1
OPT_INT_44 1
OPT_INT_46 0
OPT_INT_53 0
OPT_INT_54 1
OPT_INT_59 269353219

object ob_0310_0044
id 972
rotation 0,000 -0,793 0,000 0,608
position -10,000 15,000 17,000 0,000
item_flag 00 00 00 00 00 00 00 00 00 00 00 00 00 00 00 00 00 00 00 00 04 00 00 00
byte_flag 02 00 00 00 00 00 00 00 00 00 00 00 00 00 08 00 C0 45 71 1E
OPT_INT_47 -1
OPT_INT_44 1
OPT_INT_46 0
OPT_INT_53 0
OPT_INT_54 1
OPT_INT_59 269353220

object ob_0310_0044
id 958
rotation 0,000 0,259 0,000 -0,966
position -21,000 8,000 -70,500 0,000
item_flag 00 00 00 00 00 00 00 00 00 00 00 00 00 00 00 00 00 00 00 00 04 00 00 00
byte_flag 02 00 00 00 00 00 00 00 00 00 00 00 00 00 08 00 C0 45 71 1E
OPT_INT_47 -1
OPT_INT_44 1
OPT_INT_46 0
OPT_INT_53 0
OPT_INT_54 2
OPT_INT_59 268959970

object ob_0310_0044
id 960
rotation 0,000 0,707 0,000 -0,707
position 21,719 8,000 -73,000 0,000
item_flag 00 00 00 00 00 00 00 00 00 00 00 00 00 00 00 00 00 00 00 00 04 00 00 00
byte_flag 02 00 00 00 00 00 00 00 00 00 00 00 00 00 08 00 C0 45 71 1E
OPT_INT_47 -1
OPT_INT_44 1
OPT_INT_46 0
OPT_INT_53 0
OPT_INT_54 2
OPT_INT_59 269025282

object ob_0310_0044
id 962
rotation 0,000 0,984 0,000 0,177
position 132,625 16,656 -83,188 0,000
item_flag 00 00 00 00 00 00 00 00 00 00 00 00 00 00 00 00 00 00 00 00 04 00 00 00
byte_flag 02 00 00 00 00 00 00 00 00 00 00 00 00 00 08 00 C0 45 71 1E
OPT_INT_47 -1
OPT_INT_44 1
OPT_INT_46 0
OPT_INT_53 0
OPT_INT_54 2
OPT_INT_59 269090819

object ob_0310_0044
id 964
rotation 0,000 0,129 0,000 -0,991
position 139,000 13,094 -60,531 0,000
item_flag 00 00 00 00 00 00 00 00 00 00 00 00 00 00 00 00 00 00 00 00 04 00 00 00
byte_flag 02 00 00 00 00 00 00 00 00 00 00 00 00 00 08 00 C0 45 71 1E
OPT_INT_47 -1
OPT_INT_44 1
OPT_INT_46 0
OPT_INT_53 0
OPT_INT_54 2
OPT_INT_59 269090820

object ob_0310_0055
id 918
rotation 0,000 0,000 0,000 1,000
position -102,813 -1,999 85,500 0,000
item_flag 00 00 00 00 00 00 00 00 00 00 00 00 00 00 00 00 00 00 00 00 04 00 00 00
byte_flag 02 00 00 00 00 00 00 00 00 00 00 00 00 00 08 00 00 00 00 00
OPT_INT_47 -1
OPT_INT_44 1
OPT_INT_46 1
OPT_INT_45 0
OPT_INT_48 5
OPT_FLOAT_0 1
OPT_FLOAT_1 1

object ob_0310_0055
id 917
rotation 0,000 0,000 0,000 1,000
position -101,250 -1,999 88,063 0,000
item_flag 00 00 00 00 00 00 00 00 00 00 00 00 00 00 00 00 00 00 00 00 04 00 00 00
byte_flag 02 00 00 00 00 00 00 00 00 00 00 00 00 00 08 00 00 00 00 00
OPT_INT_47 -1
OPT_INT_44 1
OPT_INT_46 1
OPT_INT_45 0
OPT_INT_48 5
OPT_FLOAT_0 1
OPT_FLOAT_1 1

object ob_0310_0055
id 920
rotation 0,000 0,866 0,000 0,500
position -105,813 -1,999 85,500 0,000
item_flag 00 00 00 00 00 00 00 00 00 00 00 00 00 00 00 00 00 00 00 00 04 00 00 00
byte_flag 02 00 00 00 00 00 00 00 00 00 00 00 00 00 08 00 00 00 00 00
OPT_INT_47 -1
OPT_INT_44 1
OPT_INT_46 1
OPT_INT_45 0
OPT_INT_48 5
OPT_FLOAT_0 1
OPT_FLOAT_1 1

object ob_0310_0055
id 919
rotation 0,000 0,500 0,000 0,866
position -102,563 -1,999 90,750 0,000
item_flag 00 00 00 00 00 00 00 00 00 00 00 00 00 00 00 00 00 00 00 00 04 00 00 00
byte_flag 02 00 00 00 00 00 00 00 00 00 00 00 00 00 08 00 00 00 00 00
OPT_INT_47 -1
OPT_INT_44 1
OPT_INT_46 1
OPT_INT_45 0
OPT_INT_48 5
OPT_FLOAT_0 1
OPT_FLOAT_1 1

object ob_0310_0055
id 922
rotation 0,000 0,866 0,000 -0,500
position -108,125 -1,999 91,000 0,000
item_flag 00 00 00 00 00 00 00 00 00 00 00 00 00 00 00 00 00 00 00 00 04 00 00 00
byte_flag 02 00 00 00 00 00 00 00 00 00 00 00 00 00 08 00 00 00 00 00
OPT_INT_47 -1
OPT_INT_44 1
OPT_INT_46 1
OPT_INT_45 0
OPT_INT_48 5
OPT_FLOAT_0 1
OPT_FLOAT_1 1

object ob_0310_0055
id 921
rotation 0,000 0,500 0,000 0,866
position -107,125 -1,999 88,188 0,000
item_flag 00 00 00 00 00 00 00 00 00 00 00 00 00 00 00 00 00 00 00 00 04 00 00 00
byte_flag 02 00 00 00 00 00 00 00 00 00 00 00 00 00 08 00 00 00 00 00
OPT_INT_47 -1
OPT_INT_44 1
OPT_INT_46 1
OPT_INT_45 0
OPT_INT_48 5
OPT_FLOAT_0 1
OPT_FLOAT_1 1

object ob_0310_0055
id 923
rotation 0,000 0,500 0,000 0,866
position -105,125 -1,999 91,000 0,000
item_flag 00 00 00 00 00 00 00 00 00 00 00 00 00 00 00 00 00 00 00 00 04 00 00 00
byte_flag 02 00 00 00 00 00 00 00 00 00 00 00 00 00 08 00 00 00 00 00
OPT_INT_47 -1
OPT_INT_44 1
OPT_INT_46 1
OPT_INT_45 0
OPT_INT_48 5
OPT_FLOAT_0 1
OPT_FLOAT_1 1

object ob_0310_0055
id 910
rotation 0,000 0,000 0,000 1,000
position -116,688 -1,999 65,875 0,000
item_flag 00 00 00 00 00 00 00 00 00 00 00 00 00 00 00 00 00 00 00 00 04 00 00 00
byte_flag 02 00 00 00 00 00 00 00 00 00 00 00 00 00 08 00 00 00 00 00
OPT_INT_47 -1
OPT_INT_44 1
OPT_INT_46 1
OPT_INT_45 0
OPT_INT_48 5
OPT_FLOAT_0 1
OPT_FLOAT_1 1

object ob_0310_0055
id 909
rotation 0,000 1,000 0,000 0,000
position -116,938 -1,999 60,656 0,000
item_flag 00 00 00 00 00 00 00 00 00 00 00 00 00 00 00 00 00 00 00 00 04 00 00 00
byte_flag 02 00 00 00 00 00 00 00 00 00 00 00 00 00 08 00 00 00 00 00
OPT_INT_47 -1
OPT_INT_44 1
OPT_INT_46 1
OPT_INT_45 0
OPT_INT_48 5
OPT_FLOAT_0 1
OPT_FLOAT_1 1

object ob_0310_0055
id 912
rotation 0,000 0,866 0,000 -0,500
position -121,250 -1,999 63,344 0,000
item_flag 00 00 00 00 00 00 00 00 00 00 00 00 00 00 00 00 00 00 00 00 04 00 00 00
byte_flag 02 00 00 00 00 00 00 00 00 00 00 00 00 00 08 00 00 00 00 00
OPT_INT_47 -1
OPT_INT_44 1
OPT_INT_46 1
OPT_INT_45 0
OPT_INT_48 5
OPT_FLOAT_0 1
OPT_FLOAT_1 1

object ob_0310_0055
id 911
rotation 0,000 0,000 0,000 1,000
position -119,938 -1,999 60,656 0,000
item_flag 00 00 00 00 00 00 00 00 00 00 00 00 00 00 00 00 00 00 00 00 04 00 00 00
byte_flag 02 00 00 00 00 00 00 00 00 00 00 00 00 00 08 00 00 00 00 00
OPT_INT_47 -1
OPT_INT_44 1
OPT_INT_46 1
OPT_INT_45 0
OPT_INT_48 5
OPT_FLOAT_0 1
OPT_FLOAT_1 1

object ob_0310_0055
id 914
rotation 0,000 1,000 0,000 0,000
position -119,250 -1,999 66,188 0,000
item_flag 00 00 00 00 00 00 00 00 00 00 00 00 00 00 00 00 00 00 00 00 04 00 00 00
byte_flag 02 00 00 00 00 00 00 00 00 00 00 00 00 00 08 00 00 00 00 00
OPT_INT_47 -1
OPT_INT_44 1
OPT_INT_46 1
OPT_INT_45 0
OPT_INT_48 5
OPT_FLOAT_0 1
OPT_FLOAT_1 1

object ob_0310_0055
id 913
rotation 0,000 0,000 0,000 1,000
position -122,250 -1,999 66,188 0,000
item_flag 00 00 00 00 00 00 00 00 00 00 00 00 00 00 00 00 00 00 00 00 04 00 00 00
byte_flag 02 00 00 00 00 00 00 00 00 00 00 00 00 00 08 00 00 00 00 00
OPT_INT_47 -1
OPT_INT_44 1
OPT_INT_46 1
OPT_INT_45 0
OPT_INT_48 5
OPT_FLOAT_0 1
OPT_FLOAT_1 1

object ob_0310_0055
id 916
rotation 0,000 0,866 0,000 0,500
position -104,250 -1,999 88,063 0,000
item_flag 00 00 00 00 00 00 00 00 00 00 00 00 00 00 00 00 00 00 00 00 04 00 00 00
byte_flag 02 00 00 00 00 00 00 00 00 00 00 00 00 00 08 00 00 00 00 00
OPT_INT_47 -1
OPT_INT_44 1
OPT_INT_46 1
OPT_INT_45 0
OPT_INT_48 5
OPT_FLOAT_0 1
OPT_FLOAT_1 1

object ob_0310_0055
id 934
rotation 0,000 0,866 0,000 -0,500
position -112,250 -1,999 63,688 0,000
item_flag 00 00 00 00 00 00 00 00 00 00 00 00 00 00 00 00 00 00 00 00 04 00 00 00
byte_flag 02 00 00 00 00 00 00 00 00 00 00 00 00 00 08 00 00 00 00 00
OPT_INT_47 -1
OPT_INT_44 1
OPT_INT_46 1
OPT_INT_45 0
OPT_INT_48 5
OPT_FLOAT_0 1
OPT_FLOAT_1 1

object ob_0310_0055
id 936
rotation 0,000 0,500 0,000 0,866
position 41,313 1,384 68,250 0,000
item_flag 00 00 00 00 00 00 00 00 00 00 00 00 00 00 00 00 00 00 00 00 04 00 00 00
byte_flag 02 00 00 00 00 00 00 00 00 00 00 00 00 00 08 00 00 00 00 00
OPT_INT_47 -1
OPT_INT_44 1
OPT_INT_46 1
OPT_INT_45 0
OPT_INT_48 5
OPT_FLOAT_0 1
OPT_FLOAT_1 1

object ob_0310_0055
id 937
rotation 0,000 0,866 0,000 -0,500
position 44,281 1,384 67,875 0,000
item_flag 00 00 00 00 00 00 00 00 00 00 00 00 00 00 00 00 00 00 00 00 04 00 00 00
byte_flag 02 00 00 00 00 00 00 00 00 00 00 00 00 00 08 00 00 00 00 00
OPT_INT_47 -1
OPT_INT_44 1
OPT_INT_46 1
OPT_INT_45 0
OPT_INT_48 5
OPT_FLOAT_0 1
OPT_FLOAT_1 1

object ob_0310_0055
id 940
rotation 0,000 1,000 0,000 0,000
position 49,500 0,115 81,000 0,000
item_flag 00 00 00 00 00 00 00 00 00 00 00 00 00 00 00 00 00 00 00 00 04 00 00 00
byte_flag 02 00 00 00 00 00 00 00 00 00 00 00 00 00 08 00 00 00 00 00
OPT_INT_47 -1
OPT_INT_44 1
OPT_INT_46 1
OPT_INT_45 0
OPT_INT_48 5
OPT_FLOAT_0 1
OPT_FLOAT_1 1

object ob_0310_0055
id 939
rotation 0,000 0,000 0,000 1,000
position 46,500 0,115 81,000 0,000
item_flag 00 00 00 00 00 00 00 00 00 00 00 00 00 00 00 00 00 00 00 00 04 00 00 00
byte_flag 02 00 00 00 00 00 00 00 00 00 00 00 00 00 08 00 00 00 00 00
OPT_INT_47 -1
OPT_INT_44 1
OPT_INT_46 1
OPT_INT_45 0
OPT_INT_48 5
OPT_FLOAT_0 1
OPT_FLOAT_1 1

object ob_0310_0055
id 926
rotation 0,000 0,866 0,000 0,500
position -125,250 -1,999 81,625 0,000
item_flag 00 00 00 00 00 00 00 00 00 00 00 00 00 00 00 00 00 00 00 00 04 00 00 00
byte_flag 02 00 00 00 00 00 00 00 00 00 00 00 00 00 08 00 00 00 00 00
OPT_INT_47 -1
OPT_INT_44 1
OPT_INT_46 1
OPT_INT_45 0
OPT_INT_48 5
OPT_FLOAT_0 1
OPT_FLOAT_1 1

object ob_0310_0055
id 925
rotation 0,000 0,000 0,000 1,000
position -128,250 -1,999 81,625 0,000
item_flag 00 00 00 00 00 00 00 00 00 00 00 00 00 00 00 00 00 00 00 00 04 00 00 00
byte_flag 02 00 00 00 00 00 00 00 00 00 00 00 00 00 08 00 00 00 00 00
OPT_INT_47 -1
OPT_INT_44 1
OPT_INT_46 1
OPT_INT_45 0
OPT_INT_48 5
OPT_FLOAT_0 1
OPT_FLOAT_1 1

object ob_0310_0055
id 928
rotation 0,000 0,500 0,000 0,866
position -126,563 -1,999 84,313 0,000
item_flag 00 00 00 00 00 00 00 00 00 00 00 00 00 00 00 00 00 00 00 00 04 00 00 00
byte_flag 02 00 00 00 00 00 00 00 00 00 00 00 00 00 08 00 00 00 00 00
OPT_INT_47 -1
OPT_INT_44 1
OPT_INT_46 1
OPT_INT_45 0
OPT_INT_48 5
OPT_FLOAT_0 1
OPT_FLOAT_1 1

object ob_0310_0055
id 927
rotation 0,000 0,866 0,000 0,500
position -126,813 -1,999 79,063 0,000
item_flag 00 00 00 00 00 00 00 00 00 00 00 00 00 00 00 00 00 00 00 00 04 00 00 00
byte_flag 02 00 00 00 00 00 00 00 00 00 00 00 00 00 08 00 00 00 00 00
OPT_INT_47 -1
OPT_INT_44 1
OPT_INT_46 1
OPT_INT_45 0
OPT_INT_48 5
OPT_FLOAT_0 1
OPT_FLOAT_1 1

object ob_0310_0055
id 930
rotation 0,000 0,866 0,000 -0,500
position -131,125 -1,999 81,750 0,000
item_flag 00 00 00 00 00 00 00 00 00 00 00 00 00 00 00 00 00 00 00 00 04 00 00 00
byte_flag 02 00 00 00 00 00 00 00 00 00 00 00 00 00 08 00 00 00 00 00
OPT_INT_47 -1
OPT_INT_44 1
OPT_INT_46 1
OPT_INT_45 0
OPT_INT_48 5
OPT_FLOAT_0 1
OPT_FLOAT_1 1

object ob_0310_0055
id 929
rotation 0,000 0,500 0,000 0,866
position -129,750 -1,999 79,063 0,000
item_flag 00 00 00 00 00 00 00 00 00 00 00 00 00 00 00 00 00 00 00 00 04 00 00 00
byte_flag 02 00 00 00 00 00 00 00 00 00 00 00 00 00 08 00 00 00 00 00
OPT_INT_47 -1
OPT_INT_44 1
OPT_INT_46 1
OPT_INT_45 0
OPT_INT_48 5
OPT_FLOAT_0 1
OPT_FLOAT_1 1

object ob_0310_0055
id 932
rotation 0,000 0,866 0,000 0,500
position -129,125 -1,999 84,563 0,000
item_flag 00 00 00 00 00 00 00 00 00 00 00 00 00 00 00 00 00 00 00 00 04 00 00 00
byte_flag 02 00 00 00 00 00 00 00 00 00 00 00 00 00 08 00 00 00 00 00
OPT_INT_47 -1
OPT_INT_44 1
OPT_INT_46 1
OPT_INT_45 0
OPT_INT_48 5
OPT_FLOAT_0 1
OPT_FLOAT_1 1

object ob_0310_0055
id 931
rotation 0,000 0,000 0,000 1,000
position -132,125 -1,999 84,563 0,000
item_flag 00 00 00 00 00 00 00 00 00 00 00 00 00 00 00 00 00 00 00 00 04 00 00 00
byte_flag 02 00 00 00 00 00 00 00 00 00 00 00 00 00 08 00 00 00 00 00
OPT_INT_47 -1
OPT_INT_44 1
OPT_INT_46 1
OPT_INT_45 0
OPT_INT_48 5
OPT_FLOAT_0 1
OPT_FLOAT_1 1

object ob_0310_0055
id 886
rotation 0,000 0,000 0,000 1,000
position -123,750 -1,999 90,125 0,000
item_flag 00 00 00 00 00 00 00 00 00 00 00 00 00 00 00 00 00 00 00 00 04 00 00 00
byte_flag 02 00 00 00 00 00 00 00 00 00 00 00 00 00 08 00 00 00 00 00
OPT_INT_47 -1
OPT_INT_44 1
OPT_INT_46 1
OPT_INT_45 0
OPT_INT_48 5
OPT_FLOAT_0 1
OPT_FLOAT_1 1

object ob_0310_0055
id 885
rotation 0,000 0,000 0,000 1,000
position -122,750 -1,999 87,313 0,000
item_flag 00 00 00 00 00 00 00 00 00 00 00 00 00 00 00 00 00 00 00 00 04 00 00 00
byte_flag 02 00 00 00 00 00 00 00 00 00 00 00 00 00 08 00 00 00 00 00
OPT_INT_47 -1
OPT_INT_44 1
OPT_INT_46 1
OPT_INT_45 0
OPT_INT_48 5
OPT_FLOAT_0 1
OPT_FLOAT_1 1

object ob_0310_0055
id 887
rotation 0,000 0,500 0,000 0,866
position -120,750 -1,999 90,125 0,000
item_flag 00 00 00 00 00 00 00 00 00 00 00 00 00 00 00 00 00 00 00 00 04 00 00 00
byte_flag 02 00 00 00 00 00 00 00 00 00 00 00 00 00 08 00 00 00 00 00
OPT_INT_47 -1
OPT_INT_44 1
OPT_INT_46 1
OPT_INT_45 0
OPT_INT_48 5
OPT_FLOAT_0 1
OPT_FLOAT_1 1

object ob_0310_0055
id 890
rotation 0,000 0,866 0,000 0,500
position -125,375 -1,999 74,313 0,000
item_flag 00 00 00 00 00 00 00 00 00 00 00 00 00 00 00 00 00 00 00 00 04 00 00 00
byte_flag 02 00 00 00 00 00 00 00 00 00 00 00 00 00 08 00 00 00 00 00
OPT_INT_47 -1
OPT_INT_44 1
OPT_INT_46 1
OPT_INT_45 0
OPT_INT_48 5
OPT_FLOAT_0 1
OPT_FLOAT_1 1

object ob_0310_0055
id 889
rotation 0,000 0,000 0,000 1,000
position -128,375 -1,999 74,313 0,000
item_flag 00 00 00 00 00 00 00 00 00 00 00 00 00 00 00 00 00 00 00 00 04 00 00 00
byte_flag 02 00 00 00 00 00 00 00 00 00 00 00 00 00 08 00 00 00 00 00
OPT_INT_47 -1
OPT_INT_44 1
OPT_INT_46 1
OPT_INT_45 0
OPT_INT_48 5
OPT_FLOAT_0 1
OPT_FLOAT_1 1

object ob_0310_0055
id 892
rotation 0,000 1,000 0,000 0,000
position -126,688 -1,999 77,000 0,000
item_flag 00 00 00 00 00 00 00 00 00 00 00 00 00 00 00 00 00 00 00 00 04 00 00 00
byte_flag 02 00 00 00 00 00 00 00 00 00 00 00 00 00 08 00 00 00 00 00
OPT_INT_47 -1
OPT_INT_44 1
OPT_INT_46 1
OPT_INT_45 0
OPT_INT_48 5
OPT_FLOAT_0 1
OPT_FLOAT_1 1

object ob_0310_0055
id 891
rotation 0,000 1,000 0,000 0,000
position -126,938 -1,999 71,750 0,000
item_flag 00 00 00 00 00 00 00 00 00 00 00 00 00 00 00 00 00 00 00 00 04 00 00 00
byte_flag 02 00 00 00 00 00 00 00 00 00 00 00 00 00 08 00 00 00 00 00
OPT_INT_47 -1
OPT_INT_44 1
OPT_INT_46 1
OPT_INT_45 0
OPT_INT_48 5
OPT_FLOAT_0 1
OPT_FLOAT_1 1

object ob_0310_0055
id 878
rotation 0,000 0,866 0,000 -0,500
position -120,813 -1,999 74,000 0,000
item_flag 00 00 00 00 00 00 00 00 00 00 00 00 00 00 00 00 00 00 00 00 04 00 00 00
byte_flag 02 00 00 00 00 00 00 00 00 00 00 00 00 00 08 00 00 00 00 00
OPT_INT_47 -1
OPT_INT_44 1
OPT_INT_46 1
OPT_INT_45 0
OPT_INT_48 5
OPT_FLOAT_0 1
OPT_FLOAT_1 1

object ob_0310_0055
id 877
rotation 0,000 1,000 0,000 0,000
position -123,813 -1,999 74,000 0,000
item_flag 00 00 00 00 00 00 00 00 00 00 00 00 00 00 00 00 00 00 00 00 04 00 00 00
byte_flag 02 00 00 00 00 00 00 00 00 00 00 00 00 00 08 00 00 00 00 00
OPT_INT_47 -1
OPT_INT_44 1
OPT_INT_46 1
OPT_INT_45 0
OPT_INT_48 5
OPT_FLOAT_0 1
OPT_FLOAT_1 1

object ob_0310_0055
id 880
rotation 0,000 0,500 0,000 0,866
position -119,875 -1,999 87,188 0,000
item_flag 00 00 00 00 00 00 00 00 00 00 00 00 00 00 00 00 00 00 00 00 04 00 00 00
byte_flag 02 00 00 00 00 00 00 00 00 00 00 00 00 00 08 00 00 00 00 00
OPT_INT_47 -1
OPT_INT_44 1
OPT_INT_46 1
OPT_INT_45 0
OPT_INT_48 5
OPT_FLOAT_0 1
OPT_FLOAT_1 1

object ob_0310_0055
id 882
rotation 0,000 0,866 0,000 -0,500
position -118,438 -1,999 84,625 0,000
item_flag 00 00 00 00 00 00 00 00 00 00 00 00 00 00 00 00 00 00 00 00 04 00 00 00
byte_flag 02 00 00 00 00 00 00 00 00 00 00 00 00 00 08 00 00 00 00 00
OPT_INT_47 -1
OPT_INT_44 1
OPT_INT_46 1
OPT_INT_45 0
OPT_INT_48 5
OPT_FLOAT_0 1
OPT_FLOAT_1 1

object ob_0310_0055
id 881
rotation 0,000 0,000 0,000 1,000
position -116,875 -1,999 87,188 0,000
item_flag 00 00 00 00 00 00 00 00 00 00 00 00 00 00 00 00 00 00 00 00 04 00 00 00
byte_flag 02 00 00 00 00 00 00 00 00 00 00 00 00 00 08 00 00 00 00 00
OPT_INT_47 -1
OPT_INT_44 1
OPT_INT_46 1
OPT_INT_45 0
OPT_INT_48 5
OPT_FLOAT_0 1
OPT_FLOAT_1 1

object ob_0310_0055
id 884
rotation 0,000 0,000 0,000 1,000
position -121,438 -1,999 84,625 0,000
item_flag 00 00 00 00 00 00 00 00 00 00 00 00 00 00 00 00 00 00 00 00 04 00 00 00
byte_flag 02 00 00 00 00 00 00 00 00 00 00 00 00 00 08 00 00 00 00 00
OPT_INT_47 -1
OPT_INT_44 1
OPT_INT_46 1
OPT_INT_45 0
OPT_INT_48 5
OPT_FLOAT_0 1
OPT_FLOAT_1 1

object ob_0310_0055
id 883
rotation 0,000 0,866 0,000 0,500
position -118,188 -1,999 89,875 0,000
item_flag 00 00 00 00 00 00 00 00 00 00 00 00 00 00 00 00 00 00 00 00 04 00 00 00
byte_flag 02 00 00 00 00 00 00 00 00 00 00 00 00 00 08 00 00 00 00 00
OPT_INT_47 -1
OPT_INT_44 1
OPT_INT_46 1
OPT_INT_45 0
OPT_INT_48 5
OPT_FLOAT_0 1
OPT_FLOAT_1 1

object ob_0310_0055
id 902
rotation 0,000 0,000 0,000 1,000
position -128,125 -1,999 63,250 0,000
item_flag 00 00 00 00 00 00 00 00 00 00 00 00 00 00 00 00 00 00 00 00 04 00 00 00
byte_flag 02 00 00 00 00 00 00 00 00 00 00 00 00 00 08 00 00 00 00 00
OPT_INT_47 -1
OPT_INT_44 1
OPT_INT_46 1
OPT_INT_45 0
OPT_INT_48 5
OPT_FLOAT_0 1
OPT_FLOAT_1 1

object ob_0310_0055
id 901
rotation 0,000 0,866 0,000 -0,500
position -124,938 -1,999 68,500 0,000
item_flag 00 00 00 00 00 00 00 00 00 00 00 00 00 00 00 00 00 00 00 00 04 00 00 00
byte_flag 02 00 00 00 00 00 00 00 00 00 00 00 00 00 08 00 00 00 00 00
OPT_INT_47 -1
OPT_INT_44 1
OPT_INT_46 1
OPT_INT_45 0
OPT_INT_48 5
OPT_FLOAT_0 1
OPT_FLOAT_1 1

object ob_0310_0055
id 904
rotation 0,000 0,000 0,000 1,000
position -130,500 -1,999 68,750 0,000
item_flag 00 00 00 00 00 00 00 00 00 00 00 00 00 00 00 00 00 00 00 00 04 00 00 00
byte_flag 02 00 00 00 00 00 00 00 00 00 00 00 00 00 08 00 00 00 00 00
OPT_INT_47 -1
OPT_INT_44 1
OPT_INT_46 1
OPT_INT_45 0
OPT_INT_48 5
OPT_FLOAT_0 1
OPT_FLOAT_1 1

object ob_0310_0055
id 903
rotation 0,000 1,000 0,000 0,000
position -129,500 -1,999 65,938 0,000
item_flag 00 00 00 00 00 00 00 00 00 00 00 00 00 00 00 00 00 00 00 00 04 00 00 00
byte_flag 02 00 00 00 00 00 00 00 00 00 00 00 00 00 08 00 00 00 00 00
OPT_INT_47 -1
OPT_INT_44 1
OPT_INT_46 1
OPT_INT_45 0
OPT_INT_48 5
OPT_FLOAT_0 1
OPT_FLOAT_1 1

object ob_0310_0055
id 905
rotation 0,000 0,866 0,000 -0,500
position -127,500 -1,999 68,750 0,000
item_flag 00 00 00 00 00 00 00 00 00 00 00 00 00 00 00 00 00 00 00 00 04 00 00 00
byte_flag 02 00 00 00 00 00 00 00 00 00 00 00 00 00 08 00 00 00 00 00
OPT_INT_47 -1
OPT_INT_44 1
OPT_INT_46 1
OPT_INT_45 0
OPT_INT_48 5
OPT_FLOAT_0 1
OPT_FLOAT_1 1

object ob_0310_0055
id 908
rotation 0,000 0,500 0,000 0,866
position -115,375 -1,999 63,219 0,000
item_flag 00 00 00 00 00 00 00 00 00 00 00 00 00 00 00 00 00 00 00 00 04 00 00 00
byte_flag 02 00 00 00 00 00 00 00 00 00 00 00 00 00 08 00 00 00 00 00
OPT_INT_47 -1
OPT_INT_44 1
OPT_INT_46 1
OPT_INT_45 0
OPT_INT_48 5
OPT_FLOAT_0 1
OPT_FLOAT_1 1

object ob_0310_0055
id 907
rotation 0,000 0,000 0,000 1,000
position -118,375 -1,999 63,219 0,000
item_flag 00 00 00 00 00 00 00 00 00 00 00 00 00 00 00 00 00 00 00 00 04 00 00 00
byte_flag 02 00 00 00 00 00 00 00 00 00 00 00 00 00 08 00 00 00 00 00
OPT_INT_47 -1
OPT_INT_44 1
OPT_INT_46 1
OPT_INT_45 0
OPT_INT_48 5
OPT_FLOAT_0 1
OPT_FLOAT_1 1

object ob_0310_0055
id 894
rotation 0,000 0,866 0,000 -0,500
position -131,250 -1,999 74,438 0,000
item_flag 00 00 00 00 00 00 00 00 00 00 00 00 00 00 00 00 00 00 00 00 04 00 00 00
byte_flag 02 00 00 00 00 00 00 00 00 00 00 00 00 00 08 00 00 00 00 00
OPT_INT_47 -1
OPT_INT_44 1
OPT_INT_46 1
OPT_INT_45 0
OPT_INT_48 5
OPT_FLOAT_0 1
OPT_FLOAT_1 1

object ob_0310_0055
id 893
rotation 0,000 1,000 0,000 0,000
position -129,875 -1,999 71,750 0,000
item_flag 00 00 00 00 00 00 00 00 00 00 00 00 00 00 00 00 00 00 00 00 04 00 00 00
byte_flag 02 00 00 00 00 00 00 00 00 00 00 00 00 00 08 00 00 00 00 00
OPT_INT_47 -1
OPT_INT_44 1
OPT_INT_46 1
OPT_INT_45 0
OPT_INT_48 5
OPT_FLOAT_0 1
OPT_FLOAT_1 1

object ob_0310_0055
id 896
rotation 0,000 1,000 0,000 0,000
position -129,250 -1,999 77,250 0,000
item_flag 00 00 00 00 00 00 00 00 00 00 00 00 00 00 00 00 00 00 00 00 04 00 00 00
byte_flag 02 00 00 00 00 00 00 00 00 00 00 00 00 00 08 00 00 00 00 00
OPT_INT_47 -1
OPT_INT_44 1
OPT_INT_46 1
OPT_INT_45 0
OPT_INT_48 5
OPT_FLOAT_0 1
OPT_FLOAT_1 1

object ob_0310_0055
id 895
rotation 0,000 0,000 0,000 1,000
position -132,250 -1,999 77,250 0,000
item_flag 00 00 00 00 00 00 00 00 00 00 00 00 00 00 00 00 00 00 00 00 04 00 00 00
byte_flag 02 00 00 00 00 00 00 00 00 00 00 00 00 00 08 00 00 00 00 00
OPT_INT_47 -1
OPT_INT_44 1
OPT_INT_46 1
OPT_INT_45 0
OPT_INT_48 5
OPT_FLOAT_0 1
OPT_FLOAT_1 1

object ob_0310_0055
id 898
rotation 0,000 0,866 0,000 -0,500
position -126,625 -1,999 65,813 0,000
item_flag 00 00 00 00 00 00 00 00 00 00 00 00 00 00 00 00 00 00 00 00 04 00 00 00
byte_flag 02 00 00 00 00 00 00 00 00 00 00 00 00 00 08 00 00 00 00 00
OPT_INT_47 -1
OPT_INT_44 1
OPT_INT_46 1
OPT_INT_45 0
OPT_INT_48 5
OPT_FLOAT_0 1
OPT_FLOAT_1 1

object ob_0310_0055
id 900
rotation 0,000 0,866 0,000 -0,500
position -125,188 -1,999 63,250 0,000
item_flag 00 00 00 00 00 00 00 00 00 00 00 00 00 00 00 00 00 00 00 00 04 00 00 00
byte_flag 02 00 00 00 00 00 00 00 00 00 00 00 00 00 08 00 00 00 00 00
OPT_INT_47 -1
OPT_INT_44 1
OPT_INT_46 1
OPT_INT_45 0
OPT_INT_48 5
OPT_FLOAT_0 1
OPT_FLOAT_1 1

object ob_0310_0055
id 899
rotation 0,000 0,500 0,000 0,866
position -123,625 -1,999 65,813 0,000
item_flag 00 00 00 00 00 00 00 00 00 00 00 00 00 00 00 00 00 00 00 00 04 00 00 00
byte_flag 02 00 00 00 00 00 00 00 00 00 00 00 00 00 08 00 00 00 00 00
OPT_INT_47 -1
OPT_INT_44 1
OPT_INT_46 1
OPT_INT_45 0
OPT_INT_48 5
OPT_FLOAT_0 1
OPT_FLOAT_1 1

object ob_0310_0055
id 854
rotation 0,000 0,000 0,000 1,000
position -108,750 -1,999 87,250 0,000
item_flag 00 00 00 00 00 00 00 00 00 00 00 00 00 00 00 00 00 00 00 00 04 00 00 00
byte_flag 02 00 00 00 00 00 00 00 00 00 00 00 00 00 08 00 00 00 00 00
OPT_INT_47 -1
OPT_INT_44 1
OPT_INT_46 1
OPT_INT_45 0
OPT_INT_48 5
OPT_FLOAT_0 1
OPT_FLOAT_1 1

object ob_0310_0055
id 853
rotation 0,000 0,500 0,000 0,866
position -111,750 -1,999 87,250 0,000
item_flag 00 00 00 00 00 00 00 00 00 00 00 00 00 00 00 00 00 00 00 00 04 00 00 00
byte_flag 02 00 00 00 00 00 00 00 00 00 00 00 00 00 08 00 00 00 00 00
OPT_INT_47 -1
OPT_INT_44 1
OPT_INT_46 1
OPT_INT_45 0
OPT_INT_48 5
OPT_FLOAT_0 1
OPT_FLOAT_1 1

object ob_0310_0055
id 856
rotation 0,000 0,866 0,000 -0,500
position -110,063 -1,999 89,938 0,000
item_flag 00 00 00 00 00 00 00 00 00 00 00 00 00 00 00 00 00 00 00 00 04 00 00 00
byte_flag 02 00 00 00 00 00 00 00 00 00 00 00 00 00 08 00 00 00 00 00
OPT_INT_47 -1
OPT_INT_44 1
OPT_INT_46 1
OPT_INT_45 0
OPT_INT_48 5
OPT_FLOAT_0 1
OPT_FLOAT_1 1

object ob_0310_0055
id 855
rotation 0,000 0,500 0,000 0,866
position -110,313 -1,999 84,688 0,000
item_flag 00 00 00 00 00 00 00 00 00 00 00 00 00 00 00 00 00 00 00 00 04 00 00 00
byte_flag 02 00 00 00 00 00 00 00 00 00 00 00 00 00 08 00 00 00 00 00
OPT_INT_47 -1
OPT_INT_44 1
OPT_INT_46 1
OPT_INT_45 0
OPT_INT_48 5
OPT_FLOAT_0 1
OPT_FLOAT_1 1

object ob_0310_0055
id 858
rotation 0,000 0,000 0,000 1,000
position -114,625 -1,999 87,375 0,000
item_flag 00 00 00 00 00 00 00 00 00 00 00 00 00 00 00 00 00 00 00 00 04 00 00 00
byte_flag 02 00 00 00 00 00 00 00 00 00 00 00 00 00 08 00 00 00 00 00
OPT_INT_47 -1
OPT_INT_44 1
OPT_INT_46 1
OPT_INT_45 0
OPT_INT_48 5
OPT_FLOAT_0 1
OPT_FLOAT_1 1

object ob_0310_0055
id 857
rotation 0,000 1,000 0,000 0,000
position -113,313 -1,999 84,688 0,000
item_flag 00 00 00 00 00 00 00 00 00 00 00 00 00 00 00 00 00 00 00 00 04 00 00 00
byte_flag 02 00 00 00 00 00 00 00 00 00 00 00 00 00 08 00 00 00 00 00
OPT_INT_47 -1
OPT_INT_44 1
OPT_INT_46 1
OPT_INT_45 0
OPT_INT_48 5
OPT_FLOAT_0 1
OPT_FLOAT_1 1

object ob_0310_0055
id 860
rotation 0,000 0,866 0,000 -0,500
position -112,625 -1,999 90,188 0,000
item_flag 00 00 00 00 00 00 00 00 00 00 00 00 00 00 00 00 00 00 00 00 04 00 00 00
byte_flag 02 00 00 00 00 00 00 00 00 00 00 00 00 00 08 00 00 00 00 00
OPT_INT_47 -1
OPT_INT_44 1
OPT_INT_46 1
OPT_INT_45 0
OPT_INT_48 5
OPT_FLOAT_0 1
OPT_FLOAT_1 1

object ob_0310_0055
id 859
rotation 0,000 0,866 0,000 -0,500
position -115,625 -1,999 90,188 0,000
item_flag 00 00 00 00 00 00 00 00 00 00 00 00 00 00 00 00 00 00 00 00 04 00 00 00
byte_flag 02 00 00 00 00 00 00 00 00 00 00 00 00 00 08 00 00 00 00 00
OPT_INT_47 -1
OPT_INT_44 1
OPT_INT_46 1
OPT_INT_45 0
OPT_INT_48 5
OPT_FLOAT_0 1
OPT_FLOAT_1 1

object ob_0310_0055
id 846
rotation 0,000 0,866 0,000 0,500
position -102,375 -1,999 77,875 0,000
item_flag 00 00 00 00 00 00 00 00 00 00 00 00 00 00 00 00 00 00 00 00 04 00 00 00
byte_flag 02 00 00 00 00 00 00 00 00 00 00 00 00 00 08 00 00 00 00 00
OPT_INT_47 -1
OPT_INT_44 1
OPT_INT_46 1
OPT_INT_45 0
OPT_INT_48 5
OPT_FLOAT_0 1
OPT_FLOAT_1 1

object ob_0310_0055
id 845
rotation 0,000 0,866 0,000 0,500
position -100,813 -1,999 80,438 0,000
item_flag 00 00 00 00 00 00 00 00 00 00 00 00 00 00 00 00 00 00 00 00 04 00 00 00
byte_flag 02 00 00 00 00 00 00 00 00 00 00 00 00 00 08 00 00 00 00 00
OPT_INT_47 -1
OPT_INT_44 1
OPT_INT_46 1
OPT_INT_45 0
OPT_INT_48 5
OPT_FLOAT_0 1
OPT_FLOAT_1 1

object ob_0310_0055
id 848
rotation 0,000 0,866 0,000 0,500
position -105,375 -1,999 77,875 0,000
item_flag 00 00 00 00 00 00 00 00 00 00 00 00 00 00 00 00 00 00 00 00 04 00 00 00
byte_flag 02 00 00 00 00 00 00 00 00 00 00 00 00 00 08 00 00 00 00 00
OPT_INT_47 -1
OPT_INT_44 1
OPT_INT_46 1
OPT_INT_45 0
OPT_INT_48 5
OPT_FLOAT_0 1
OPT_FLOAT_1 1

object ob_0310_0055
id 847
rotation 0,000 0,866 0,000 0,500
position -102,125 -1,999 83,125 0,000
item_flag 00 00 00 00 00 00 00 00 00 00 00 00 00 00 00 00 00 00 00 00 04 00 00 00
byte_flag 02 00 00 00 00 00 00 00 00 00 00 00 00 00 08 00 00 00 00 00
OPT_INT_47 -1
OPT_INT_44 1
OPT_INT_46 1
OPT_INT_45 0
OPT_INT_48 5
OPT_FLOAT_0 1
OPT_FLOAT_1 1

object ob_0310_0055
id 850
rotation 0,000 0,866 0,000 -0,500
position -107,688 -1,999 83,375 0,000
item_flag 00 00 00 00 00 00 00 00 00 00 00 00 00 00 00 00 00 00 00 00 04 00 00 00
byte_flag 02 00 00 00 00 00 00 00 00 00 00 00 00 00 08 00 00 00 00 00
OPT_INT_47 -1
OPT_INT_44 1
OPT_INT_46 1
OPT_INT_45 0
OPT_INT_48 5
OPT_FLOAT_0 1
OPT_FLOAT_1 1

object ob_0310_0055
id 849
rotation 0,000 1,000 0,000 0,000
position -106,688 -1,999 80,563 0,000
item_flag 00 00 00 00 00 00 00 00 00 00 00 00 00 00 00 00 00 00 00 00 04 00 00 00
byte_flag 02 00 00 00 00 00 00 00 00 00 00 00 00 00 08 00 00 00 00 00
OPT_INT_47 -1
OPT_INT_44 1
OPT_INT_46 1
OPT_INT_45 0
OPT_INT_48 5
OPT_FLOAT_0 1
OPT_FLOAT_1 1

object ob_0310_0055
id 851
rotation 0,000 0,866 0,000 0,500
position -104,688 -1,999 83,375 0,000
item_flag 00 00 00 00 00 00 00 00 00 00 00 00 00 00 00 00 00 00 00 00 04 00 00 00
byte_flag 02 00 00 00 00 00 00 00 00 00 00 00 00 00 08 00 00 00 00 00
OPT_INT_47 -1
OPT_INT_44 1
OPT_INT_46 1
OPT_INT_45 0
OPT_INT_48 5
OPT_FLOAT_0 1
OPT_FLOAT_1 1

object ob_0310_0055
id 869
rotation 0,000 0,500 0,000 0,866
position -112,750 -1,999 74,125 0,000
item_flag 00 00 00 00 00 00 00 00 00 00 00 00 00 00 00 00 00 00 00 00 04 00 00 00
byte_flag 02 00 00 00 00 00 00 00 00 00 00 00 00 00 08 00 00 00 00 00
OPT_INT_47 -1
OPT_INT_44 1
OPT_INT_46 1
OPT_INT_45 0
OPT_INT_48 5
OPT_FLOAT_0 1
OPT_FLOAT_1 1

object ob_0310_0055
id 872
rotation 0,000 0,866 0,000 -0,500
position -116,938 -1,999 71,063 0,000
item_flag 00 00 00 00 00 00 00 00 00 00 00 00 00 00 00 00 00 00 00 00 04 00 00 00
byte_flag 02 00 00 00 00 00 00 00 00 00 00 00 00 00 08 00 00 00 00 00
OPT_INT_47 -1
OPT_INT_44 1
OPT_INT_46 1
OPT_INT_45 0
OPT_INT_48 5
OPT_FLOAT_0 1
OPT_FLOAT_1 1

object ob_0310_0055
id 871
rotation 0,000 0,500 0,000 0,866
position -119,938 -1,999 71,063 0,000
item_flag 00 00 00 00 00 00 00 00 00 00 00 00 00 00 00 00 00 00 00 00 04 00 00 00
byte_flag 02 00 00 00 00 00 00 00 00 00 00 00 00 00 08 00 00 00 00 00
OPT_INT_47 -1
OPT_INT_44 1
OPT_INT_46 1
OPT_INT_45 0
OPT_INT_48 5
OPT_FLOAT_0 1
OPT_FLOAT_1 1

object ob_0310_0055
id 874
rotation 0,000 0,000 0,000 1,000
position -118,250 -1,999 73,750 0,000
item_flag 00 00 00 00 00 00 00 00 00 00 00 00 00 00 00 00 00 00 00 00 04 00 00 00
byte_flag 02 00 00 00 00 00 00 00 00 00 00 00 00 00 08 00 00 00 00 00
OPT_INT_47 -1
OPT_INT_44 1
OPT_INT_46 1
OPT_INT_45 0
OPT_INT_48 5
OPT_FLOAT_0 1
OPT_FLOAT_1 1

object ob_0310_0055
id 873
rotation 0,000 1,000 0,000 0,000
position -118,500 -1,999 68,500 0,000
item_flag 00 00 00 00 00 00 00 00 00 00 00 00 00 00 00 00 00 00 00 00 04 00 00 00
byte_flag 02 00 00 00 00 00 00 00 00 00 00 00 00 00 08 00 00 00 00 00
OPT_INT_47 -1
OPT_INT_44 1
OPT_INT_46 1
OPT_INT_45 0
OPT_INT_48 5
OPT_FLOAT_0 1
OPT_FLOAT_1 1

object ob_0310_0055
id 876
rotation 0,000 0,866 0,000 -0,500
position -122,813 -1,999 71,188 0,000
item_flag 00 00 00 00 00 00 00 00 00 00 00 00 00 00 00 00 00 00 00 00 04 00 00 00
byte_flag 02 00 00 00 00 00 00 00 00 00 00 00 00 00 08 00 00 00 00 00
OPT_INT_47 -1
OPT_INT_44 1
OPT_INT_46 1
OPT_INT_45 0
OPT_INT_48 5
OPT_FLOAT_0 1
OPT_FLOAT_1 1

object ob_0310_0055
id 875
rotation 0,000 1,000 0,000 0,000
position -121,500 -1,999 68,500 0,000
item_flag 00 00 00 00 00 00 00 00 00 00 00 00 00 00 00 00 00 00 00 00 04 00 00 00
byte_flag 02 00 00 00 00 00 00 00 00 00 00 00 00 00 08 00 00 00 00 00
OPT_INT_47 -1
OPT_INT_44 1
OPT_INT_46 1
OPT_INT_45 0
OPT_INT_48 5
OPT_FLOAT_0 1
OPT_FLOAT_1 1

object ob_0310_0055
id 862
rotation 0,000 0,866 0,000 -0,500
position -111,875 -1,999 71,188 0,000
item_flag 00 00 00 00 00 00 00 00 00 00 00 00 00 00 00 00 00 00 00 00 04 00 00 00
byte_flag 02 00 00 00 00 00 00 00 00 00 00 00 00 00 08 00 00 00 00 00
OPT_INT_47 -1
OPT_INT_44 1
OPT_INT_46 1
OPT_INT_45 0
OPT_INT_48 5
OPT_FLOAT_0 1
OPT_FLOAT_1 1

object ob_0310_0055
id 864
rotation 0,000 0,866 0,000 0,500
position -110,438 -1,999 68,625 0,000
item_flag 00 00 00 00 00 00 00 00 00 00 00 00 00 00 00 00 00 00 00 00 04 00 00 00
byte_flag 02 00 00 00 00 00 00 00 00 00 00 00 00 00 08 00 00 00 00 00
OPT_INT_47 -1
OPT_INT_44 1
OPT_INT_46 1
OPT_INT_45 0
OPT_INT_48 5
OPT_FLOAT_0 1
OPT_FLOAT_1 1

object ob_0310_0055
id 863
rotation 0,000 0,000 0,000 1,000
position -108,875 -1,999 71,188 0,000
item_flag 00 00 00 00 00 00 00 00 00 00 00 00 00 00 00 00 00 00 00 00 04 00 00 00
byte_flag 02 00 00 00 00 00 00 00 00 00 00 00 00 00 08 00 00 00 00 00
OPT_INT_47 -1
OPT_INT_44 1
OPT_INT_46 1
OPT_INT_45 0
OPT_INT_48 5
OPT_FLOAT_0 1
OPT_FLOAT_1 1

object ob_0310_0055
id 866
rotation 0,000 0,000 0,000 1,000
position -113,438 -1,999 68,625 0,000
item_flag 00 00 00 00 00 00 00 00 00 00 00 00 00 00 00 00 00 00 00 00 04 00 00 00
byte_flag 02 00 00 00 00 00 00 00 00 00 00 00 00 00 08 00 00 00 00 00
OPT_INT_47 -1
OPT_INT_44 1
OPT_INT_46 1
OPT_INT_45 0
OPT_INT_48 5
OPT_FLOAT_0 1
OPT_FLOAT_1 1

object ob_0310_0055
id 865
rotation 0,000 0,000 0,000 1,000
position -110,188 -1,999 73,875 0,000
item_flag 00 00 00 00 00 00 00 00 00 00 00 00 00 00 00 00 00 00 00 00 04 00 00 00
byte_flag 02 00 00 00 00 00 00 00 00 00 00 00 00 00 08 00 00 00 00 00
OPT_INT_47 -1
OPT_INT_44 1
OPT_INT_46 1
OPT_INT_45 0
OPT_INT_48 5
OPT_FLOAT_0 1
OPT_FLOAT_1 1

object ob_0310_0055
id 868
rotation 0,000 0,500 0,000 0,866
position -115,750 -1,999 74,125 0,000
item_flag 00 00 00 00 00 00 00 00 00 00 00 00 00 00 00 00 00 00 00 00 04 00 00 00
byte_flag 02 00 00 00 00 00 00 00 00 00 00 00 00 00 08 00 00 00 00 00
OPT_INT_47 -1
OPT_INT_44 1
OPT_INT_46 1
OPT_INT_45 0
OPT_INT_48 5
OPT_FLOAT_0 1
OPT_FLOAT_1 1

object ob_0310_0055
id 867
rotation 0,000 0,866 0,000 0,500
position -114,750 -1,999 71,313 0,000
item_flag 00 00 00 00 00 00 00 00 00 00 00 00 00 00 00 00 00 00 00 00 04 00 00 00
byte_flag 02 00 00 00 00 00 00 00 00 00 00 00 00 00 08 00 00 00 00 00
OPT_INT_47 -1
OPT_INT_44 1
OPT_INT_46 1
OPT_INT_45 0
OPT_INT_48 5
OPT_FLOAT_0 1
OPT_FLOAT_1 1

object ob_0310_0055
id 822
rotation 0,000 0,866 0,000 0,500
position 193,250 4,543 -13,313 0,000
item_flag 00 00 00 00 00 00 00 00 00 00 00 00 00 00 00 00 00 00 00 00 04 00 00 00
byte_flag 02 00 00 00 00 00 00 00 00 00 00 00 00 00 08 00 00 00 00 00
OPT_INT_47 -1
OPT_INT_44 1
OPT_INT_46 1
OPT_INT_45 0
OPT_INT_48 5
OPT_FLOAT_0 1
OPT_FLOAT_1 1

object ob_0310_0055
id 824
rotation 0,000 1,000 0,000 0,000
position 182,625 3,951 -11,164 0,000
item_flag 00 00 00 00 00 00 00 00 00 00 00 00 00 00 00 00 00 00 00 00 04 00 00 00
byte_flag 02 00 00 00 00 00 00 00 00 00 00 00 00 00 08 00 00 00 00 00
OPT_INT_47 -1
OPT_INT_44 1
OPT_INT_46 1
OPT_INT_45 0
OPT_INT_48 5
OPT_FLOAT_0 1
OPT_FLOAT_1 1

object ob_0310_0055
id 826
rotation 0,000 1,000 0,000 0,000
position -119,938 -2,000 79,375 0,000
item_flag 00 00 00 00 00 00 00 00 00 00 00 00 00 00 00 00 00 00 00 00 04 00 00 00
byte_flag 02 00 00 00 00 00 00 00 00 00 00 00 00 00 08 00 00 00 00 00
OPT_INT_47 -1
OPT_INT_44 1
OPT_INT_46 1
OPT_INT_45 0
OPT_INT_48 5
OPT_FLOAT_0 1
OPT_FLOAT_1 1

object ob_0310_0055
id 828
rotation 0,000 0,866 0,000 0,500
position -118,500 -2,000 76,813 0,000
item_flag 00 00 00 00 00 00 00 00 00 00 00 00 00 00 00 00 00 00 00 00 04 00 00 00
byte_flag 02 00 00 00 00 00 00 00 00 00 00 00 00 00 08 00 00 00 00 00
OPT_INT_47 -1
OPT_INT_44 1
OPT_INT_46 1
OPT_INT_45 0
OPT_INT_48 5
OPT_FLOAT_0 1
OPT_FLOAT_1 1

object ob_0310_0055
id 827
rotation 0,000 0,000 0,000 1,000
position -116,938 -2,000 79,375 0,000
item_flag 00 00 00 00 00 00 00 00 00 00 00 00 00 00 00 00 00 00 00 00 04 00 00 00
byte_flag 02 00 00 00 00 00 00 00 00 00 00 00 00 00 08 00 00 00 00 00
OPT_INT_47 -1
OPT_INT_44 1
OPT_INT_46 1
OPT_INT_45 0
OPT_INT_48 5
OPT_FLOAT_0 1
OPT_FLOAT_1 1

object ob_0310_0055
id 814
rotation 0,000 0,500 0,000 0,866
position 192,000 4,477 -15,102 0,000
item_flag 00 00 00 00 00 00 00 00 00 00 00 00 00 00 00 00 00 00 00 00 04 00 00 00
byte_flag 02 00 00 00 00 00 00 00 00 00 00 00 00 00 08 00 00 00 00 00
OPT_INT_47 -1
OPT_INT_44 1
OPT_INT_46 1
OPT_INT_45 0
OPT_INT_48 5
OPT_FLOAT_0 1
OPT_FLOAT_1 1

object ob_0310_0055
id 816
rotation 0,000 1,000 0,000 0,000
position 195,125 4,918 -15,539 0,000
item_flag 00 00 00 00 00 00 00 00 00 00 00 00 00 00 00 00 00 00 00 00 04 00 00 00
byte_flag 02 00 00 00 00 00 00 00 00 00 00 00 00 00 08 00 00 00 00 00
OPT_INT_47 -1
OPT_INT_44 1
OPT_INT_46 1
OPT_INT_45 0
OPT_INT_48 5
OPT_FLOAT_0 1
OPT_FLOAT_1 1

object ob_0310_0055
id 818
rotation 0,000 0,866 0,000 -0,500
position 196,375 5,371 -21,297 0,000
item_flag 00 00 00 00 00 00 00 00 00 00 00 00 00 00 00 00 00 00 00 00 04 00 00 00
byte_flag 02 00 00 00 00 00 00 00 00 00 00 00 00 00 08 00 00 00 00 00
OPT_INT_47 -1
OPT_INT_44 1
OPT_INT_46 1
OPT_INT_45 0
OPT_INT_48 5
OPT_FLOAT_0 1
OPT_FLOAT_1 1

object ob_0310_0055
id 820
rotation 0,000 0,866 0,000 -0,500
position 184,875 4,160 -12,648 0,000
item_flag 00 00 00 00 00 00 00 00 00 00 00 00 00 00 00 00 00 00 00 00 04 00 00 00
byte_flag 02 00 00 00 00 00 00 00 00 00 00 00 00 00 08 00 00 00 00 00
OPT_INT_47 -1
OPT_INT_44 1
OPT_INT_46 1
OPT_INT_45 0
OPT_INT_48 5
OPT_FLOAT_0 1
OPT_FLOAT_1 1

object ob_0310_0055
id 838
rotation 0,000 0,866 0,000 -0,500
position -110,313 -1,999 81,875 0,000
item_flag 00 00 00 00 00 00 00 00 00 00 00 00 00 00 00 00 00 00 00 00 04 00 00 00
byte_flag 02 00 00 00 00 00 00 00 00 00 00 00 00 00 08 00 00 00 00 00
OPT_INT_47 -1
OPT_INT_44 1
OPT_INT_46 1
OPT_INT_45 0
OPT_INT_48 5
OPT_FLOAT_0 1
OPT_FLOAT_1 1

object ob_0310_0055
id 837
rotation 0,000 0,500 0,000 0,866
position -110,563 -1,999 76,625 0,000
item_flag 00 00 00 00 00 00 00 00 00 00 00 00 00 00 00 00 00 00 00 00 04 00 00 00
byte_flag 02 00 00 00 00 00 00 00 00 00 00 00 00 00 08 00 00 00 00 00
OPT_INT_47 -1
OPT_INT_44 1
OPT_INT_46 1
OPT_INT_45 0
OPT_INT_48 5
OPT_FLOAT_0 1
OPT_FLOAT_1 1

object ob_0310_0055
id 840
rotation 0,000 0,500 0,000 0,866
position -114,875 -1,999 79,313 0,000
item_flag 00 00 00 00 00 00 00 00 00 00 00 00 00 00 00 00 00 00 00 00 04 00 00 00
byte_flag 02 00 00 00 00 00 00 00 00 00 00 00 00 00 08 00 00 00 00 00
OPT_INT_47 -1
OPT_INT_44 1
OPT_INT_46 1
OPT_INT_45 0
OPT_INT_48 5
OPT_FLOAT_0 1
OPT_FLOAT_1 1

object ob_0310_0055
id 839
rotation 0,000 0,000 0,000 1,000
position -113,563 -1,999 76,625 0,000
item_flag 00 00 00 00 00 00 00 00 00 00 00 00 00 00 00 00 00 00 00 00 04 00 00 00
byte_flag 02 00 00 00 00 00 00 00 00 00 00 00 00 00 08 00 00 00 00 00
OPT_INT_47 -1
OPT_INT_44 1
OPT_INT_46 1
OPT_INT_45 0
OPT_INT_48 5
OPT_FLOAT_0 1
OPT_FLOAT_1 1

object ob_0310_0055
id 842
rotation 0,000 0,500 0,000 0,866
position -112,875 -1,999 82,125 0,000
item_flag 00 00 00 00 00 00 00 00 00 00 00 00 00 00 00 00 00 00 00 00 04 00 00 00
byte_flag 02 00 00 00 00 00 00 00 00 00 00 00 00 00 08 00 00 00 00 00
OPT_INT_47 -1
OPT_INT_44 1
OPT_INT_46 1
OPT_INT_45 0
OPT_INT_48 5
OPT_FLOAT_0 1
OPT_FLOAT_1 1

object ob_0310_0055
id 841
rotation 0,000 0,000 0,000 1,000
position -115,875 -1,999 82,125 0,000
item_flag 00 00 00 00 00 00 00 00 00 00 00 00 00 00 00 00 00 00 00 00 04 00 00 00
byte_flag 02 00 00 00 00 00 00 00 00 00 00 00 00 00 08 00 00 00 00 00
OPT_INT_47 -1
OPT_INT_44 1
OPT_INT_46 1
OPT_INT_45 0
OPT_INT_48 5
OPT_FLOAT_0 1
OPT_FLOAT_1 1

object ob_0310_0055
id 844
rotation 0,000 1,000 0,000 0,000
position -103,813 -1,999 80,438 0,000
item_flag 00 00 00 00 00 00 00 00 00 00 00 00 00 00 00 00 00 00 00 00 04 00 00 00
byte_flag 02 00 00 00 00 00 00 00 00 00 00 00 00 00 08 00 00 00 00 00
OPT_INT_47 -1
OPT_INT_44 1
OPT_INT_46 1
OPT_INT_45 0
OPT_INT_48 5
OPT_FLOAT_0 1
OPT_FLOAT_1 1

object ob_0310_0055
id 830
rotation 0,000 0,866 0,000 -0,500
position -121,500 -2,000 76,813 0,000
item_flag 00 00 00 00 00 00 00 00 00 00 00 00 00 00 00 00 00 00 00 00 04 00 00 00
byte_flag 02 00 00 00 00 00 00 00 00 00 00 00 00 00 08 00 00 00 00 00
OPT_INT_47 -1
OPT_INT_44 1
OPT_INT_46 1
OPT_INT_45 0
OPT_INT_48 5
OPT_FLOAT_0 1
OPT_FLOAT_1 1

object ob_0310_0055
id 829
rotation 0,000 0,000 0,000 1,000
position -118,250 -2,000 82,063 0,000
item_flag 00 00 00 00 00 00 00 00 00 00 00 00 00 00 00 00 00 00 00 00 04 00 00 00
byte_flag 02 00 00 00 00 00 00 00 00 00 00 00 00 00 08 00 00 00 00 00
OPT_INT_47 -1
OPT_INT_44 1
OPT_INT_46 1
OPT_INT_45 0
OPT_INT_48 5
OPT_FLOAT_0 1
OPT_FLOAT_1 1

object ob_0310_0055
id 832
rotation 0,000 0,000 0,000 1,000
position -123,813 -2,000 82,313 0,000
item_flag 00 00 00 00 00 00 00 00 00 00 00 00 00 00 00 00 00 00 00 00 04 00 00 00
byte_flag 02 00 00 00 00 00 00 00 00 00 00 00 00 00 08 00 00 00 00 00
OPT_INT_47 -1
OPT_INT_44 1
OPT_INT_46 1
OPT_INT_45 0
OPT_INT_48 5
OPT_FLOAT_0 1
OPT_FLOAT_1 1

object ob_0310_0055
id 831
rotation 0,000 0,866 0,000 0,500
position -122,813 -2,000 79,500 0,000
item_flag 00 00 00 00 00 00 00 00 00 00 00 00 00 00 00 00 00 00 00 00 04 00 00 00
byte_flag 02 00 00 00 00 00 00 00 00 00 00 00 00 00 08 00 00 00 00 00
OPT_INT_47 -1
OPT_INT_44 1
OPT_INT_46 1
OPT_INT_45 0
OPT_INT_48 5
OPT_FLOAT_0 1
OPT_FLOAT_1 1

object ob_0310_0055
id 833
rotation 0,000 0,866 0,000 -0,500
position -120,813 -2,000 82,313 0,000
item_flag 00 00 00 00 00 00 00 00 00 00 00 00 00 00 00 00 00 00 00 00 04 00 00 00
byte_flag 02 00 00 00 00 00 00 00 00 00 00 00 00 00 08 00 00 00 00 00
OPT_INT_47 -1
OPT_INT_44 1
OPT_INT_46 1
OPT_INT_45 0
OPT_INT_48 5
OPT_FLOAT_0 1
OPT_FLOAT_1 1

object ob_0310_0055
id 836
rotation 0,000 0,866 0,000 -0,500
position -109,000 -1,999 79,188 0,000
item_flag 00 00 00 00 00 00 00 00 00 00 00 00 00 00 00 00 00 00 00 00 04 00 00 00
byte_flag 02 00 00 00 00 00 00 00 00 00 00 00 00 00 08 00 00 00 00 00
OPT_INT_47 -1
OPT_INT_44 1
OPT_INT_46 1
OPT_INT_45 0
OPT_INT_48 5
OPT_FLOAT_0 1
OPT_FLOAT_1 1

object ob_0310_0055
id 835
rotation 0,000 0,000 0,000 1,000
position -112,000 -1,999 79,188 0,000
item_flag 00 00 00 00 00 00 00 00 00 00 00 00 00 00 00 00 00 00 00 00 04 00 00 00
byte_flag 02 00 00 00 00 00 00 00 00 00 00 00 00 00 08 00 00 00 00 00
OPT_INT_47 -1
OPT_INT_44 1
OPT_INT_46 1
OPT_INT_45 0
OPT_INT_48 5
OPT_FLOAT_0 1
OPT_FLOAT_1 1

object ob_0310_0055
id 790
rotation 0,000 0,866 0,000 0,500
position -157,625 -0,701 -5,941 0,000
item_flag 00 00 00 00 00 00 00 00 00 00 00 00 00 00 00 00 00 00 00 00 04 00 00 00
byte_flag 02 00 00 00 00 00 00 00 00 00 00 00 00 00 08 00 00 00 00 00
OPT_INT_47 -1
OPT_INT_44 1
OPT_INT_46 1
OPT_INT_45 0
OPT_INT_48 5
OPT_FLOAT_0 1
OPT_FLOAT_1 1

object ob_0310_0055
id 792
rotation 0,000 0,866 0,000 0,500
position -116,438 -1,278 23,750 0,000
item_flag 00 00 00 00 00 00 00 00 00 00 00 00 00 00 00 00 00 00 00 00 04 00 00 00
byte_flag 02 00 00 00 00 00 00 00 00 00 00 00 00 00 08 00 00 00 00 00
OPT_INT_47 -1
OPT_INT_44 1
OPT_INT_46 1
OPT_INT_45 0
OPT_INT_48 5
OPT_FLOAT_0 1
OPT_FLOAT_1 1

object ob_0310_0055
id 794
rotation 0,000 1,000 0,000 0,000
position -156,500 -0,815 -8,359 0,000
item_flag 00 00 00 00 00 00 00 00 00 00 00 00 00 00 00 00 00 00 00 00 04 00 00 00
byte_flag 02 00 00 00 00 00 00 00 00 00 00 00 00 00 08 00 00 00 00 00
OPT_INT_47 -1
OPT_INT_44 1
OPT_INT_46 1
OPT_INT_45 0
OPT_INT_48 5
OPT_FLOAT_0 1
OPT_FLOAT_1 1

object ob_0310_0055
id 796
rotation 0,000 1,000 0,000 0,000
position 187,750 4,121 -10,906 0,000
item_flag 00 00 00 00 00 00 00 00 00 00 00 00 00 00 00 00 00 00 00 00 04 00 00 00
byte_flag 02 00 00 00 00 00 00 00 00 00 00 00 00 00 08 00 00 00 00 00
OPT_INT_47 -1
OPT_INT_44 1
OPT_INT_46 1
OPT_INT_45 0
OPT_INT_48 5
OPT_FLOAT_0 1
OPT_FLOAT_1 1

object ob_0310_0055
id 782
rotation 0,000 1,000 0,000 0,000
position -131,500 -0,777 -10,344 0,000
item_flag 00 00 00 00 00 00 00 00 00 00 00 00 00 00 00 00 00 00 00 00 04 00 00 00
byte_flag 02 00 00 00 00 00 00 00 00 00 00 00 00 00 08 00 00 00 00 00
OPT_INT_47 -1
OPT_INT_44 1
OPT_INT_46 1
OPT_INT_45 0
OPT_INT_48 5
OPT_FLOAT_0 1
OPT_FLOAT_1 1

object ob_0310_0055
id 784
rotation 0,000 0,866 0,000 -0,500
position -131,375 -0,611 -7,453 0,000
item_flag 00 00 00 00 00 00 00 00 00 00 00 00 00 00 00 00 00 00 00 00 04 00 00 00
byte_flag 02 00 00 00 00 00 00 00 00 00 00 00 00 00 08 00 00 00 00 00
OPT_INT_47 -1
OPT_INT_44 1
OPT_INT_46 1
OPT_INT_45 0
OPT_INT_48 5
OPT_FLOAT_0 1
OPT_FLOAT_1 1

object ob_0310_0055
id 786
rotation 0,000 0,866 0,000 0,500
position -155,250 -0,806 -5,355 0,000
item_flag 00 00 00 00 00 00 00 00 00 00 00 00 00 00 00 00 00 00 00 00 04 00 00 00
byte_flag 02 00 00 00 00 00 00 00 00 00 00 00 00 00 08 00 00 00 00 00
OPT_INT_47 -1
OPT_INT_44 1
OPT_INT_46 1
OPT_INT_45 0
OPT_INT_48 5
OPT_FLOAT_0 1
OPT_FLOAT_1 1

object ob_0310_0055
id 788
rotation 0,000 0,866 0,000 -0,500
position -153,875 -0,928 -7,773 0,000
item_flag 00 00 00 00 00 00 00 00 00 00 00 00 00 00 00 00 00 00 00 00 04 00 00 00
byte_flag 02 00 00 00 00 00 00 00 00 00 00 00 00 00 08 00 00 00 00 00
OPT_INT_47 -1
OPT_INT_44 1
OPT_INT_46 1
OPT_INT_45 0
OPT_INT_48 5
OPT_FLOAT_0 1
OPT_FLOAT_1 1

object ob_0310_0055
id 806
rotation 0,000 0,000 0,000 1,000
position 190,375 4,195 -11,453 0,000
item_flag 00 00 00 00 00 00 00 00 00 00 00 00 00 00 00 00 00 00 00 00 04 00 00 00
byte_flag 02 00 00 00 00 00 00 00 00 00 00 00 00 00 08 00 00 00 00 00
OPT_INT_47 -1
OPT_INT_44 1
OPT_INT_46 1
OPT_INT_45 0
OPT_INT_48 5
OPT_FLOAT_0 1
OPT_FLOAT_1 1

