hit star?

000000: 0C 00 00 00 3E 05 00 00 00 00 00 00     ....>.......

000000: 0C 00 00 00 3E 05 00 00 00 00 00 00     ....>.......
hit star 1
000000: 0C 00 00 00 3E 05 00 00 01 00 00 00     ....>.......
