Team : Welcome message

000000: 4C 00 00 00 1C 45 44 00 00 00 00 00 00 00 00 00     L....ED.........
000010: 00 00 00 00 5F 39 00 00 74 00 68 00 69 00 73 00     ...._9..t.h.i.s.
000020: 20 00 69 00 73 00 20 00 74 00 68 00 65 00 20 00      .i.s. .t.h.e. .
000030: 6C 00 6F 00 67 00 69 00 6E 00 20 00 6D 00 65 00     l.o.g.i.n. .m.e.
000040: 73 00 73 00 61 00 67 00 65 00 00 00     s.s.a.g.e...
