ver 4
define OPT_ID_2 = 2
define OPT_INT_60 = 60
define OPT_INT_70 = 70
define OPT_VERTEX_18 = 18
define OPT_FLOAT_60 = 60
define OPT_VERTEX_15 = 15
define OPT_VERTEX_14 = 14
define OPT_VERTEX_13 = 13
define OPT_VERTEX_12 = 12
define OPT_VERTEX_11 = 11
define OPT_VERTEX_10 = 10
define OPT_VERTEX_9 = 9
define OPT_VERTEX_8 = 8
define OPT_VERTEX_7 = 7
define OPT_VERTEX_6 = 6
define OPT_FLOAT_1 = 1
define OPT_FLOAT_0 = 0
define OPT_INT_61 = 61
define OPT_INT_59 = 59
define OPT_INT_63 = 63
define OPT_INT_58 = 58
define OPT_INT_52 = 52
define OPT_INT_49 = 49
define OPT_INT_50 = 50
define OPT_INT_48 = 48
define OPT_INT_51 = 51
define OPT_INT_20 = 20
define OPT_INT_21 = 21
define OPT_ID_9 = 9

object ob_9900_0332
id 771
rotation 0,000 -0,456 0,000 -0,890
position -35,500 0,687 93,438 0,000
item_flag 2C 00 00 00 00 00 00 00 00 00 00 00 00 00 00 00 01 00 00 00 05 00 00 00
byte_flag 02 00 00 00 00 00 00 00 00 00 00 00 00 00 00 90 00 00 00 00
OPT_INT_51 -1
OPT_INT_48 1
OPT_INT_50 2
OPT_INT_21 25
OPT_INT_20 25
OPT_INT_49 0
OPT_INT_52 13
OPT_FLOAT_0 279
OPT_FLOAT_1 279
OPT_ID_9 0

colision EventCollision
id 529
rotation 0,000 0,000 0,000 1,000
position 33,063 0,000 -77,438 0,000
byte_flag 01 00 00 00 00 00 00 00 00 00 00 00 10 00 00 00 00 00 00 00 00 00 00 00 00 00 70 41 00 00 80 3F 00 00 80 3F 00 00 00 00 00 00 00 00 00 00 00 00 00 00 00 00 04 00 00 00 00 00 00 00
self_object oa_blazing_colum_set

object oa_crest_door_dummy_0510
id 526
rotation 0,000 0,707 0,000 0,707
position 0,000 0,000 80,000 0,000
item_flag 00 00 00 00 00 00 00 00 00 00 00 00 00 00 00 00 00 00 00 00 04 00 00 00
byte_flag 02 00 00 00 00 00 00 00 00 00 00 00 00 00 00 10 00 80 AA F4
OPT_INT_51 -1
OPT_INT_48 1
OPT_INT_50 1
OPT_INT_49 0
OPT_INT_52 13

object oa_crest_door_dummy_0510
id 527
rotation 0,000 0,707 0,000 0,707
position 80,000 0,000 80,000 0,000
item_flag 00 00 00 00 00 00 00 00 00 00 00 00 00 00 00 00 00 00 00 00 04 00 00 00
byte_flag 02 00 00 00 00 00 00 00 00 00 00 00 00 00 00 10 00 80 AA F4
OPT_INT_51 -1
OPT_INT_48 1
OPT_INT_50 1
OPT_INT_49 0
OPT_INT_52 13

object oa_crest_door_dummy_0510
id 524
rotation 0,000 0,000 0,000 1,000
position 40,000 0,000 40,000 0,000
item_flag 00 00 00 00 00 00 00 00 00 00 00 00 00 00 00 00 00 00 00 00 04 00 00 00
byte_flag 02 00 00 00 00 00 00 00 00 00 00 00 00 00 00 10 00 80 AA F4
OPT_INT_51 -1
OPT_INT_48 1
OPT_INT_50 1
OPT_INT_49 0
OPT_INT_52 13

object oa_crest_door_dummy_0510
id 525
rotation 0,000 0,707 0,000 0,707
position 160,000 0,000 0,000 0,000
item_flag 00 00 00 00 00 00 00 00 00 00 00 00 00 00 00 00 00 00 00 00 04 00 00 00
byte_flag 02 00 00 00 00 00 00 00 00 00 00 00 00 00 00 10 00 80 AA F4
OPT_INT_51 -1
OPT_INT_48 1
OPT_INT_50 1
OPT_INT_49 0
OPT_INT_52 13

object oa_crest_door_dummy_0510
id 522
rotation 0,000 0,000 0,000 1,000
position -120,000 0,000 40,000 0,000
item_flag 00 00 00 00 00 00 00 00 00 00 00 00 00 00 00 00 00 00 00 00 04 00 00 00
byte_flag 02 00 00 00 00 00 00 00 00 00 00 00 00 00 00 10 00 80 AA F4
OPT_INT_51 -1
OPT_INT_48 1
OPT_INT_50 1
OPT_INT_49 0
OPT_INT_52 13

object oa_crest_door_dummy_0510
id 523
rotation 0,000 0,707 0,000 0,707
position 80,000 0,000 0,000 0,000
item_flag 00 00 00 00 00 00 00 00 00 00 00 00 00 00 00 00 00 00 00 00 04 00 00 00
byte_flag 02 00 00 00 00 00 00 00 00 00 00 00 00 00 00 10 00 80 AA F4
OPT_INT_51 -1
OPT_INT_48 1
OPT_INT_50 1
OPT_INT_49 0
OPT_INT_52 13

colision EventCollision
id 520
rotation 0,000 0,000 0,000 1,000
position -40,000 0,000 0,000 0,000
byte_flag 01 00 00 00 00 00 00 00 01 00 00 00 10 00 00 00 00 00 00 00 00 00 00 00 00 00 98 42 00 00 48 43 00 00 98 42 00 00 00 00 00 00 00 00 00 00 00 00 00 00 00 00 04 80 AA F4 00 00 00 00

colision EventCollision
id 518
rotation 0,000 1,000 0,000 0,000
position -40,000 0,000 52,000 0,000
byte_flag 01 00 00 00 00 00 00 00 01 00 00 00 10 00 00 00 00 00 00 00 00 00 00 00 00 00 F0 41 00 00 48 43 00 00 F0 41 00 00 00 00 00 00 00 00 00 00 00 00 00 00 00 00 04 80 AA F4 00 00 00 00

object oa_crest_wall_0510
id 519
rotation 0,000 1,000 0,000 0,000
position -40,000 -1,000 40,000 0,000
item_flag 00 00 00 00 00 00 00 00 00 00 00 00 00 00 00 00 00 00 00 00 04 00 00 00
byte_flag 02 00 00 00 00 00 00 00 00 00 00 00 00 00 00 00 00 80 AA F4
OPT_INT_51 -1
OPT_INT_48 1
OPT_INT_50 2
OPT_INT_49 0
OPT_INT_52 13

object oa_breakable_door
id 516
rotation 0,000 1,000 0,000 0,000
position -40,000 0,000 40,000 0,000
item_flag 08 00 00 00 00 00 00 00 00 00 00 00 00 00 00 00 00 00 00 00 05 00 00 00
byte_flag 02 00 00 00 00 00 00 00 00 00 00 00 00 00 00 00 00 80 59 0F
OPT_INT_51 -1
OPT_INT_48 1
OPT_INT_50 2
OPT_INT_58 1

colision EventCollision
id 517
rotation 0,000 1,000 0,000 0,000
position -40,000 0,000 28,000 0,000
byte_flag 01 00 00 00 00 00 00 00 01 00 00 00 10 00 00 00 00 00 00 00 00 00 00 00 00 00 F0 41 00 00 48 43 00 00 F0 41 00 00 00 00 00 00 00 00 00 00 00 00 00 00 00 00 04 80 59 0F 00 00 00 00

colision EventCollision
id 547
rotation 0,000 0,707 0,000 0,707
position 66,000 -0,300 -16,547 0,000
byte_flag 01 00 00 00 00 00 00 00 00 00 00 00 10 00 00 00 00 00 00 00 00 00 00 00 00 00 70 41 00 00 80 3F 00 00 80 3F 00 00 00 00 00 00 00 00 00 00 00 00 00 00 00 00 04 80 59 0F 00 00 00 00

colision EventCollision
id 545
rotation 0,000 0,707 0,000 0,707
position 35,938 -0,331 -7,758 0,000
byte_flag 01 00 00 00 00 00 00 00 00 00 00 00 10 00 00 00 00 00 00 00 00 00 00 00 00 00 70 42 00 00 80 3F 00 00 80 3F 00 00 00 00 00 00 00 00 00 00 00 00 00 00 00 00 04 80 59 0F 00 00 00 00

colision EventCollision
id 543
rotation 0,000 0,707 0,000 -0,707
position -51,094 -0,280 5,109 0,000
byte_flag 01 00 00 00 00 00 00 00 00 00 00 00 10 00 00 00 00 00 00 00 00 00 00 00 00 00 70 42 00 00 80 3F 00 00 80 3F 00 00 00 00 00 00 00 00 00 00 00 00 00 00 00 00 04 80 59 0F 00 00 00 00

colision EventCollision
id 541
rotation 0,000 0,707 0,000 -0,707
position -66,000 -0,300 16,547 0,000
byte_flag 01 00 00 00 00 00 00 00 00 00 00 00 10 00 00 00 00 00 00 00 00 00 00 00 00 00 70 41 00 00 80 3F 00 00 80 3F 00 00 00 00 00 00 00 00 00 00 00 00 00 00 00 00 04 80 59 0F 00 00 00 00
self_object oa_blazing_colum_set

colision EventCollision
id 539
rotation 0,000 0,707 0,000 -0,707
position -43,281 0,380 16,109 0,000
byte_flag 01 00 00 00 00 00 00 00 00 00 00 00 10 00 00 00 00 00 00 00 00 00 00 00 00 00 70 41 00 00 80 3F 00 00 80 3F 00 00 00 00 00 00 00 00 00 00 00 00 00 00 00 00 04 80 59 0F 00 00 00 00
self_object oa_blazing_colum_set

colision EventCollision
id 537
rotation 0,000 0,707 0,000 -0,707
position -39,344 0,000 -28,750 0,000
byte_flag 01 00 00 00 00 00 00 00 00 00 00 00 10 00 00 00 00 00 00 00 00 00 00 00 00 00 70 41 00 00 80 3F 00 00 80 3F 00 00 00 00 00 00 00 00 00 00 00 00 00 00 00 00 04 80 59 0F 00 00 00 00
self_object oa_blazing_colum_set

colision EventCollision
id 535
rotation 0,000 0,000 0,000 1,000
position -62,000 13,359 -97,875 0,000
byte_flag 01 00 00 00 00 00 00 00 00 00 00 00 10 00 00 00 00 00 00 00 00 00 00 00 00 00 70 42 00 00 80 3F 00 00 80 3F 00 00 00 00 00 00 00 00 00 00 00 00 00 00 00 00 04 80 59 0F 00 00 00 00

colision EventCollision
id 533
rotation 0,000 0,000 0,000 1,000
position 51,250 -0,300 -50,188 0,000
byte_flag 01 00 00 00 00 00 00 00 00 00 00 00 10 00 00 00 00 00 00 00 00 00 00 00 00 00 70 41 00 00 80 3F 00 00 80 3F 00 00 00 00 00 00 00 00 00 00 00 00 00 00 00 00 04 80 59 0F 00 00 00 00
self_object oa_blazing_colum_set

colision EventCollision
id 563
rotation 0,000 0,000 0,000 1,000
position -106,813 9,844 7,953 0,000
byte_flag 01 00 00 00 00 00 00 00 00 00 00 00 10 00 00 00 00 00 00 00 00 00 00 00 00 00 70 41 00 00 80 3F 00 00 80 3F 00 00 00 00 00 00 00 00 00 00 00 00 00 00 00 00 04 80 59 0F 00 00 00 00
self_object oa_blazing_colum_set

colision EventCollision
id 561
rotation 0,000 0,000 0,000 1,000
position -106,250 5,035 24,281 0,000
byte_flag 01 00 00 00 00 00 00 00 00 00 00 00 10 00 00 00 00 00 00 00 00 00 00 00 00 00 70 42 00 00 80 3F 00 00 80 3F 00 00 00 00 00 00 00 00 00 00 00 00 00 00 00 00 04 80 59 0F 00 00 00 00

colision EventCollision
id 559
rotation 0,000 0,707 0,000 -0,707
position 117,438 0,000 73,063 0,000
byte_flag 01 00 00 00 00 00 00 00 00 00 00 00 10 00 00 00 00 00 00 00 00 00 00 00 00 00 70 41 00 00 80 3F 00 00 80 3F 00 00 00 00 00 00 00 00 00 00 00 00 00 00 00 00 04 80 59 0F 00 00 00 00
self_object oa_blazing_colum_set

colision EventCollision
id 557
rotation 0,000 0,707 0,000 -0,707
position 129,250 10,000 73,000 0,000
byte_flag 01 00 00 00 00 00 00 00 00 00 00 00 10 00 00 00 00 00 00 00 00 00 00 00 00 00 70 42 00 00 80 3F 00 00 80 3F 00 00 00 00 00 00 00 00 00 00 00 00 00 00 00 00 04 80 59 0F 00 00 00 00

colision EventCollision
id 555
rotation 0,000 0,000 0,000 1,000
position -35,500 0,687 93,438 0,000
byte_flag 01 00 00 00 00 00 00 00 00 00 00 00 10 00 00 00 00 00 00 00 00 00 00 00 00 00 48 42 00 00 80 3F 00 00 80 3F 00 00 00 00 00 00 00 00 00 00 00 00 00 00 00 00 04 80 59 0F 00 00 00 00

colision EventCollision
id 553
rotation 0,000 0,000 0,000 1,000
position -51,344 0,291 75,250 0,000
byte_flag 01 00 00 00 00 00 00 00 00 00 00 00 10 00 00 00 00 00 00 00 00 00 00 00 00 00 70 41 00 00 80 3F 00 00 80 3F 00 00 00 00 00 00 00 00 00 00 00 00 00 00 00 00 04 80 59 0F 00 00 00 00
self_object oa_wave_laser

colision EventCollision
id 551
rotation 0,000 0,707 0,000 0,707
position 37,906 0,170 -34,406 0,000
byte_flag 01 00 00 00 00 00 00 00 00 00 00 00 10 00 00 00 00 00 00 00 00 00 00 00 00 00 70 41 00 00 80 3F 00 00 80 3F 00 00 00 00 00 00 00 00 00 00 00 00 00 00 00 00 04 80 59 0F 00 00 00 00
self_object oa_blazing_colum_set

colision EventCollision
id 549
rotation 0,000 0,707 0,000 0,707
position 43,281 0,380 -16,109 0,000
byte_flag 01 00 00 00 00 00 00 00 00 00 00 00 10 00 00 00 00 00 00 00 00 00 00 00 00 00 70 41 00 00 80 3F 00 00 80 3F 00 00 00 00 00 00 00 00 00 00 00 00 00 00 00 00 04 80 59 0F 00 00 00 00
self_object oa_blazing_colum_set

object ob_9900_0304
id 578
rotation 0,000 0,707 0,000 -0,707
position 123,375 10,039 82,375 0,000
item_flag 0E 00 00 00 00 00 00 00 00 00 00 00 00 00 00 00 00 00 00 00 04 00 00 00
byte_flag 02 00 00 00 00 00 00 00 00 00 00 00 00 00 00 10 00 80 AA F4
OPT_INT_51 -1
OPT_INT_48 1
OPT_INT_50 1
OPT_INT_49 0
OPT_INT_63 0
OPT_INT_58 0

object oa_fence_rail
id 579
rotation 0,000 0,707 0,000 -0,707
position 104,625 -0,331 67,438 0,000
item_flag 13 00 00 00 00 00 00 00 00 00 00 00 00 00 00 00 00 00 00 00 04 00 00 00
byte_flag 03 00 00 00 00 00 00 00 00 00 00 00 00 00 00 90 00 00 00 00
OPT_INT_51 -1
OPT_INT_48 1
OPT_INT_50 1
OPT_INT_52 13
OPT_INT_63 0
OPT_INT_59 0
OPT_INT_61 8
OPT_FLOAT_0 0
OPT_FLOAT_1 0
OPT_VERTEX_6 92,688 18,313 99,188 0,000
OPT_VERTEX_7 94,625 18,313 97,188 0,000
OPT_VERTEX_8 96,000 17,906 95,250 0,000
OPT_VERTEX_9 99,313 17,984 95,375 0,000
OPT_VERTEX_10 105,063 17,281 99,000 0,000
OPT_VERTEX_11 107,313 16,547 102,563 0,000
OPT_VERTEX_12 104,750 16,563 106,938 0,000
OPT_VERTEX_13 103,000 16,563 109,500 0,000
OPT_VERTEX_14 0,000 0,000 0,000 0,000
OPT_VERTEX_15 0,000 0,000 0,000 0,000

object ob_9900_0304
id 576
rotation 0,000 0,000 0,000 1,000
position 54,688 0,029 -68,813 0,000
item_flag 0E 00 00 00 00 00 00 00 00 00 00 00 00 00 00 00 00 00 00 00 04 00 00 00
byte_flag 02 00 00 00 00 00 00 00 00 00 00 00 00 00 00 10 00 80 AA F4
OPT_INT_51 -1
OPT_INT_48 1
OPT_INT_50 1
OPT_INT_49 0
OPT_INT_63 0
OPT_INT_58 0

object oa_fence_rail
id 577
rotation 0,000 0,707 0,000 -0,707
position 123,375 10,039 82,375 0,000
item_flag 13 00 00 00 00 00 00 00 00 00 00 00 00 00 00 00 00 00 00 00 04 00 00 00
byte_flag 03 00 00 00 00 00 00 00 00 00 00 00 00 00 00 90 00 00 00 00
OPT_INT_51 -1
OPT_INT_48 1
OPT_INT_50 1
OPT_INT_52 13
OPT_INT_63 0
OPT_INT_59 0
OPT_INT_61 5
OPT_FLOAT_0 0
OPT_FLOAT_1 0
OPT_VERTEX_6 114,000 -0,938 60,000 0,000
OPT_VERTEX_7 107,938 -0,938 66,625 0,000
OPT_VERTEX_8 104,063 -0,606 70,125 0,000
OPT_VERTEX_9 100,625 0,150 66,938 0,000
OPT_VERTEX_10 91,688 -1,499 51,438 0,000
OPT_VERTEX_11 0,000 0,000 0,000 0,000
OPT_VERTEX_12 0,000 0,000 0,000 0,000
OPT_VERTEX_13 0,000 0,000 0,000 0,000
OPT_VERTEX_14 0,000 0,000 0,000 0,000
OPT_VERTEX_15 0,000 0,000 0,000 0,000

object oa_forced_move
id 574
rotation 0,000 1,000 0,000 0,000
position 39,938 10,836 186,375 0,000
item_flag 23 00 00 00 00 00 00 00 00 00 00 00 00 00 00 00 00 00 00 00 04 00 00 00
byte_flag 02 00 00 00 00 00 00 00 00 00 00 00 00 00 00 10 00 80 AA F4
OPT_INT_51 -1
OPT_INT_48 1
OPT_INT_50 1
OPT_INT_59 0
OPT_FLOAT_60 8,5
OPT_VERTEX_18 14,000 15,000 5,000 0,000

object oa_fence_rail
id 575
rotation 0,000 0,000 0,000 1,000
position 54,688 0,029 -68,813 0,000
item_flag 13 00 00 00 00 00 00 00 00 00 00 00 00 00 00 00 00 00 00 00 04 00 00 00
byte_flag 03 00 00 00 00 00 00 00 00 00 00 00 00 00 00 90 00 00 00 00
OPT_INT_51 -1
OPT_INT_48 1
OPT_INT_50 1
OPT_INT_52 13
OPT_INT_63 0
OPT_INT_59 0
OPT_INT_61 8
OPT_FLOAT_0 0
OPT_FLOAT_1 0
OPT_VERTEX_6 48,344 11,953 -91,188 0,000
OPT_VERTEX_7 48,438 11,539 -88,438 0,000
OPT_VERTEX_8 48,563 10,711 -82,875 0,000
OPT_VERTEX_9 45,094 9,938 -80,750 0,000
OPT_VERTEX_10 41,781 9,828 -81,688 0,000
OPT_VERTEX_11 40,344 9,742 -82,938 0,000
OPT_VERTEX_12 40,469 10,000 -88,125 0,000
OPT_VERTEX_13 40,500 10,000 -90,375 0,000
OPT_VERTEX_14 0,000 0,000 0,000 0,000
OPT_VERTEX_15 0,000 0,000 0,000 0,000

object oa_forced_move
id 572
rotation 0,000 0,707 0,000 -0,707
position 226,375 10,836 0,059 0,000
item_flag 23 00 00 00 00 00 00 00 00 00 00 00 00 00 00 00 00 00 00 00 04 00 00 00
byte_flag 02 00 00 00 00 00 00 00 00 00 00 00 00 00 00 10 00 80 AA F4
OPT_INT_51 -1
OPT_INT_48 1
OPT_INT_50 1
OPT_INT_59 0
OPT_FLOAT_60 8,5
OPT_VERTEX_18 14,000 15,000 5,000 0,000

trigger Transporter
id 573
rotation 0,000 1,000 0,000 0,000
position 39,938 10,836 186,375 0,000
item_flag 02 00 00 00 00 00 E0 40 00 00 00 00 00 00 00 00 00 00 00 00

object oa_forced_move
id 570
rotation 0,000 0,707 0,000 0,707
position -226,375 10,836 -0,059 0,000
item_flag 23 00 00 00 00 00 00 00 00 00 00 00 00 00 00 00 00 00 00 00 04 00 00 00
byte_flag 02 00 00 00 00 00 00 00 00 00 00 00 00 00 00 10 00 00 00 00
OPT_INT_51 -1
OPT_INT_48 1
OPT_INT_50 1
OPT_INT_59 0
OPT_FLOAT_60 8,5
OPT_VERTEX_18 14,000 15,000 5,000 0,000

trigger Transporter
id 571
rotation 0,000 0,707 0,000 -0,707
position 226,375 10,836 0,059 0,000
item_flag 01 00 00 00 00 00 E0 40 00 00 00 00 00 00 00 00 00 00 00 00

trigger Transporter
id 568
rotation 0,000 0,000 0,000 1,000
position -39,625 10,055 -178,875 0,000
item_flag 00 00 00 00 00 00 00 41 00 00 00 00 00 00 00 00 00 00 00 00

trigger Transporter
id 569
rotation 0,000 0,707 0,000 0,707
position -226,375 10,836 -0,059 0,000
item_flag 03 00 00 00 00 00 E0 40 00 00 00 00 00 00 00 00 00 00 00 00

colision EventCollision
id 567
rotation 0,000 0,000 0,000 1,000
position -115,125 -0,300 -8,188 0,000
byte_flag 01 00 00 00 00 00 00 00 00 00 00 00 10 00 00 00 00 00 00 00 00 00 00 00 00 00 70 41 00 00 80 3F 00 00 80 3F 00 00 00 00 00 00 00 00 00 00 00 00 00 00 00 00 04 00 00 00 00 00 00 00
self_object oa_blazing_colum_set

colision EventCollision
id 565
rotation 0,000 0,000 0,000 1,000
position -141,750 0,186 2,545 0,000
byte_flag 01 00 00 00 00 00 00 00 00 00 00 00 10 00 00 00 00 00 00 00 00 00 00 00 00 00 70 41 00 00 80 3F 00 00 80 3F 00 00 00 00 00 00 00 00 00 00 00 00 00 00 00 00 04 00 00 00 00 00 00 00
self_object oa_blazing_colum_set

object ob_9900_0308
id 594
rotation 0,000 0,259 0,000 -0,966
position 100,375 17,734 100,500 0,000
item_flag 00 00 00 00 00 00 00 00 00 00 00 00 00 00 00 00 00 00 00 00 04 00 00 00
byte_flag 02 00 00 00 00 00 00 00 00 00 00 00 00 00 00 10 00 00 00 00
OPT_INT_51 -1
OPT_INT_48 1
OPT_INT_50 0
OPT_INT_49 0
OPT_INT_52 13
OPT_FLOAT_0 1
OPT_FLOAT_1 1

object ob_9900_0308
id 595
rotation 0,000 0,259 0,000 -0,966
position 98,375 18,000 96,938 0,000
item_flag 00 00 00 00 00 00 00 00 00 00 00 00 00 00 00 00 00 00 00 00 04 00 00 00
byte_flag 02 00 00 00 00 00 00 00 00 00 00 00 00 00 00 10 00 00 00 00
OPT_INT_51 -1
OPT_INT_48 1
OPT_INT_50 0
OPT_INT_49 0
OPT_INT_52 13
OPT_FLOAT_0 1
OPT_FLOAT_1 1

object ob_9900_0308
id 592
rotation 0,000 0,383 0,000 -0,924
position 108,188 -0,553 74,813 0,000
item_flag 00 00 00 00 00 00 00 00 00 00 00 00 00 00 00 00 00 00 00 00 04 00 00 00
byte_flag 02 00 00 00 00 00 00 00 00 00 00 00 00 00 00 10 00 00 00 00
OPT_INT_51 -1
OPT_INT_48 1
OPT_INT_50 0
OPT_INT_49 0
OPT_INT_52 13
OPT_FLOAT_0 1
OPT_FLOAT_1 1

object ob_9900_0308
id 593
rotation 0,000 0,383 0,000 -0,924
position 111,188 -0,352 75,938 0,000
item_flag 00 00 00 00 00 00 00 00 00 00 00 00 00 00 00 00 00 00 00 00 04 00 00 00
byte_flag 02 00 00 00 00 00 00 00 00 00 00 00 00 00 00 10 00 00 00 00
OPT_INT_51 -1
OPT_INT_48 1
OPT_INT_50 0
OPT_INT_49 0
OPT_INT_52 13
OPT_FLOAT_0 1
OPT_FLOAT_1 1

object ob_9900_0309
id 590
rotation 0,000 1,000 0,000 0,000
position -148,250 10,031 74,938 0,000
item_flag 00 00 00 00 00 00 00 00 00 00 00 00 00 00 00 00 00 00 00 00 04 00 00 00
byte_flag 02 00 00 00 00 00 00 00 00 00 00 00 00 00 00 10 00 00 00 00
OPT_INT_51 -1
OPT_INT_48 1
OPT_INT_50 0
OPT_INT_49 0
OPT_INT_52 13
OPT_FLOAT_0 1
OPT_FLOAT_1 1

object ob_9900_0309
id 591
rotation 0,000 1,000 0,000 0,000
position -148,375 10,109 78,813 0,000
item_flag 00 00 00 00 00 00 00 00 00 00 00 00 00 00 00 00 00 00 00 00 04 00 00 00
byte_flag 02 00 00 00 00 00 00 00 00 00 00 00 00 00 00 10 00 00 00 00
OPT_INT_51 -1
OPT_INT_48 1
OPT_INT_50 0
OPT_INT_49 0
OPT_INT_52 13
OPT_FLOAT_0 1
OPT_FLOAT_1 1

object ob_9900_0308
id 588
rotation 0,000 1,000 0,000 0,000
position -101,750 -0,374 55,750 0,000
item_flag 00 00 00 00 00 00 00 00 00 00 00 00 00 00 00 00 00 00 00 00 04 00 00 00
byte_flag 02 00 00 00 00 00 00 00 00 00 00 00 00 00 00 10 00 00 00 00
OPT_INT_51 -1
OPT_INT_48 1
OPT_INT_50 0
OPT_INT_49 0
OPT_INT_52 13
OPT_FLOAT_0 1
OPT_FLOAT_1 1

object ob_9900_0308
id 589
rotation 0,000 1,000 0,000 0,000
position -145,875 10,047 77,000 0,000
item_flag 00 00 00 00 00 00 00 00 00 00 00 00 00 00 00 00 00 00 00 00 04 00 00 00
byte_flag 02 00 00 00 00 00 00 00 00 00 00 00 00 00 00 10 00 00 00 00
OPT_INT_51 -1
OPT_INT_48 1
OPT_INT_50 0
OPT_INT_49 0
OPT_INT_52 13
OPT_FLOAT_0 1
OPT_FLOAT_1 1

object ob_9900_0308
id 586
rotation 0,000 0,707 0,000 -0,707
position -53,406 0,239 10,992 0,000
item_flag 00 00 00 00 00 00 00 00 00 00 00 00 00 00 00 00 00 00 00 00 04 00 00 00
byte_flag 02 00 00 00 00 00 00 00 00 00 00 00 00 00 00 10 00 00 00 00
OPT_INT_51 -1
OPT_INT_48 1
OPT_INT_50 0
OPT_INT_49 0
OPT_INT_52 13
OPT_FLOAT_0 1
OPT_FLOAT_1 1

object ob_9900_0308
id 587
rotation 0,000 1,000 0,000 0,000
position -101,875 -0,502 53,063 0,000
item_flag 00 00 00 00 00 00 00 00 00 00 00 00 00 00 00 00 00 00 00 00 04 00 00 00
byte_flag 02 00 00 00 00 00 00 00 00 00 00 00 00 00 00 10 00 00 00 00
OPT_INT_51 -1
OPT_INT_48 1
OPT_INT_50 0
OPT_INT_49 0
OPT_INT_52 13
OPT_FLOAT_0 1
OPT_FLOAT_1 1

object ob_9900_0308
id 584
rotation 0,000 0,000 0,000 1,000
position 42,500 10,031 -84,625 0,000
item_flag 00 00 00 00 00 00 00 00 00 00 00 00 00 00 00 00 00 00 00 00 04 00 00 00
byte_flag 02 00 00 00 00 00 00 00 00 00 00 00 00 00 00 10 00 00 00 00
OPT_INT_51 -1
OPT_INT_48 1
OPT_INT_50 0
OPT_INT_49 0
OPT_INT_52 13
OPT_FLOAT_0 1
OPT_FLOAT_1 1

object ob_9900_0308
id 585
rotation 0,000 0,000 0,000 1,000
position 47,125 10,703 -84,688 0,000
item_flag 00 00 00 00 00 00 00 00 00 00 00 00 00 00 00 00 00 00 00 00 04 00 00 00
byte_flag 02 00 00 00 00 00 00 00 00 00 00 00 00 00 00 10 00 00 00 00
OPT_INT_51 -1
OPT_INT_48 1
OPT_INT_50 0
OPT_INT_49 0
OPT_INT_52 13
OPT_FLOAT_0 1
OPT_FLOAT_1 1

object ob_9900_0308
id 582
rotation 0,000 0,383 0,000 0,924
position 35,938 -0,352 -71,188 0,000
item_flag 00 00 00 00 00 00 00 00 00 00 00 00 00 00 00 00 00 00 00 00 04 00 00 00
byte_flag 02 00 00 00 00 00 00 00 00 00 00 00 00 00 00 10 00 00 00 00
OPT_INT_51 -1
OPT_INT_48 1
OPT_INT_50 0
OPT_INT_49 0
OPT_INT_52 13
OPT_FLOAT_0 1
OPT_FLOAT_1 1

object ob_9900_0308
id 583
rotation 0,000 0,000 0,000 1,000
position 44,875 10,227 -82,313 0,000
item_flag 00 00 00 00 00 00 00 00 00 00 00 00 00 00 00 00 00 00 00 00 04 00 00 00
byte_flag 02 00 00 00 00 00 00 00 00 00 00 00 00 00 00 10 00 00 00 00
OPT_INT_51 -1
OPT_INT_48 1
OPT_INT_50 0
OPT_INT_49 0
OPT_INT_52 13
OPT_FLOAT_0 1
OPT_FLOAT_1 1

object ob_9900_0304
id 580
rotation 0,000 0,707 0,000 -0,707
position 104,625 -0,331 67,438 0,000
item_flag 0E 00 00 00 00 00 00 00 00 00 00 00 00 00 00 00 00 00 00 00 04 00 00 00
byte_flag 02 00 00 00 00 00 00 00 00 00 00 00 00 00 00 10 00 00 00 00
OPT_INT_51 -1
OPT_INT_48 1
OPT_INT_50 1
OPT_INT_49 0
OPT_INT_63 0
OPT_INT_58 0

object ob_9900_0308
id 581
rotation 0,000 0,383 0,000 0,924
position 34,844 -0,553 -68,188 0,000
item_flag 00 00 00 00 00 00 00 00 00 00 00 00 00 00 00 00 00 00 00 00 04 00 00 00
byte_flag 02 00 00 00 00 00 00 00 00 00 00 00 00 00 00 10 00 00 00 00
OPT_INT_51 -1
OPT_INT_48 1
OPT_INT_50 0
OPT_INT_49 0
OPT_INT_52 13
OPT_FLOAT_0 1
OPT_FLOAT_1 1

object ob_9900_0430
id 610
rotation 0,000 0,707 0,000 -0,707
position 137,625 -0,330 -11,406 0,000
item_flag 00 00 00 00 00 00 00 00 00 00 00 00 00 00 00 00 00 00 00 00 04 00 00 00
byte_flag 02 00 00 00 00 00 00 00 00 00 00 00 00 00 00 10 00 00 00 00
OPT_INT_51 -1
OPT_INT_48 1
OPT_INT_50 1
OPT_INT_49 0
OPT_INT_52 13
OPT_INT_58 3
OPT_INT_70 0
OPT_VERTEX_18 143,625 -1,000 -14,797 0,000

object ob_9900_0430
id 611
rotation 0,000 0,707 0,000 -0,707
position 140,375 -0,370 -8,844 0,000
item_flag 00 00 00 00 00 00 00 00 00 00 00 00 00 00 00 00 00 00 00 00 04 00 00 00
byte_flag 02 00 00 00 00 00 00 00 00 00 00 00 00 00 00 10 00 00 00 00
OPT_INT_51 -1
OPT_INT_48 1
OPT_INT_50 1
OPT_INT_49 0
OPT_INT_52 13
OPT_INT_58 3
OPT_INT_70 0
OPT_VERTEX_18 143,000 -1,000 -14,898 0,000

object ob_9900_0430
id 608
rotation 0,000 0,707 0,000 0,707
position 41,531 0,400 3,328 0,000
item_flag 00 00 00 00 00 00 00 00 00 00 00 00 00 00 00 00 00 00 00 00 04 00 00 00
byte_flag 02 00 00 00 00 00 00 00 00 00 00 00 00 00 00 10 00 00 00 00
OPT_INT_51 -1
OPT_INT_48 1
OPT_INT_50 1
OPT_INT_49 0
OPT_INT_52 13
OPT_INT_58 3
OPT_INT_70 0
OPT_VERTEX_18 33,844 -1,000 0,090 0,000

object ob_9900_0430
id 609
rotation 0,000 0,707 0,000 0,707
position 36,969 1,289 -10,883 0,000
item_flag 00 00 00 00 00 00 00 00 00 00 00 00 00 00 00 00 00 00 00 00 04 00 00 00
byte_flag 02 00 00 00 00 00 00 00 00 00 00 00 00 00 00 10 00 00 00 00
OPT_INT_51 -1
OPT_INT_48 1
OPT_INT_50 1
OPT_INT_49 0
OPT_INT_52 13
OPT_INT_58 3
OPT_INT_70 0
OPT_VERTEX_18 30,859 -1,000 -8,844 0,000

object ob_9900_0430
id 606
rotation 0,000 0,707 0,000 -0,707
position -36,969 1,289 10,883 0,000
item_flag 00 00 00 00 00 00 00 00 00 00 00 00 00 00 00 00 00 00 00 00 04 00 00 00
byte_flag 02 00 00 00 00 00 00 00 00 00 00 00 00 00 00 10 00 00 00 00
OPT_INT_51 -1
OPT_INT_48 1
OPT_INT_50 1
OPT_INT_49 0
OPT_INT_52 13
OPT_INT_58 3
OPT_INT_70 0
OPT_VERTEX_18 -30,859 -1,000 8,844 0,000

object ob_9900_0430
id 607
rotation 0,000 0,707 0,000 0,707
position 28,469 0,040 20,641 0,000
item_flag 00 00 00 00 00 00 00 00 00 00 00 00 00 00 00 00 00 00 00 00 04 00 00 00
byte_flag 02 00 00 00 00 00 00 00 00 00 00 00 00 00 00 10 00 00 00 00
OPT_INT_51 -1
OPT_INT_48 1
OPT_INT_50 1
OPT_INT_49 0
OPT_INT_52 13
OPT_INT_58 3
OPT_INT_70 0
OPT_VERTEX_18 20,172 -1,000 25,328 0,000

object ob_9900_0430
id 604
rotation 0,000 0,707 0,000 -0,707
position -28,469 0,040 -20,641 0,000
item_flag 00 00 00 00 00 00 00 00 00 00 00 00 00 00 00 00 00 00 00 00 04 00 00 00
byte_flag 02 00 00 00 00 00 00 00 00 00 00 00 00 00 00 10 00 00 00 00
OPT_INT_51 -1
OPT_INT_48 1
OPT_INT_50 1
OPT_INT_49 0
OPT_INT_52 13
OPT_INT_58 3
OPT_INT_70 0
OPT_VERTEX_18 -20,172 -1,000 -25,328 0,000

object ob_9900_0430
id 605
rotation 0,000 0,707 0,000 -0,707
position -41,531 0,400 -3,328 0,000
item_flag 00 00 00 00 00 00 00 00 00 00 00 00 00 00 00 00 00 00 00 00 04 00 00 00
byte_flag 02 00 00 00 00 00 00 00 00 00 00 00 00 00 00 10 00 00 00 00
OPT_INT_51 -1
OPT_INT_48 1
OPT_INT_50 1
OPT_INT_49 0
OPT_INT_52 13
OPT_INT_58 3
OPT_INT_70 0
OPT_VERTEX_18 -33,844 -1,000 -0,090 0,000

object ob_9900_0430
id 602
rotation 0,000 0,000 0,000 1,000
position 40,781 -0,460 -58,969 0,000
item_flag 00 00 00 00 00 00 00 00 00 00 00 00 00 00 00 00 00 00 00 00 04 00 00 00
byte_flag 02 00 00 00 00 00 00 00 00 00 00 00 00 00 00 10 00 00 00 00
OPT_INT_51 -1
OPT_INT_48 1
OPT_INT_50 1
OPT_INT_49 0
OPT_INT_52 13
OPT_INT_58 3
OPT_INT_70 0
OPT_VERTEX_18 44,906 -1,000 -68,250 0,000

object ob_9900_0430
id 603
rotation 0,000 0,000 0,000 1,000
position 43,813 -0,400 -58,750 0,000
item_flag 00 00 00 00 00 00 00 00 00 00 00 00 00 00 00 00 00 00 00 00 04 00 00 00
byte_flag 02 00 00 00 00 00 00 00 00 00 00 00 00 00 00 10 00 00 00 00
OPT_INT_51 -1
OPT_INT_48 1
OPT_INT_50 1
OPT_INT_49 0
OPT_INT_52 13
OPT_INT_58 3
OPT_INT_70 0
OPT_VERTEX_18 44,906 -1,000 -68,250 0,000

colision EventCollision
id 600
rotation 0,000 1,000 0,000 0,000
position -145,500 10,086 74,375 0,000
byte_flag 01 00 00 00 00 00 00 00 00 00 00 00 10 00 00 00 00 00 00 00 00 00 00 00 00 00 C8 41 00 00 80 3F 00 00 80 3F 00 00 00 00 00 00 00 00 00 00 00 00 00 00 00 00 04 00 00 00 00 00 00 00
self_object oa_stalactite

object ob_9900_0430
id 601
rotation 0,000 0,000 0,000 1,000
position 47,000 -0,410 -58,188 0,000
item_flag 00 00 00 00 00 00 00 00 00 00 00 00 00 00 00 00 00 00 00 00 04 00 00 00
byte_flag 02 00 00 00 00 00 00 00 00 00 00 00 00 00 00 10 00 00 00 00
OPT_INT_51 -1
OPT_INT_48 1
OPT_INT_50 1
OPT_INT_49 0
OPT_INT_52 13
OPT_INT_58 3
OPT_INT_70 0
OPT_VERTEX_18 44,906 -1,000 -68,250 0,000

colision EventCollision
id 598
rotation 0,000 1,000 0,000 0,000
position -148,000 10,031 76,875 0,000
byte_flag 01 00 00 00 00 00 00 00 00 00 00 00 10 00 00 00 00 00 00 00 00 00 00 00 00 00 C8 41 00 00 80 3F 00 00 80 3F 00 00 00 00 00 00 00 00 00 00 00 00 00 00 00 00 04 00 00 00 00 00 00 00
self_object oa_stalactite

colision EventCollision
id 599
rotation 0,000 1,000 0,000 0,000
position -146,625 10,125 79,125 0,000
byte_flag 01 00 00 00 00 00 00 00 00 00 00 00 10 00 00 00 00 00 00 00 00 00 00 00 00 00 C8 41 00 00 80 3F 00 00 80 3F 00 00 00 00 00 00 00 00 00 00 00 00 00 00 00 00 04 00 00 00 00 00 00 00
self_object oa_stalactite

object ob_9900_0308
id 596
rotation 0,000 0,259 0,000 -0,966
position 103,875 17,391 100,063 0,000
item_flag 00 00 00 00 00 00 00 00 00 00 00 00 00 00 00 00 00 00 00 00 04 00 00 00
byte_flag 02 00 00 00 00 00 00 00 00 00 00 00 00 00 00 10 00 00 00 00
OPT_INT_51 -1
OPT_INT_48 1
OPT_INT_50 0
OPT_INT_49 0
OPT_INT_52 13
OPT_FLOAT_0 1
OPT_FLOAT_1 1

object ob_9900_0308
id 597
rotation 0,000 0,259 0,000 -0,966
position 104,375 16,938 103,750 0,000
item_flag 00 00 00 00 00 00 00 00 00 00 00 00 00 00 00 00 00 00 00 00 04 00 00 00
byte_flag 02 00 00 00 00 00 00 00 00 00 00 00 00 00 00 10 00 00 00 00
OPT_INT_51 -1
OPT_INT_48 1
OPT_INT_50 0
OPT_INT_49 0
OPT_INT_52 13
OPT_FLOAT_0 1
OPT_FLOAT_1 1

object oa_telepipe_clear
id 622
rotation 0,000 0,000 0,000 1,000
position 0,000 0,000 0,000 0,000
item_flag 10 00 00 00 00 00 00 00 00 00 00 00 00 00 00 00 00 00 00 00 04 00 00 00
byte_flag 02 00 00 00 00 00 00 00 00 00 00 00 00 00 00 10 00 00 00 00
OPT_INT_51 -1
OPT_INT_48 1
OPT_INT_50 0
OPT_INT_59 2
OPT_INT_60 0
OPT_ID_2 0

object ob_9900_0430
id 620
rotation 0,000 0,707 0,000 -0,707
position 98,938 -0,460 80,750 0,000
item_flag 00 00 00 00 00 00 00 00 00 00 00 00 00 00 00 00 00 00 00 00 04 00 00 00
byte_flag 02 00 00 00 00 00 00 00 00 00 00 00 00 00 00 10 00 00 00 00
OPT_INT_51 -1
OPT_INT_48 1
OPT_INT_50 1
OPT_INT_49 0
OPT_INT_52 13
OPT_INT_58 3
OPT_INT_70 0
OPT_VERTEX_18 108,250 -1,000 84,875 0,000

object ob_9900_0430
id 621
rotation 0,000 0,707 0,000 -0,707
position 98,750 -0,400 83,813 0,000
item_flag 00 00 00 00 00 00 00 00 00 00 00 00 00 00 00 00 00 00 00 00 04 00 00 00
byte_flag 02 00 00 00 00 00 00 00 00 00 00 00 00 00 00 10 00 00 00 00
OPT_INT_51 -1
OPT_INT_48 1
OPT_INT_50 1
OPT_INT_49 0
OPT_INT_52 13
OPT_INT_58 3
OPT_INT_70 0
OPT_VERTEX_18 108,250 -1,000 84,875 0,000

object ob_9900_0430
id 618
rotation 0,000 0,000 0,000 1,000
position 20,531 0,650 92,563 0,000
item_flag 00 00 00 00 00 00 00 00 00 00 00 00 00 00 00 00 00 00 00 00 04 00 00 00
byte_flag 02 00 00 00 00 00 00 00 00 00 00 00 00 00 00 10 00 00 00 00
OPT_INT_51 -1
OPT_INT_48 1
OPT_INT_50 1
OPT_INT_49 0
OPT_INT_52 13
OPT_INT_58 3
OPT_INT_70 0
OPT_VERTEX_18 18,109 -1,000 102,563 0,000

object ob_9900_0430
id 619
rotation 0,000 0,707 0,000 -0,707
position 98,188 -0,410 87,000 0,000
item_flag 00 00 00 00 00 00 00 00 00 00 00 00 00 00 00 00 00 00 00 00 04 00 00 00
byte_flag 02 00 00 00 00 00 00 00 00 00 00 00 00 00 00 10 00 00 00 00
OPT_INT_51 -1
OPT_INT_48 1
OPT_INT_50 1
OPT_INT_49 0
OPT_INT_52 13
OPT_INT_58 3
OPT_INT_70 0
OPT_VERTEX_18 108,250 -1,000 84,875 0,000

object ob_9900_0430
id 616
rotation 0,000 0,000 0,000 1,000
position 54,938 0,190 63,500 0,000
item_flag 00 00 00 00 00 00 00 00 00 00 00 00 00 00 00 00 00 00 00 00 04 00 00 00
byte_flag 02 00 00 00 00 00 00 00 00 00 00 00 00 00 00 10 00 00 00 00
OPT_INT_51 -1
OPT_INT_48 1
OPT_INT_50 1
OPT_INT_49 0
OPT_INT_52 13
OPT_INT_58 3
OPT_INT_70 0
OPT_VERTEX_18 61,531 -1,000 58,656 0,000

object ob_9900_0430
id 617
rotation 0,000 0,000 0,000 1,000
position 24,219 0,150 68,875 0,000
item_flag 00 00 00 00 00 00 00 00 00 00 00 00 00 00 00 00 00 00 00 00 04 00 00 00
byte_flag 02 00 00 00 00 00 00 00 00 00 00 00 00 00 00 10 00 00 00 00
OPT_INT_51 -1
OPT_INT_48 1
OPT_INT_50 1
OPT_INT_49 0
OPT_INT_52 13
OPT_INT_58 3
OPT_INT_70 0
OPT_VERTEX_18 23,219 -1,000 60,719 0,000

object ob_9900_0430
id 614
rotation 0,000 1,000 0,000 0,000
position -106,563 -0,320 67,688 0,000
item_flag 00 00 00 00 00 00 00 00 00 00 00 00 00 00 00 00 00 00 00 00 04 00 00 00
byte_flag 02 00 00 00 00 00 00 00 00 00 00 00 00 00 00 10 00 00 00 00
OPT_INT_51 -1
OPT_INT_48 1
OPT_INT_50 1
OPT_INT_49 0
OPT_INT_52 13
OPT_INT_58 3
OPT_INT_70 0
OPT_VERTEX_18 -104,875 -1,000 74,813 0,000

object ob_9900_0430
id 615
rotation 0,000 1,000 0,000 0,000
position -104,500 0,500 64,063 0,000
item_flag 00 00 00 00 00 00 00 00 00 00 00 00 00 00 00 00 00 00 00 00 04 00 00 00
byte_flag 02 00 00 00 00 00 00 00 00 00 00 00 00 00 00 10 00 00 00 00
OPT_INT_51 -1
OPT_INT_48 1
OPT_INT_50 1
OPT_INT_49 0
OPT_INT_52 13
OPT_INT_58 3
OPT_INT_70 0
OPT_VERTEX_18 -104,750 -1,000 75,188 0,000

object ob_9900_0430
id 612
rotation 0,000 0,707 0,000 -0,707
position 149,375 -0,450 -13,203 0,000
item_flag 00 00 00 00 00 00 00 00 00 00 00 00 00 00 00 00 00 00 00 00 04 00 00 00
byte_flag 02 00 00 00 00 00 00 00 00 00 00 00 00 00 00 10 00 00 00 00
OPT_INT_51 -1
OPT_INT_48 1
OPT_INT_50 1
OPT_INT_49 0
OPT_INT_52 13
OPT_INT_58 3
OPT_INT_70 0
OPT_VERTEX_18 143,000 -1,000 -14,898 0,000

object ob_9900_0430
id 613
rotation 0,000 1,000 0,000 0,000
position -110,063 -0,180 68,125 0,000
item_flag 00 00 00 00 00 00 00 00 00 00 00 00 00 00 00 00 00 00 00 00 04 00 00 00
byte_flag 02 00 00 00 00 00 00 00 00 00 00 00 00 00 00 10 00 00 00 00
OPT_INT_51 -1
OPT_INT_48 1
OPT_INT_50 1
OPT_INT_49 0
OPT_INT_52 13
OPT_INT_58 3
OPT_INT_70 0
OPT_VERTEX_18 -104,563 -1,000 75,438 0,000

colision EventCollision
id 514
rotation 0,000 -0,707 0,000 -0,707
position -92,000 0,000 0,000 0,000
byte_flag 01 00 00 00 00 00 00 00 01 00 00 00 10 00 00 00 00 00 00 00 00 00 00 00 00 00 F0 41 00 00 48 43 00 00 F0 41 00 00 00 00 00 00 00 00 00 00 00 00 00 00 00 00 04 00 00 00 00 00 00 00

object oa_crest_wall_0510
id 515
rotation 0,000 -0,707 0,000 -0,707
position -80,000 -1,000 0,000 0,000
item_flag 00 00 00 00 00 00 00 00 00 00 00 00 00 00 00 00 00 00 00 00 04 00 00 00
byte_flag 02 00 00 00 00 00 00 00 00 00 00 00 00 00 00 00 00 00 00 00
OPT_INT_51 -1
OPT_INT_48 1
OPT_INT_50 2
OPT_INT_49 0
OPT_INT_52 13

object oa_breakable_door
id 512
rotation 0,000 -0,707 0,000 -0,707
position -80,000 0,000 0,000 0,000
item_flag 08 00 00 00 00 00 00 00 00 00 00 00 00 00 00 00 00 00 00 00 05 00 00 00
byte_flag 02 00 00 00 00 00 00 00 00 00 00 00 00 00 00 00 00 80 59 0F
OPT_INT_51 -1
OPT_INT_48 1
OPT_INT_50 2
OPT_INT_58 1

colision EventCollision
id 513
rotation 0,000 -0,707 0,000 -0,707
position -68,000 0,000 0,000 0,000
byte_flag 01 00 00 00 00 00 00 00 01 00 00 00 10 00 00 00 00 00 00 00 00 00 00 00 00 00 F0 41 00 00 48 43 00 00 F0 41 00 00 00 00 00 00 00 00 00 00 00 00 00 00 00 00 04 80 59 0F 00 00 00 00

colision EventCollision
id 510
rotation 0,000 0,000 0,000 -1,000
position -40,000 0,000 -52,000 0,000
byte_flag 01 00 00 00 00 00 00 00 01 00 00 00 10 00 00 00 00 00 00 00 00 00 00 00 00 00 F0 41 00 00 48 43 00 00 F0 41 00 00 00 00 00 00 00 00 00 00 00 00 00 00 00 00 04 80 59 0F 00 00 00 00

object oa_crest_wall_0510
id 511
rotation 0,000 0,000 0,000 -1,000
position -40,000 -1,000 -40,000 0,000
item_flag 00 00 00 00 00 00 00 00 00 00 00 00 00 00 00 00 00 00 00 00 04 00 00 00
byte_flag 02 00 00 00 00 00 00 00 00 00 00 00 00 00 00 00 00 00 00 00
OPT_INT_51 -1
OPT_INT_48 1
OPT_INT_50 2
OPT_INT_49 0
OPT_INT_52 13

object oa_breakable_door
id 508
rotation 0,000 0,000 0,000 -1,000
position -40,000 0,000 -40,000 0,000
item_flag 08 00 00 00 00 00 00 00 00 00 00 00 00 00 00 00 00 00 00 00 05 00 00 00
byte_flag 02 00 00 00 00 00 00 00 00 00 00 00 00 00 00 00 00 80 59 0F
OPT_INT_51 -1
OPT_INT_48 1
OPT_INT_50 2
OPT_INT_58 1

colision EventCollision
id 509
rotation 0,000 0,000 0,000 -1,000
position -39,969 0,000 -28,000 0,000
byte_flag 01 00 00 00 00 00 00 00 01 00 00 00 10 00 00 00 00 00 00 00 00 00 00 00 00 00 F0 41 00 00 48 43 00 00 F0 41 00 00 00 00 00 00 00 00 00 00 00 00 00 00 00 00 04 80 59 0F 00 00 00 00

colision EventCollision
id 531
rotation 0,000 0,000 0,000 1,000
position 61,375 14,000 -90,000 0,000
byte_flag 01 00 00 00 00 00 00 00 00 00 00 00 10 00 00 00 00 00 00 00 00 00 00 00 00 00 70 42 00 00 80 3F 00 00 80 3F 00 00 00 00 00 00 00 00 00 00 00 00 00 00 00 00 04 80 59 0F 00 00 00 00

