ver 4
define OPT_ID_2 = 2
define OPT_INT_60 = 60
define OPT_INT_59 = 59
define OPT_FLOAT_1 = 1
define OPT_FLOAT_0 = 0
define OPT_VERTEX_18 = 18
define OPT_INT_70 = 70
define OPT_INT_58 = 58
define OPT_INT_52 = 52
define OPT_INT_49 = 49
define OPT_INT_50 = 50
define OPT_INT_48 = 48
define OPT_INT_51 = 51

object oa_crest_door_dummy_0510
id 339
rotation 0,000 0,707 0,000 0,707
position -160,000 0,000 -40,000 0,000
item_flag 00 00 00 00 00 00 00 00 00 00 00 00 00 00 00 00 00 00 00 00 04 00 00 00
byte_flag 02 00 00 00 00 00 00 00 00 00 00 00 00 00 00 10 00 40 30 4D
OPT_INT_51 -1
OPT_INT_48 1
OPT_INT_50 1
OPT_INT_49 0
OPT_INT_52 13

colision EventCollision
id 355
rotation 0,000 1,000 0,000 0,000
position -23,281 -0,429 7,879 0,000
byte_flag 01 00 00 00 00 00 00 00 00 00 00 00 10 00 00 00 00 00 00 00 00 00 00 00 00 00 70 42 00 00 80 3F 00 00 80 3F 00 00 00 00 00 00 00 00 00 00 00 00 00 00 00 00 04 40 30 4D 00 00 00 00
//self_object oa_blazing_colum_set

colision EventCollision
id 353
rotation 0,000 0,707 0,000 0,707
position -147,375 0,727 -38,781 0,000
byte_flag 01 00 00 00 00 00 00 00 00 00 00 00 10 00 00 00 00 00 00 00 00 00 00 00 00 00 70 42 00 00 80 3F 00 00 80 3F 00 00 00 00 00 00 00 00 00 00 00 00 00 00 00 00 04 40 30 4D 00 00 00 00
//self_object oa_blazing_colum_set

colision EventCollision
id 351
rotation 0,000 0,707 0,000 0,707
position -89,313 0,060 -28,641 0,000
byte_flag 01 00 00 00 00 00 00 00 00 00 00 00 10 00 00 00 00 00 00 00 00 00 00 00 00 00 70 42 00 00 80 3F 00 00 80 3F 00 00 00 00 00 00 00 00 00 00 00 00 00 00 00 00 04 40 30 4D 00 00 00 00
//self_object oa_blazing_colum_set

colision EventCollision
id 349
rotation 0,000 0,707 0,000 -0,707
position 63,031 -0,109 39,406 0,000
byte_flag 01 00 00 00 00 00 00 00 00 00 00 00 10 00 00 00 00 00 00 00 00 00 00 00 00 00 70 42 00 00 80 3F 00 00 80 3F 00 00 00 00 00 00 00 00 00 00 00 00 00 00 00 00 04 40 30 4D 00 00 00 00
//self_object oa_blazing_colum_set

colision EventCollision
id 347
rotation 0,000 0,707 0,000 0,707
position -98,563 -0,300 46,188 0,000
byte_flag 01 00 00 00 00 00 00 00 00 00 00 00 10 00 00 00 00 00 00 00 00 00 00 00 00 00 70 41 00 00 80 3F 00 00 80 3F 00 00 00 00 00 00 00 00 00 00 00 00 00 00 00 00 04 40 30 4D 00 00 00 00
self_object oa_blazing_colum_set

colision EventCollision
id 345
rotation 0,000 0,707 0,000 0,707
position -110,000 15,625 13,453 0,000
byte_flag 01 00 00 00 00 00 00 00 00 00 00 00 10 00 00 00 00 00 00 00 00 00 00 00 00 00 70 42 00 00 80 3F 00 00 80 3F 00 00 00 00 00 00 00 00 00 00 00 00 00 00 00 00 04 40 30 4D 00 00 00 00
//self_object oa_blazing_colum_set

object oa_crest_door_dummy_0510
id 342
rotation 0,000 0,707 0,000 0,707
position 0,000 0,000 40,000 0,000
item_flag 00 00 00 00 00 00 00 00 00 00 00 00 00 00 00 00 00 00 00 00 04 00 00 00
byte_flag 02 00 00 00 00 00 00 00 00 00 00 00 00 00 00 10 00 40 30 4D
OPT_INT_51 -1
OPT_INT_48 1
OPT_INT_50 1
OPT_INT_49 0
OPT_INT_52 13

object oa_crest_door_dummy_0510
id 343
rotation 0,000 0,707 0,000 0,707
position 160,000 15,000 40,000 0,000
item_flag 00 00 00 00 00 00 00 00 00 00 00 00 00 00 00 00 00 00 00 00 04 00 00 00
byte_flag 02 00 00 00 00 00 00 00 00 00 00 00 00 00 00 10 00 40 30 4D
OPT_INT_51 -1
OPT_INT_48 1
OPT_INT_50 1
OPT_INT_49 0
OPT_INT_52 13

object oa_crest_door_dummy_0510
id 340
rotation 0,000 0,707 0,000 0,707
position 80,000 15,000 -40,000 0,000
item_flag 00 00 00 00 00 00 00 00 00 00 00 00 00 00 00 00 00 00 00 00 04 00 00 00
byte_flag 02 00 00 00 00 00 00 00 00 00 00 00 00 00 00 10 00 40 30 4D
OPT_INT_51 -1
OPT_INT_48 1
OPT_INT_50 1
OPT_INT_49 0
OPT_INT_52 13

object oa_crest_door_dummy_0510
id 341
rotation 0,000 0,707 0,000 0,707
position -80,000 0,000 40,000 0,000
item_flag 00 00 00 00 00 00 00 00 00 00 00 00 00 00 00 00 00 00 00 00 04 00 00 00
byte_flag 02 00 00 00 00 00 00 00 00 00 00 00 00 00 00 10 00 40 30 4D
OPT_INT_51 -1
OPT_INT_48 1
OPT_INT_50 1
OPT_INT_49 0
OPT_INT_52 13

colision EventCollision
id 371
rotation 0,000 1,000 0,000 0,000
position 138,500 24,484 -42,469 0,000
byte_flag 01 00 00 00 00 00 00 00 00 00 00 00 10 00 00 00 00 00 00 00 00 00 00 00 00 00 70 42 00 00 80 3F 00 00 80 3F 00 00 00 00 00 00 00 00 00 00 00 00 00 00 00 00 04 40 30 4D 00 00 00 00
//self_object oa_blazing_colum_set

colision EventCollision
id 369
rotation 0,000 1,000 0,000 0,000
position 99,313 15,320 -44,125 0,000
byte_flag 01 00 00 00 00 00 00 00 00 00 00 00 10 00 00 00 00 00 00 00 00 00 00 00 00 00 70 41 00 00 80 3F 00 00 80 3F 00 00 00 00 00 00 00 00 00 00 00 00 00 00 00 00 04 40 30 4D 00 00 00 00
self_object oa_blazing_colum_set

colision EventCollision
id 367
rotation 0,000 1,000 0,000 0,000
position 121,375 15,234 -21,297 0,000
byte_flag 01 00 00 00 00 00 00 00 00 00 00 00 10 00 00 00 00 00 00 00 00 00 00 00 00 00 70 41 00 00 80 3F 00 00 80 3F 00 00 00 00 00 00 00 00 00 00 00 00 00 00 00 00 04 40 30 4D 00 00 00 00
self_object oa_blazing_colum_set

colision EventCollision
id 365
rotation 0,000 0,707 0,000 -0,707
position 36,625 0,277 -21,594 0,000
byte_flag 01 00 00 00 00 00 00 00 00 00 00 00 10 00 00 00 00 00 00 00 00 00 00 00 00 00 70 41 00 00 80 3F 00 00 80 3F 00 00 00 00 00 00 00 00 00 00 00 00 00 00 00 00 04 40 30 4D 00 00 00 00
self_object oa_blazing_colum_set

colision EventCollision
id 363
rotation 0,000 0,707 0,000 -0,707
position 22,344 0,349 -49,969 0,000
byte_flag 01 00 00 00 00 00 00 00 00 00 00 00 10 00 00 00 00 00 00 00 00 00 00 00 00 00 70 41 00 00 80 3F 00 00 80 3F 00 00 00 00 00 00 00 00 00 00 00 00 00 00 00 00 04 40 30 4D 00 00 00 00
self_object oa_blazing_colum_set

colision EventCollision
id 361
rotation 0,000 0,707 0,000 -0,707
position 66,375 14,773 -26,984 0,000
byte_flag 01 00 00 00 00 00 00 00 00 00 00 00 10 00 00 00 00 00 00 00 00 00 00 00 00 00 70 41 00 00 80 3F 00 00 80 3F 00 00 00 00 00 00 00 00 00 00 00 00 00 00 00 00 04 40 30 4D 00 00 00 00
self_object oa_blazing_colum_set

colision EventCollision
id 359
rotation 0,000 0,000 0,000 1,000
position -7,523 2,201 -25,828 0,000
byte_flag 01 00 00 00 00 00 00 00 00 00 00 00 10 00 00 00 00 00 00 00 00 00 00 00 00 00 70 42 00 00 80 3F 00 00 80 3F 00 00 00 00 00 00 00 00 00 00 00 00 00 00 00 00 04 40 30 4D 00 00 00 00
//self_object oa_blazing_colum_set

colision EventCollision
id 357
rotation 0,000 0,000 0,000 1,000
position -73,188 0,000 -42,781 0,000
byte_flag 01 00 00 00 00 00 00 00 00 00 00 00 10 00 00 00 00 00 00 00 00 00 00 00 00 00 70 42 00 00 80 3F 00 00 80 3F 00 00 00 00 00 00 00 00 00 00 00 00 00 00 00 00 04 40 30 4D 00 00 00 00
//self_object oa_blazing_colum_set

object ob_9900_0430
id 386
rotation 0,000 0,707 0,000 0,707
position -139,625 0,040 -48,719 0,000
item_flag 00 00 00 00 00 00 00 00 00 00 00 00 00 00 00 00 00 00 00 00 04 00 00 00
byte_flag 02 00 00 00 00 00 00 00 00 00 00 00 00 00 00 10 00 40 7F 67
OPT_INT_51 -1
OPT_INT_48 1
OPT_INT_50 1
OPT_INT_49 0
OPT_INT_52 13
OPT_INT_58 3
OPT_INT_70 0
OPT_VERTEX_18 -137,250 -1,000 -56,219 0,000

object ob_9900_0430
id 387
rotation 0,000 0,707 0,000 0,707
position -125,938 5,219 -50,531 0,000
item_flag 00 00 00 00 00 00 00 00 00 00 00 00 00 00 00 00 00 00 00 00 04 00 00 00
byte_flag 02 00 00 00 00 00 00 00 00 00 00 00 00 00 00 10 00 40 7F 67
OPT_INT_51 -1
OPT_INT_48 1
OPT_INT_50 1
OPT_INT_49 0
OPT_INT_52 13
OPT_INT_58 3
OPT_INT_70 0
OPT_VERTEX_18 -137,250 -1,000 -56,219 0,000

object ob_9900_0308
id 384
rotation 0,000 0,707 0,000 -0,707
position 23,297 -0,248 16,500 0,000
item_flag 00 00 00 00 00 00 00 00 00 00 00 00 00 00 00 00 00 00 00 00 04 00 00 00
byte_flag 02 00 00 00 00 00 00 00 00 00 00 00 00 00 00 10 00 40 7F 67
OPT_INT_51 -1
OPT_INT_48 1
OPT_INT_50 0
OPT_INT_49 0
OPT_INT_52 13
OPT_FLOAT_0 1
OPT_FLOAT_1 1

object ob_9900_0310
id 385
rotation 0,000 0,707 0,000 -0,707
position 25,031 -0,300 13,984 0,000
item_flag 00 00 00 00 00 00 00 00 00 00 00 00 00 00 00 00 00 00 00 00 04 00 00 00
byte_flag 02 00 00 00 00 00 00 00 00 00 00 00 00 00 00 10 00 40 7F 67
OPT_INT_51 -1
OPT_INT_48 1
OPT_INT_50 0
OPT_INT_49 0
OPT_INT_52 13
OPT_FLOAT_0 1
OPT_FLOAT_1 1

object ob_9900_0310
id 382
rotation 0,000 0,707 0,000 0,707
position -107,000 -0,290 41,688 0,000
item_flag 00 00 00 00 00 00 00 00 00 00 00 00 00 00 00 00 00 00 00 00 04 00 00 00
byte_flag 02 00 00 00 00 00 00 00 00 00 00 00 00 00 00 10 00 40 7F 67
OPT_INT_51 -1
OPT_INT_48 1
OPT_INT_50 0
OPT_INT_49 0
OPT_INT_52 13
OPT_FLOAT_0 1
OPT_FLOAT_1 1

object ob_9900_0308
id 383
rotation 0,000 0,707 0,000 -0,707
position -46,906 0,052 9,320 0,000
item_flag 00 00 00 00 00 00 00 00 00 00 00 00 00 00 00 00 00 00 00 00 04 00 00 00
byte_flag 02 00 00 00 00 00 00 00 00 00 00 00 00 00 00 10 00 40 7F 67
OPT_INT_51 -1
OPT_INT_48 1
OPT_INT_50 0
OPT_INT_49 0
OPT_INT_52 13
OPT_FLOAT_0 1
OPT_FLOAT_1 1

trigger Transporter
id 380
rotation 0,000 0,707 0,000 0,707
position -218,875 10,055 -40,344 0,000
item_flag 03 00 00 00 00 00 00 41 00 00 00 00 00 00 00 00 00 00 00 00

object ob_9900_0308
id 381
rotation 0,000 0,707 0,000 0,707
position -110,063 -0,001 41,656 0,000
item_flag 00 00 00 00 00 00 00 00 00 00 00 00 00 00 00 00 00 00 00 00 04 00 00 00
byte_flag 02 00 00 00 00 00 00 00 00 00 00 00 00 00 00 10 00 00 00 00
OPT_INT_51 -1
OPT_INT_48 1
OPT_INT_50 0
OPT_INT_49 0
OPT_INT_52 13
OPT_FLOAT_0 1
OPT_FLOAT_1 1

colision EventCollision
id 379
rotation 0,000 0,000 0,000 1,000
position 109,500 15,789 22,203 0,000
byte_flag 01 00 00 00 00 00 00 00 00 00 00 00 10 00 00 00 00 00 00 00 00 00 00 00 00 00 70 41 00 00 80 3F 00 00 80 3F 00 00 00 00 00 00 00 00 00 00 00 00 00 00 00 00 04 00 00 00 00 00 00 00
self_object oa_blazing_colum_set

colision EventCollision
id 377
rotation 0,000 0,000 0,000 1,000
position 136,750 15,664 49,000 0,000
byte_flag 01 00 00 00 00 00 00 00 00 00 00 00 10 00 00 00 00 00 00 00 00 00 00 00 00 00 70 41 00 00 80 3F 00 00 80 3F 00 00 00 00 00 00 00 00 00 00 00 00 00 00 00 00 04 00 00 00 00 00 00 00
self_object oa_blazing_colum_set

colision EventCollision
id 375
rotation 0,000 0,000 0,000 1,000
position 116,188 15,211 18,797 0,000
byte_flag 01 00 00 00 00 00 00 00 00 00 00 00 10 00 00 00 00 00 00 00 00 00 00 00 00 00 70 41 00 00 80 3F 00 00 80 3F 00 00 00 00 00 00 00 00 00 00 00 00 00 00 00 00 04 00 00 00 00 00 00 00
self_object oa_blazing_colum_set

colision EventCollision
id 373
rotation 0,000 0,000 0,000 1,000
position 106,813 15,320 30,781 0,000
byte_flag 01 00 00 00 00 00 00 00 00 00 00 00 10 00 00 00 00 00 00 00 00 00 00 00 00 00 70 42 00 00 80 3F 00 00 80 3F 00 00 00 00 00 00 00 00 00 00 00 00 00 00 00 00 04 00 00 00 00 00 00 00
self_object oa_blazing_colum_set

object oa_telepipe_start
id 402
rotation 0,000 0,707 0,000 -0,707
position 209,250 17,547 38,000 0,000
item_flag 10 00 00 00 00 00 00 00 00 00 00 00 00 00 00 00 00 00 00 00 04 00 00 00
byte_flag 02 00 00 00 00 00 00 00 00 00 00 00 00 00 00 10 00 00 00 00
OPT_INT_51 -1
OPT_INT_48 1
OPT_INT_50 0
OPT_INT_59 1
OPT_INT_60 1
OPT_ID_2 0

object ob_9900_0430
id 400
rotation 0,000 0,707 0,000 -0,707
position 8,344 0,010 33,188 0,000
item_flag 00 00 00 00 00 00 00 00 00 00 00 00 00 00 00 00 00 00 00 00 04 00 00 00
byte_flag 02 00 00 00 00 00 00 00 00 00 00 00 00 00 00 10 00 00 00 00
OPT_INT_51 -1
OPT_INT_48 1
OPT_INT_50 1
OPT_INT_49 0
OPT_INT_52 13
OPT_INT_58 3
OPT_INT_70 0
OPT_VERTEX_18 14,359 -1,000 38,625 0,000

object oa_telepipe_clear
id 401
rotation 0,000 0,000 0,000 1,000
position 0,000 0,000 0,000 0,000
item_flag 10 00 00 00 00 00 00 00 00 00 00 00 00 00 00 00 00 00 00 00 04 00 00 00
byte_flag 02 00 00 00 00 00 00 00 00 00 00 00 00 00 00 10 00 00 00 00
OPT_INT_51 -1
OPT_INT_48 1
OPT_INT_50 0
OPT_INT_59 2
OPT_INT_60 0
OPT_ID_2 0

object ob_9900_0430
id 398
rotation 0,000 0,707 0,000 -0,707
position 17,828 0,000 32,969 0,000
item_flag 00 00 00 00 00 00 00 00 00 00 00 00 00 00 00 00 00 00 00 00 04 00 00 00
byte_flag 02 00 00 00 00 00 00 00 00 00 00 00 00 00 00 10 00 00 00 00
OPT_INT_51 -1
OPT_INT_48 1
OPT_INT_50 1
OPT_INT_49 0
OPT_INT_52 13
OPT_INT_58 3
OPT_INT_70 0
OPT_VERTEX_18 14,359 -1,000 38,625 0,000

object ob_9900_0430
id 399
rotation 0,000 0,707 0,000 -0,707
position 9,125 0,000 40,500 0,000
item_flag 00 00 00 00 00 00 00 00 00 00 00 00 00 00 00 00 00 00 00 00 04 00 00 00
byte_flag 02 00 00 00 00 00 00 00 00 00 00 00 00 00 00 10 00 00 00 00
OPT_INT_51 -1
OPT_INT_48 1
OPT_INT_50 1
OPT_INT_49 0
OPT_INT_52 13
OPT_INT_58 3
OPT_INT_70 0
OPT_VERTEX_18 14,359 -1,000 38,625 0,000

object ob_9900_0430
id 396
rotation 0,000 1,000 0,000 0,000
position -22,391 0,090 48,250 0,000
item_flag 00 00 00 00 00 00 00 00 00 00 00 00 00 00 00 00 00 00 00 00 04 00 00 00
byte_flag 02 00 00 00 00 00 00 00 00 00 00 00 00 00 00 10 00 00 00 00
OPT_INT_51 -1
OPT_INT_48 1
OPT_INT_50 1
OPT_INT_49 0
OPT_INT_52 13
OPT_INT_58 3
OPT_INT_70 0
OPT_VERTEX_18 -30,203 -1,000 53,469 0,000

object ob_9900_0430
id 397
rotation 0,000 1,000 0,000 0,000
position -41,750 -0,300 41,531 0,000
item_flag 00 00 00 00 00 00 00 00 00 00 00 00 00 00 00 00 00 00 00 00 04 00 00 00
byte_flag 02 00 00 00 00 00 00 00 00 00 00 00 00 00 00 10 00 00 00 00
OPT_INT_51 -1
OPT_INT_48 1
OPT_INT_50 1
OPT_INT_49 0
OPT_INT_52 13
OPT_INT_58 3
OPT_INT_70 0
OPT_VERTEX_18 -43,063 -1,000 47,750 0,000

object ob_9900_0430
id 394
rotation 0,000 0,707 0,000 0,707
position -98,313 -0,370 35,281 0,000
item_flag 00 00 00 00 00 00 00 00 00 00 00 00 00 00 00 00 00 00 00 00 04 00 00 00
byte_flag 02 00 00 00 00 00 00 00 00 00 00 00 00 00 00 10 00 00 00 00
OPT_INT_51 -1
OPT_INT_48 1
OPT_INT_50 1
OPT_INT_49 0
OPT_INT_52 13
OPT_INT_58 3
OPT_INT_70 0
OPT_VERTEX_18 -107,188 -1,000 33,250 0,000

object ob_9900_0430
id 395
rotation 0,000 1,000 0,000 0,000
position -36,938 -0,060 39,531 0,000
item_flag 00 00 00 00 00 00 00 00 00 00 00 00 00 00 00 00 00 00 00 00 04 00 00 00
byte_flag 02 00 00 00 00 00 00 00 00 00 00 00 00 00 00 10 00 00 00 00
OPT_INT_51 -1
OPT_INT_48 1
OPT_INT_50 1
OPT_INT_49 0
OPT_INT_52 13
OPT_INT_58 3
OPT_INT_70 0
OPT_VERTEX_18 -40,250 -1,000 48,375 0,000

object ob_9900_0430
id 392
rotation 0,000 0,707 0,000 0,707
position -99,000 -0,390 41,969 0,000
item_flag 00 00 00 00 00 00 00 00 00 00 00 00 00 00 00 00 00 00 00 00 04 00 00 00
byte_flag 02 00 00 00 00 00 00 00 00 00 00 00 00 00 00 10 00 00 00 00
OPT_INT_51 -1
OPT_INT_48 1
OPT_INT_50 1
OPT_INT_49 0
OPT_INT_52 13
OPT_INT_58 3
OPT_INT_70 0
OPT_VERTEX_18 -108,188 -1,000 34,844 0,000

object ob_9900_0430
id 393
rotation 0,000 0,707 0,000 0,707
position -117,438 -0,170 39,719 0,000
item_flag 00 00 00 00 00 00 00 00 00 00 00 00 00 00 00 00 00 00 00 00 04 00 00 00
byte_flag 02 00 00 00 00 00 00 00 00 00 00 00 00 00 00 10 00 00 00 00
OPT_INT_51 -1
OPT_INT_48 1
OPT_INT_50 1
OPT_INT_49 0
OPT_INT_52 13
OPT_INT_58 3
OPT_INT_70 0
OPT_VERTEX_18 -108,500 -1,000 34,500 0,000

object ob_9900_0430
id 390
rotation 0,000 1,000 0,000 0,000
position 86,813 15,164 -30,219 0,000
item_flag 00 00 00 00 00 00 00 00 00 00 00 00 00 00 00 00 00 00 00 00 04 00 00 00
byte_flag 02 00 00 00 00 00 00 00 00 00 00 00 00 00 00 10 00 00 00 00
OPT_INT_51 -1
OPT_INT_48 1
OPT_INT_50 1
OPT_INT_49 0
OPT_INT_52 13
OPT_INT_58 3
OPT_INT_70 0
OPT_VERTEX_18 97,750 14,000 -18,359 0,000

object ob_9900_0430
id 391
rotation 0,000 1,000 0,000 0,000
position 89,625 15,039 -37,594 0,000
item_flag 00 00 00 00 00 00 00 00 00 00 00 00 00 00 00 00 00 00 00 00 04 00 00 00
byte_flag 02 00 00 00 00 00 00 00 00 00 00 00 00 00 00 10 00 00 00 00
OPT_INT_51 -1
OPT_INT_48 1
OPT_INT_50 1
OPT_INT_49 0
OPT_INT_52 13
OPT_INT_58 3
OPT_INT_70 0
OPT_VERTEX_18 101,938 14,000 -29,516 0,000

object ob_9900_0430
id 388
rotation 0,000 0,707 0,000 0,707
position -134,500 0,330 -46,531 0,000
item_flag 00 00 00 00 00 00 00 00 00 00 00 00 00 00 00 00 00 00 00 00 04 00 00 00
byte_flag 02 00 00 00 00 00 00 00 00 00 00 00 00 00 00 10 00 00 00 00
OPT_INT_51 -1
OPT_INT_48 1
OPT_INT_50 1
OPT_INT_49 0
OPT_INT_52 13
OPT_INT_58 3
OPT_INT_70 0
OPT_VERTEX_18 -137,250 -1,000 -56,219 0,000

object ob_9900_0430
id 389
rotation 0,000 1,000 0,000 0,000
position 117,313 14,930 -28,969 0,000
item_flag 00 00 00 00 00 00 00 00 00 00 00 00 00 00 00 00 00 00 00 00 04 00 00 00
byte_flag 02 00 00 00 00 00 00 00 00 00 00 00 00 00 00 10 00 00 00 00
OPT_INT_51 -1
OPT_INT_48 1
OPT_INT_50 1
OPT_INT_49 0
OPT_INT_52 13
OPT_INT_58 3
OPT_INT_70 0
OPT_VERTEX_18 107,500 14,000 -18,359 0,000

