ver 5
define OPT_INT_61 = 61
define OPT_ID_2 = 2
define OPT_INT_75 = 75
define OPT_INT_76 = 76
define OPT_INT_74 = 74
define OPT_VERTEX_15 = 15
define OPT_VERTEX_14 = 14
define OPT_VERTEX_13 = 13
define OPT_VERTEX_12 = 12
define OPT_VERTEX_11 = 11
define OPT_VERTEX_10 = 10
define OPT_VERTEX_9 = 9
define OPT_VERTEX_8 = 8
define OPT_VERTEX_7 = 7
define OPT_VERTEX_6 = 6
define OPT_FLOAT_1 = 1
define OPT_FLOAT_0 = 0
define OPT_INT_66 = 66
define OPT_FLOAT_60 = 60
define OPT_INT_70 = 70
define OPT_INT_67 = 67
define OPT_INT_71 = 71
define OPT_INT_56 = 56
define OPT_VERTEX_19 = 19
define OPT_INT_63 = 63
define OPT_INT_62 = 62
define OPT_INT_72 = 72
define OPT_INT_55 = 55
define OPT_INT_52 = 52
define OPT_INT_64 = 64
define OPT_INT_53 = 53
define OPT_INT_51 = 51
define OPT_INT_54 = 54

object ob_9900_0404
id 27
rotation 0,000 0,000 0,000 1,000
position -108,313 4,250 0,640 0,000
item_flag 00 00 00 00 00 00 00 00 00 00 00 00 00 00 00 00 00 00 00 00 04 00 00 00
byte_flag 02 00 00 00 00 00 00 00 00 00 00 00 00 00 00 20 00 80 2D 3F
OPT_INT_54 -1
OPT_INT_51 1
OPT_INT_53 1
OPT_INT_64 1500
OPT_INT_52 0
OPT_INT_55 10

object oa_body_collision
id 78
rotation 0,000 0,000 0,000 1,000
position 40,000 2,500 0,000 0,000
item_flag 00 00 00 00 00 00 00 00 00 00 00 00 00 00 00 00 00 00 00 00 04 00 00 00
byte_flag 02 00 00 00 00 00 00 00 00 00 00 00 00 00 00 20 00 00 00 00
OPT_INT_54 -1
OPT_INT_51 1
OPT_INT_53 1
OPT_INT_52 0
OPT_INT_72 0
OPT_INT_62 1
OPT_INT_63 0
OPT_INT_55 10
OPT_VERTEX_19 1,000 160,000 80,000 0,000

object ob_9900_0403
id 28
rotation 0,000 0,000 0,000 1,000
position 163,000 -0,770 8,445 0,000
item_flag 00 00 00 00 00 00 00 00 00 00 00 00 00 00 00 00 00 00 00 00 04 00 00 00
byte_flag 02 00 00 00 00 00 00 00 00 00 00 00 00 00 00 20 00 80 2D 3F
OPT_INT_54 -1
OPT_INT_51 1
OPT_INT_53 1
OPT_INT_64 500
OPT_INT_52 0
OPT_INT_55 10

object oa_touch_screen_async
id 75
rotation 0,000 0,000 0,000 1,000
position 153,750 2,568 114,938 0,000
item_flag 18 00 00 00 4A 00 00 00 00 00 00 00 06 00 D6 01 00 00 00 00 04 00 00 00
byte_flag 02 00 00 00 00 00 00 00 00 00 00 00 00 00 00 00 00 80 2D 3F
OPT_INT_54 -1
OPT_INT_51 1
OPT_INT_53 2
OPT_INT_52 0
OPT_INT_55 10

object ob_9900_0403
id 33
rotation 0,000 0,000 0,000 1,000
position -146,875 19,063 -71,188 0,000
item_flag 00 00 00 00 00 00 00 00 00 00 00 00 00 00 00 00 00 00 00 00 04 00 00 00
byte_flag 02 00 00 00 00 00 00 00 00 00 00 00 00 00 00 20 00 80 2D 3F
OPT_INT_54 -1
OPT_INT_51 1
OPT_INT_53 1
OPT_INT_64 500
OPT_INT_52 0
OPT_INT_55 10

object oa_body_collision
id 76
rotation 0,000 0,707 0,000 0,707
position 158,375 0,100 11,727 0,000
item_flag 00 00 00 00 00 00 00 00 00 00 00 00 00 00 00 00 00 00 00 00 04 00 00 00
byte_flag 02 00 00 00 00 00 00 00 00 00 00 00 00 00 00 20 00 00 00 00
OPT_INT_54 -1
OPT_INT_51 1
OPT_INT_53 1
OPT_INT_52 0
OPT_INT_72 0
OPT_INT_62 1
OPT_INT_63 0
OPT_INT_55 10
OPT_VERTEX_19 1,000 160,000 80,000 0,000

object ob_9900_0403
id 34
rotation 0,000 0,000 0,000 1,000
position -93,125 19,063 -89,063 0,000
item_flag 00 00 00 00 00 00 00 00 00 00 00 00 00 00 00 00 00 00 00 00 04 00 00 00
byte_flag 02 00 00 00 00 00 00 00 00 00 00 00 00 00 00 20 00 80 2D 3F
OPT_INT_54 -1
OPT_INT_51 1
OPT_INT_53 1
OPT_INT_64 500
OPT_INT_52 0
OPT_INT_55 10

object ob_9900_0403
id 31
rotation 0,000 0,000 0,000 1,000
position 20,922 4,188 -28,906 0,000
item_flag 00 00 00 00 00 00 00 00 00 00 00 00 00 00 00 00 00 00 00 00 04 00 00 00
byte_flag 02 00 00 00 00 00 00 00 00 00 00 00 00 00 00 20 00 80 2D 3F
OPT_INT_54 -1
OPT_INT_51 1
OPT_INT_53 1
OPT_INT_64 500
OPT_INT_52 0
OPT_INT_55 10

object ob_9900_0403
id 32
rotation 0,000 0,000 0,000 1,000
position -22,250 4,750 25,984 0,000
item_flag 00 00 00 00 00 00 00 00 00 00 00 00 00 00 00 00 00 00 00 00 04 00 00 00
byte_flag 02 00 00 00 00 00 00 00 00 00 00 00 00 00 00 20 00 80 2D 3F
OPT_INT_54 -1
OPT_INT_51 1
OPT_INT_53 1
OPT_INT_64 500
OPT_INT_52 0
OPT_INT_55 10

object ob_9900_0406
id 37
rotation 0,000 0,000 0,000 1,000
position -159,250 7,590 -10,484 0,000
item_flag 00 00 00 00 00 00 00 00 00 00 00 00 00 00 00 00 00 00 00 00 04 00 00 00
byte_flag 02 00 00 00 00 00 00 00 00 00 00 00 00 00 00 20 00 80 2D 3F
OPT_INT_54 -1
OPT_INT_51 1
OPT_INT_53 1
OPT_INT_64 10
OPT_INT_52 0
OPT_INT_55 10

object oa_transfer_multi
id 38
rotation 0,000 1,000 0,000 0,000
position 159,625 2,959 72,875 0,000
item_flag 11 00 00 00 00 00 00 00 00 00 00 00 00 00 00 00 00 00 00 00 04 00 00 00
byte_flag 02 00 00 00 00 00 00 00 00 00 00 00 00 00 00 00 40 00 00 00
OPT_INT_54 8
OPT_INT_51 1
OPT_INT_53 1
OPT_INT_56 6
OPT_INT_63 1
OPT_INT_71 1
OPT_INT_64 -1
OPT_INT_62 0
OPT_INT_67 6
OPT_INT_70 1
OPT_FLOAT_60 4

object ob_9900_0403
id 35
rotation 0,000 0,000 0,000 1,000
position -75,188 23,359 -74,500 0,000
item_flag 00 00 00 00 00 00 00 00 00 00 00 00 00 00 00 00 00 00 00 00 04 00 00 00
byte_flag 02 00 00 00 00 00 00 00 00 00 00 00 00 00 00 20 00 80 2D 3F
OPT_INT_54 -1
OPT_INT_51 1
OPT_INT_53 1
OPT_INT_64 500
OPT_INT_52 0
OPT_INT_55 10

object ob_9900_0403
id 36
rotation 0,000 0,000 0,000 1,000
position -151,250 9,227 -82,813 0,000
item_flag 00 00 00 00 00 00 00 00 00 00 00 00 00 00 00 00 00 00 00 00 04 00 00 00
byte_flag 02 00 00 00 00 00 00 00 00 00 00 00 00 00 00 20 00 80 2D 3F
OPT_INT_54 -1
OPT_INT_51 1
OPT_INT_53 1
OPT_INT_64 500
OPT_INT_52 0
OPT_INT_55 10

object oa_fence_rail
id 41
rotation 0,000 0,000 0,000 1,000
position 161,625 0,560 17,656 0,000
item_flag 13 00 00 00 00 00 00 00 00 00 00 00 00 00 00 00 00 00 00 00 04 00 00 00
byte_flag 03 00 00 00 00 00 00 00 00 00 00 00 00 00 00 20 01 00 00 00
OPT_INT_54 -1
OPT_INT_51 1
OPT_INT_53 1
OPT_INT_55 10
OPT_INT_66 0
OPT_INT_62 0
OPT_INT_64 4
OPT_FLOAT_0 0
OPT_FLOAT_1 0
OPT_VERTEX_6 154,125 0,190 11,695 0,000
OPT_VERTEX_7 157,250 0,090 11,797 0,000
OPT_VERTEX_8 167,875 -0,100 11,719 0,000
OPT_VERTEX_9 175,000 0,070 11,594 0,000
OPT_VERTEX_10 0,000 0,000 0,000 0,000
OPT_VERTEX_11 0,000 0,000 0,000 0,000
OPT_VERTEX_12 0,000 0,000 0,000 0,000
OPT_VERTEX_13 0,000 0,000 0,000 0,000
OPT_VERTEX_14 0,000 0,000 0,000 0,000
OPT_VERTEX_15 0,000 0,000 0,000 0,000

object oa_transfer_multi
id 39
rotation 0,000 0,707 0,000 0,707
position 160,000 2,250 106,875 0,000
item_flag 11 00 00 00 00 00 00 00 00 00 00 00 00 00 00 00 00 00 00 00 04 00 00 00
byte_flag 02 00 00 00 00 00 00 00 00 00 00 00 00 00 00 00 40 00 00 00
OPT_INT_54 8
OPT_INT_51 1
OPT_INT_53 1
OPT_INT_56 6
OPT_INT_63 0
OPT_INT_71 0
OPT_INT_64 -1
OPT_INT_62 0
OPT_INT_67 6
OPT_INT_70 1
OPT_FLOAT_60 4

object oa_fence_rail
id 40
rotation 0,000 0,000 0,000 1,000
position 145,000 9,289 15,688 0,000
item_flag 13 00 00 00 00 00 00 00 00 00 00 00 00 00 00 00 00 00 00 00 04 00 00 00
byte_flag 03 00 00 00 00 00 00 00 00 00 00 00 00 00 00 20 01 00 00 00
OPT_INT_54 -1
OPT_INT_51 1
OPT_INT_53 1
OPT_INT_55 10
OPT_INT_66 7
OPT_INT_62 0
OPT_INT_64 10
OPT_FLOAT_0 0
OPT_FLOAT_1 0
OPT_VERTEX_6 142,000 10,547 27,078 0,000
OPT_VERTEX_7 143,500 10,547 25,563 0,000
OPT_VERTEX_8 146,500 9,383 19,219 0,000
OPT_VERTEX_9 150,000 9,063 18,438 0,000
OPT_VERTEX_10 153,625 9,039 15,633 0,000
OPT_VERTEX_11 154,250 8,805 11,133 0,000
OPT_VERTEX_12 151,000 8,445 9,125 0,000
OPT_VERTEX_13 144,875 8,625 13,664 0,000
OPT_VERTEX_14 136,875 9,969 19,359 0,000
OPT_VERTEX_15 134,750 9,969 22,141 0,000

object oa_fence_rail
id 45
rotation 0,000 0,000 0,000 1,000
position -160,000 12,375 -45,563 0,000
item_flag 13 00 00 00 00 00 00 00 00 00 00 00 00 00 00 00 00 00 00 00 04 00 00 00
byte_flag 03 00 00 00 00 00 00 00 00 00 00 00 00 00 00 20 01 00 00 00
OPT_INT_54 -1
OPT_INT_51 1
OPT_INT_53 1
OPT_INT_55 10
OPT_INT_66 0
OPT_INT_62 0
OPT_INT_64 6
OPT_FLOAT_0 0
OPT_FLOAT_1 0
OPT_VERTEX_6 -141,375 13,000 -40,000 0,000
OPT_VERTEX_7 -147,250 13,000 -40,000 0,000
OPT_VERTEX_8 -154,500 12,523 -40,000 0,000
OPT_VERTEX_9 -166,500 12,578 -40,000 0,000
OPT_VERTEX_10 -177,875 13,547 -40,000 0,000
OPT_VERTEX_11 -181,625 13,547 -40,000 0,000
OPT_VERTEX_12 0,000 0,000 0,000 0,000
OPT_VERTEX_13 0,000 0,000 0,000 0,000
OPT_VERTEX_14 0,000 0,000 0,000 0,000
OPT_VERTEX_15 0,000 0,000 0,000 0,000

object oa_fence_rail
id 43
rotation 0,000 0,000 0,000 1,000
position 46,875 2,059 -0,260 0,000
item_flag 13 00 00 00 00 00 00 00 00 00 00 00 00 00 00 00 00 00 00 00 04 00 00 00
byte_flag 03 00 00 00 00 00 00 00 00 00 00 00 00 00 00 20 01 00 00 00
OPT_INT_54 -1
OPT_INT_51 1
OPT_INT_53 1
OPT_INT_55 10
OPT_INT_66 0
OPT_INT_62 0
OPT_INT_64 6
OPT_FLOAT_0 0
OPT_FLOAT_1 0
OPT_VERTEX_6 40,000 3,408 -21,000 0,000
OPT_VERTEX_7 40,031 3,408 -17,109 0,000
OPT_VERTEX_8 40,000 2,488 -7,457 0,000
OPT_VERTEX_9 40,031 2,359 4,949 0,000
OPT_VERTEX_10 40,063 3,488 17,547 0,000
OPT_VERTEX_11 40,781 3,488 22,188 0,000
OPT_VERTEX_12 0,000 0,000 0,000 0,000
OPT_VERTEX_13 0,000 0,000 0,000 0,000
OPT_VERTEX_14 0,000 0,000 0,000 0,000
OPT_VERTEX_15 0,000 0,000 0,000 0,000

colision EventCollision
id 1
rotation 0,000 0,000 0,000 1,000
position -89,000 12,500 -80,000 0,000
byte_flag 01 00 00 00 00 00 00 00 01 00 00 00 10 00 00 00 00 00 00 00 00 00 00 00 00 00 70 42 00 00 20 43 00 00 8C 42 00 00 00 00 00 00 00 00 00 00 00 00 00 00 00 00 00 00 00 00 00 00 00 00

object oa_dragon_rock
id 113
rotation 0,000 -0,342 0,000 0,939
position -83,688 5,297 13,930 0,000
item_flag 00 00 00 00 00 00 00 00 00 00 00 00 00 00 00 00 00 00 00 00 04 00 00 00
byte_flag 02 00 00 00 00 00 00 00 00 00 00 00 00 00 00 20 00 00 00 00
OPT_INT_54 -1
OPT_INT_51 1
OPT_INT_53 1
OPT_INT_52 0
OPT_INT_74 1
OPT_INT_76 2
OPT_INT_75 4
OPT_INT_55 10

colision EventCollision
id 6
rotation 0,000 0,000 0,000 1,000
position 160,000 0,000 10,000 0,000
byte_flag 01 00 00 00 00 00 00 00 01 00 00 00 10 00 00 00 00 00 00 00 00 00 00 00 00 00 A0 42 00 00 20 43 00 00 70 42 00 00 00 00 00 00 00 00 00 00 00 00 00 00 00 00 04 00 00 00 00 00 00 00

object oa_dragon_rock
id 114
rotation 0,000 -0,342 0,000 0,939
position -85,188 5,297 12,648 0,000
item_flag 00 00 00 00 00 00 00 00 00 00 00 00 00 00 00 00 00 00 00 00 04 00 00 00
byte_flag 02 00 00 00 00 00 00 00 00 00 00 00 00 00 00 20 00 00 00 00
OPT_INT_54 -1
OPT_INT_51 1
OPT_INT_53 1
OPT_INT_52 0
OPT_INT_74 1
OPT_INT_76 1
OPT_INT_75 4
OPT_INT_55 10

object oa_dragon_rock
id 111
rotation 0,000 -0,342 0,000 0,939
position -57,969 1,779 9,227 0,000
item_flag 00 00 00 00 00 00 00 00 00 00 00 00 00 00 00 00 00 00 00 00 04 00 00 00
byte_flag 02 00 00 00 00 00 00 00 00 00 00 00 00 00 00 20 00 00 00 00
OPT_INT_54 -1
OPT_INT_51 1
OPT_INT_53 1
OPT_INT_52 0
OPT_INT_74 3
OPT_INT_76 2
OPT_INT_75 1
OPT_INT_55 10

object oa_dragon_rock
id 112
rotation 0,000 -0,342 0,000 0,939
position -56,688 1,779 7,719 0,000
item_flag 00 00 00 00 00 00 00 00 00 00 00 00 00 00 00 00 00 00 00 00 04 00 00 00
byte_flag 02 00 00 00 00 00 00 00 00 00 00 00 00 00 00 20 00 00 00 00
OPT_INT_54 -1
OPT_INT_51 1
OPT_INT_53 1
OPT_INT_52 0
OPT_INT_74 3
OPT_INT_76 1
OPT_INT_75 1
OPT_INT_55 10

colision EventCollision
id 9
rotation 0,000 0,000 0,000 1,000
position -160,000 12,383 -52,000 0,000
byte_flag 01 00 00 00 00 00 00 00 01 00 00 00 10 00 00 00 00 00 00 00 00 00 00 00 00 00 48 42 00 00 20 43 00 00 A0 41 00 00 00 00 00 00 00 00 00 00 00 00 00 00 00 00 04 00 00 00 00 00 00 00

colision EventCollision
id 10
rotation 0,000 0,000 0,000 1,000
position -160,000 4,750 0,000 0,000
byte_flag 01 00 00 00 00 00 00 00 01 00 00 00 10 00 00 00 00 00 00 00 00 00 00 00 00 00 20 42 00 00 20 43 00 00 A0 42 00 00 00 00 00 00 00 00 00 00 00 00 00 00 00 00 04 00 00 00 00 00 00 00

colision EventCollision
id 7
rotation 0,000 0,000 0,000 1,000
position 80,000 0,000 0,000 0,000
byte_flag 01 00 00 00 00 00 00 00 01 00 00 00 10 00 00 00 00 00 00 00 00 00 00 00 00 00 A0 42 00 00 20 43 00 00 A0 42 00 00 00 00 00 00 00 00 00 00 00 00 00 00 00 00 04 00 00 00 00 00 00 00

object oa_telepipe_clear
id 115
rotation 0,000 0,000 0,000 1,000
position 0,000 0,000 0,000 0,000
item_flag 10 00 00 00 00 00 00 00 00 00 00 00 00 00 00 00 00 00 00 00 04 00 00 00
byte_flag 02 00 00 00 00 00 00 00 00 00 00 00 00 00 00 20 00 00 00 00
OPT_INT_54 -1
OPT_INT_51 1
OPT_INT_53 0
OPT_INT_62 2
OPT_INT_63 0
OPT_ID_2 0

colision EventCollision
id 8
rotation 0,000 0,000 0,000 1,000
position 30,000 12,047 0,000 0,000
byte_flag 01 00 00 00 00 00 00 00 01 00 00 00 10 00 00 00 00 00 00 00 00 00 00 00 00 00 A0 41 00 00 20 43 00 00 70 42 00 00 00 00 00 00 00 00 00 00 00 00 00 00 00 00 04 00 00 00 00 00 00 00

object oa_telepipe_start
id 116
rotation 0,000 0,000 0,000 1,000
position 158,875 -8,523 179,250 0,000
item_flag 10 00 00 00 00 00 00 00 00 00 00 00 00 00 00 00 00 00 00 00 04 00 00 00
byte_flag 02 00 00 00 00 00 00 00 00 00 00 00 00 00 00 20 00 00 00 00
OPT_INT_54 -1
OPT_INT_51 1
OPT_INT_53 0
OPT_INT_62 1
OPT_INT_63 1
OPT_ID_2 0

colision EventCollision
id 13
rotation 0,000 0,000 0,000 1,000
position 0,000 0,000 0,000 0,000
byte_flag 01 00 00 00 00 00 00 00 01 00 00 00 10 00 00 00 00 00 00 00 00 00 00 00 00 00 A0 42 00 00 20 43 00 00 A0 42 00 00 00 00 00 00 00 00 00 00 00 00 00 00 00 00 04 00 00 00 00 00 00 00

colision EventCollision
id 14
rotation 0,000 0,000 0,000 1,000
position 80,000 0,000 0,000 0,000
byte_flag 01 00 00 00 00 00 00 00 01 00 00 00 10 00 00 00 00 00 00 00 00 00 00 00 00 00 A0 42 00 00 20 43 00 00 A0 42 00 00 00 00 00 00 00 00 00 00 00 00 00 00 00 00 04 00 00 00 00 00 00 00

colision EventCollision
id 11
rotation 0,000 0,383 0,000 0,924
position -69,188 11,227 18,531 0,000
byte_flag 01 00 00 00 00 00 00 00 01 00 00 00 10 00 00 00 00 00 00 00 00 00 00 00 00 00 A0 41 00 00 20 43 00 00 A0 41 00 00 00 00 00 00 00 00 00 00 00 00 00 00 00 00 04 00 00 00 00 00 00 00

colision EventCollision
id 12
rotation 0,000 0,000 0,000 1,000
position -89,000 14,547 -80,000 0,000
byte_flag 01 00 00 00 00 00 00 00 01 00 00 00 10 00 00 00 00 00 00 00 00 00 00 00 00 00 70 42 00 00 20 43 00 00 A0 42 00 00 00 00 00 00 00 00 00 00 00 00 00 00 00 00 04 00 00 00 00 00 00 00

object oa_body_collision
id 82
rotation 0,000 0,000 0,000 1,000
position -120,000 2,408 0,000 0,000
item_flag 00 00 00 00 00 00 00 00 00 00 00 00 00 00 00 00 00 00 00 00 04 00 00 00
byte_flag 02 00 00 00 00 00 00 00 00 00 00 00 00 00 00 20 00 00 00 00
OPT_INT_54 -1
OPT_INT_51 1
OPT_INT_53 1
OPT_INT_52 0
OPT_INT_72 0
OPT_INT_62 1
OPT_INT_63 0
OPT_INT_55 10
OPT_VERTEX_19 1,000 160,000 80,000 0,000

object oa_body_collision
id 80
rotation 0,000 0,000 0,000 1,000
position -160,000 12,305 -40,000 0,000
item_flag 00 00 00 00 00 00 00 00 00 00 00 00 00 00 00 00 00 00 00 00 04 00 00 00
byte_flag 02 00 00 00 00 00 00 00 00 00 00 00 00 00 00 20 00 00 00 00
OPT_INT_54 -1
OPT_INT_51 1
OPT_INT_53 1
OPT_INT_52 0
OPT_INT_72 0
OPT_INT_62 1
OPT_INT_63 0
OPT_INT_55 10
OPT_VERTEX_19 40,000 160,000 1,000 0,000

object oa_body_collision
id 86
rotation 0,000 0,000 0,000 1,000
position -80,000 11,969 -120,500 0,000
item_flag 00 00 00 00 00 00 00 00 00 00 00 00 00 00 00 00 00 00 00 00 04 00 00 00
byte_flag 02 00 00 00 00 00 00 00 00 00 00 00 00 00 00 20 00 00 00 00
OPT_INT_54 -1
OPT_INT_51 1
OPT_INT_53 1
OPT_INT_52 0
OPT_INT_72 0
OPT_INT_62 1
OPT_INT_63 0
OPT_INT_55 10
OPT_VERTEX_19 80,000 160,000 1,000 0,000

object oa_body_collision
id 84
rotation 0,000 0,000 0,000 1,000
position -121,000 12,383 -80,000 0,000
item_flag 00 00 00 00 00 00 00 00 00 00 00 00 00 00 00 00 00 00 00 00 04 00 00 00
byte_flag 02 00 00 00 00 00 00 00 00 00 00 00 00 00 00 20 00 00 00 00
OPT_INT_54 -1
OPT_INT_51 1
OPT_INT_53 1
OPT_INT_52 0
OPT_INT_72 0
OPT_INT_62 1
OPT_INT_63 0
OPT_INT_55 10
OPT_VERTEX_19 1,000 160,000 80,000 0,000

object oa_body_collision
id 89
rotation 0,000 0,766 0,000 0,643
position 142,875 10,445 72,875 0,000
item_flag 00 00 00 00 00 00 00 00 00 00 00 00 00 00 00 00 00 00 00 00 04 00 00 00
byte_flag 02 00 00 00 00 00 00 00 00 00 00 00 00 00 00 20 00 00 00 00
OPT_INT_54 -1
OPT_INT_51 1
OPT_INT_53 1
OPT_INT_52 0
OPT_INT_72 0
OPT_INT_62 2
OPT_INT_63 0
OPT_INT_55 10
OPT_VERTEX_19 40,000 160,000 1,000 0,000

object oa_body_collision
id 90
rotation 0,000 0,000 0,000 1,000
position 144,500 9,805 64,313 0,000
item_flag 00 00 00 00 00 00 00 00 00 00 00 00 00 00 00 00 00 00 00 00 04 00 00 00
byte_flag 02 00 00 00 00 00 00 00 00 00 00 00 00 00 00 20 00 00 00 00
OPT_INT_54 -1
OPT_INT_51 1
OPT_INT_53 1
OPT_INT_52 0
OPT_INT_72 2
OPT_INT_62 2
OPT_INT_63 0
OPT_INT_55 10
OPT_VERTEX_19 3,000 160,000 1,000 0,000

object oa_body_collision
id 88
rotation 0,000 0,342 0,000 0,939
position 146,375 9,398 101,063 0,000
item_flag 00 00 00 00 00 00 00 00 00 00 00 00 00 00 00 00 00 00 00 00 04 00 00 00
byte_flag 02 00 00 00 00 00 00 00 00 00 00 00 00 00 00 20 00 00 00 00
OPT_INT_54 -1
OPT_INT_51 1
OPT_INT_53 1
OPT_INT_52 0
OPT_INT_72 0
OPT_INT_62 2
OPT_INT_63 0
OPT_INT_55 10
OPT_VERTEX_19 40,000 160,000 1,000 0,000

object oa_body_collision
id 93
rotation 0,000 -0,342 0,000 0,939
position 145,250 10,055 76,500 0,000
item_flag 00 00 00 00 00 00 00 00 00 00 00 00 00 00 00 00 00 00 00 00 04 00 00 00
byte_flag 02 00 00 00 00 00 00 00 00 00 00 00 00 00 00 20 00 00 00 00
OPT_INT_54 -1
OPT_INT_51 1
OPT_INT_53 1
OPT_INT_52 0
OPT_INT_72 0
OPT_INT_62 2
OPT_INT_63 0
OPT_INT_55 10
OPT_VERTEX_19 7,000 160,000 1,000 0,000

object oa_body_collision
id 94
rotation 0,000 0,000 0,000 1,000
position 149,625 12,016 82,125 0,000
item_flag 00 00 00 00 00 00 00 00 00 00 00 00 00 00 00 00 00 00 00 00 04 00 00 00
byte_flag 02 00 00 00 00 00 00 00 00 00 00 00 00 00 00 20 00 00 00 00
OPT_INT_54 -1
OPT_INT_51 1
OPT_INT_53 1
OPT_INT_52 0
OPT_INT_72 2
OPT_INT_62 2
OPT_INT_63 0
OPT_INT_55 10
OPT_VERTEX_19 4,000 160,000 1,000 0,000

object oa_body_collision
id 91
rotation 0,000 0,174 0,000 0,984
position 143,250 9,398 67,438 0,000
item_flag 00 00 00 00 00 00 00 00 00 00 00 00 00 00 00 00 00 00 00 00 04 00 00 00
byte_flag 02 00 00 00 00 00 00 00 00 00 00 00 00 00 00 20 00 00 00 00
OPT_INT_54 -1
OPT_INT_51 1
OPT_INT_53 1
OPT_INT_52 0
OPT_INT_72 0
OPT_INT_62 2
OPT_INT_63 0
OPT_INT_55 10
OPT_VERTEX_19 5,000 160,000 1,000 0,000

object oa_body_collision
id 92
rotation 0,000 0,737 0,000 0,675
position 146,875 9,203 61,844 0,000
item_flag 00 00 00 00 00 00 00 00 00 00 00 00 00 00 00 00 00 00 00 00 04 00 00 00
byte_flag 02 00 00 00 00 00 00 00 00 00 00 00 00 00 00 20 00 00 00 00
OPT_INT_54 -1
OPT_INT_51 1
OPT_INT_53 1
OPT_INT_52 0
OPT_INT_72 0
OPT_INT_62 2
OPT_INT_63 0
OPT_INT_55 10
OPT_VERTEX_19 5,000 160,000 1,000 0,000

object oa_body_collision
id 98
rotation 0,000 0,216 0,000 0,976
position -65,188 9,438 -13,313 0,000
item_flag 00 00 00 00 00 00 00 00 00 00 00 00 00 00 00 00 00 00 00 00 04 00 00 00
byte_flag 02 00 00 00 00 00 00 00 00 00 00 00 00 00 00 20 00 00 00 00
OPT_INT_54 -1
OPT_INT_51 1
OPT_INT_53 1
OPT_INT_52 0
OPT_INT_72 0
OPT_INT_62 1
OPT_INT_63 0
OPT_INT_55 10
OPT_VERTEX_19 20,000 160,000 1,000 0,000

object oa_body_collision
id 95
rotation 0,000 -0,104 0,000 0,994
position 145,750 11,000 77,750 0,000
item_flag 00 00 00 00 00 00 00 00 00 00 00 00 00 00 00 00 00 00 00 00 04 00 00 00
byte_flag 02 00 00 00 00 00 00 00 00 00 00 00 00 00 00 20 00 00 00 00
OPT_INT_54 -1
OPT_INT_51 1
OPT_INT_53 1
OPT_INT_52 0
OPT_INT_72 0
OPT_INT_62 2
OPT_INT_63 0
OPT_INT_55 10
OPT_VERTEX_19 10,000 160,000 1,000 0,000

object oa_body_collision
id 96
rotation 0,000 0,000 0,000 1,000
position -40,000 2,439 -2,609 0,000
item_flag 00 00 00 00 00 00 00 00 00 00 00 00 00 00 00 00 00 00 00 00 04 00 00 00
byte_flag 02 00 00 00 00 00 00 00 00 00 00 00 00 00 00 20 00 00 00 00
OPT_INT_54 -1
OPT_INT_51 1
OPT_INT_53 1
OPT_INT_52 0
OPT_INT_72 0
OPT_INT_62 1
OPT_INT_63 0
OPT_INT_55 10
OPT_VERTEX_19 1,000 160,000 80,000 0,000

colision EventCollision
id 101
rotation 0,000 0,000 0,000 1,000
position 80,000 2,309 0,000 0,000
byte_flag 01 00 00 00 00 00 00 00 01 00 00 00 10 00 00 00 00 00 00 00 00 00 00 00 00 00 A0 43 00 00 20 43 00 00 A0 42 00 00 00 00 00 00 00 00 00 00 00 00 00 00 00 00 18 00 00 00 00 00 00 00

colision EventCollision
id 99
rotation 0,000 0,000 0,000 1,000
position 165,000 0,000 0,000 0,000
byte_flag 01 00 00 00 00 00 00 00 01 00 00 00 10 00 00 00 00 00 00 00 00 00 00 00 00 00 A0 42 00 00 20 43 00 00 20 43 00 00 00 00 00 00 00 00 00 00 00 00 00 00 00 00 10 00 00 00 00 00 00 00

colision EventCollision
id 105
rotation 0,000 0,000 0,000 1,000
position 20,000 20,688 -40,000 0,000
byte_flag 01 00 00 00 00 00 00 00 01 00 00 00 10 00 00 00 00 00 00 00 00 00 00 00 00 00 F0 43 00 00 20 43 00 00 20 43 00 00 00 00 00 00 00 00 00 00 00 00 00 00 00 00 18 00 00 00 00 00 00 00

colision EventCollision
id 103
rotation 0,000 0,000 0,000 1,000
position -90,000 34,688 -80,000 0,000
byte_flag 01 00 00 00 00 00 00 00 01 00 00 00 10 00 00 00 00 00 00 00 00 00 00 00 00 00 A0 42 00 00 20 43 00 00 A0 42 00 00 00 00 00 00 00 00 00 00 00 00 00 00 00 00 10 00 00 00 00 00 00 00

object oa_dragon_rock
id 109
rotation 0,000 0,000 0,000 1,000
position 160,000 0,250 106,875 0,000
item_flag 00 00 00 00 00 00 00 00 00 00 00 00 00 00 00 00 00 00 00 00 04 00 00 00
byte_flag 02 00 00 00 00 00 00 00 00 00 00 00 00 00 00 20 00 00 00 00
OPT_INT_54 -1
OPT_INT_51 1
OPT_INT_53 1
OPT_INT_52 0
OPT_INT_74 5
OPT_INT_76 1
OPT_INT_75 5
OPT_INT_55 10

object oa_dragon_rock
id 110
rotation 0,000 -0,342 0,000 0,939
position -59,906 1,779 11,508 0,000
item_flag 00 00 00 00 00 00 00 00 00 00 00 00 00 00 00 00 00 00 00 00 04 00 00 00
byte_flag 02 00 00 00 00 00 00 00 00 00 00 00 00 00 00 20 00 00 00 00
OPT_INT_54 -1
OPT_INT_51 1
OPT_INT_53 1
OPT_INT_52 0
OPT_INT_74 3
OPT_INT_76 3
OPT_INT_75 2
OPT_INT_55 10

colision EventCollision
id 107
rotation 0,000 0,000 0,000 1,000
position 159,875 1,850 127,625 0,000
byte_flag 01 00 00 00 00 00 00 00 01 00 00 00 10 00 00 00 00 00 00 00 00 00 00 00 00 00 A0 41 00 00 20 43 00 00 A0 41 00 00 00 00 00 00 00 00 00 00 00 00 00 00 00 00 14 00 00 00 00 00 00 00

colision EventCollision
id 108
rotation 0,000 0,000 0,000 1,000
position 161,375 2,068 105,750 0,000
byte_flag 01 00 00 00 00 00 00 00 01 00 00 00 10 00 00 00 00 00 00 00 00 00 00 00 00 00 A0 42 00 00 20 43 00 00 A0 41 00 00 00 00 00 00 00 00 00 00 00 00 00 00 00 00 14 00 00 00 00 00 00 00

object oa_fence_rail
id 49
rotation 0,000 0,000 0,000 1,000
position -125,000 12,375 -79,875 0,000
item_flag 13 00 00 00 00 00 00 00 00 00 00 00 00 00 00 00 00 00 00 00 04 00 00 00
byte_flag 03 00 00 00 00 00 00 00 00 00 00 00 00 00 00 20 01 00 00 00
OPT_INT_54 -1
OPT_INT_51 1
OPT_INT_53 1
OPT_INT_55 10
OPT_INT_66 0
OPT_INT_62 0
OPT_INT_64 6
OPT_FLOAT_0 0
OPT_FLOAT_1 0
OPT_VERTEX_6 -121,000 12,547 -106,000 0,000
OPT_VERTEX_7 -121,000 13,523 -97,875 0,000
OPT_VERTEX_8 -121,000 12,516 -87,250 0,000
OPT_VERTEX_9 -121,000 12,516 -73,000 0,000
OPT_VERTEX_10 -121,000 13,344 -63,750 0,000
OPT_VERTEX_11 -121,000 13,477 -60,281 0,000
OPT_VERTEX_12 0,000 0,000 0,000 0,000
OPT_VERTEX_13 0,000 0,000 0,000 0,000
OPT_VERTEX_14 0,000 0,000 0,000 0,000
OPT_VERTEX_15 0,000 0,000 0,000 0,000

object oa_fence_rail
id 47
rotation 0,000 0,000 0,000 1,000
position -123,813 2,408 0,840 0,000
item_flag 13 00 00 00 00 00 00 00 00 00 00 00 00 00 00 00 00 00 00 00 04 00 00 00
byte_flag 03 00 00 00 00 00 00 00 00 00 00 00 00 00 00 20 01 00 00 00
OPT_INT_54 -1
OPT_INT_51 1
OPT_INT_53 1
OPT_INT_55 10
OPT_INT_66 0
OPT_INT_62 0
OPT_INT_64 6
OPT_FLOAT_0 0
OPT_FLOAT_1 0
OPT_VERTEX_6 -120,000 3,449 -20,828 0,000
OPT_VERTEX_7 -120,000 3,469 -17,266 0,000
OPT_VERTEX_8 -120,000 2,529 -7,699 0,000
OPT_VERTEX_9 -120,000 2,398 5,590 0,000
OPT_VERTEX_10 -120,000 3,299 15,664 0,000
OPT_VERTEX_11 -120,000 3,299 17,688 0,000
OPT_VERTEX_12 0,000 0,000 0,000 0,000
OPT_VERTEX_13 0,000 0,000 0,000 0,000
OPT_VERTEX_14 0,000 0,000 0,000 0,000
OPT_VERTEX_15 0,000 0,000 0,000 0,000

object oa_fence_rail
id 53
rotation 0,000 0,000 0,000 1,000
position -38,000 2,590 -4,270 0,000
item_flag 13 00 00 00 00 00 00 00 00 00 00 00 00 00 00 00 00 00 00 00 04 00 00 00
byte_flag 03 00 00 00 00 00 00 00 00 00 00 00 00 00 00 20 01 00 00 00
OPT_INT_54 -1
OPT_INT_51 1
OPT_INT_53 1
OPT_INT_55 10
OPT_INT_66 0
OPT_INT_62 0
OPT_INT_64 6
OPT_FLOAT_0 0
OPT_FLOAT_1 0
OPT_VERTEX_6 -40,000 3,299 -21,922 0,000
OPT_VERTEX_7 -40,000 3,299 -15,727 0,000
OPT_VERTEX_8 -40,000 2,469 -6,840 0,000
OPT_VERTEX_9 -40,000 2,500 7,590 0,000
OPT_VERTEX_10 -40,000 3,328 15,977 0,000
OPT_VERTEX_11 -40,000 3,328 19,219 0,000
OPT_VERTEX_12 0,000 0,000 0,000 0,000
OPT_VERTEX_13 0,000 0,000 0,000 0,000
OPT_VERTEX_14 0,000 0,000 0,000 0,000
OPT_VERTEX_15 0,000 0,000 0,000 0,000

object oa_fence_rail
id 51
rotation 0,000 0,000 0,000 1,000
position -79,813 12,383 -116,188 0,000
item_flag 13 00 00 00 00 00 00 00 00 00 00 00 00 00 00 00 00 00 00 00 04 00 00 00
byte_flag 03 00 00 00 00 00 00 00 00 00 00 00 00 00 00 20 01 00 00 00
OPT_INT_54 -1
OPT_INT_51 1
OPT_INT_53 1
OPT_INT_55 10
OPT_INT_66 0
OPT_INT_62 0
OPT_INT_64 6
OPT_FLOAT_0 0
OPT_FLOAT_1 0
OPT_VERTEX_6 -60,000 13,344 -120,500 0,000
OPT_VERTEX_7 -64,500 13,344 -120,500 0,000
OPT_VERTEX_8 -72,188 12,727 -120,500 0,000
OPT_VERTEX_9 -83,813 12,516 -120,500 0,000
OPT_VERTEX_10 -92,625 13,047 -120,500 0,000
OPT_VERTEX_11 -96,438 13,047 -120,500 0,000
OPT_VERTEX_12 0,000 0,000 0,000 0,000
OPT_VERTEX_13 0,000 0,000 0,000 0,000
OPT_VERTEX_14 0,000 0,000 0,000 0,000
OPT_VERTEX_15 0,000 0,000 0,000 0,000

object ob_9900_0310
id 57
rotation 0,000 -0,259 0,000 0,966
position 147,000 1,149 -2,670 0,000
item_flag 00 00 00 00 00 00 00 00 00 00 00 00 00 00 00 00 00 00 00 00 04 00 00 00
byte_flag 00 00 00 00 00 00 00 00 00 00 00 00 00 00 00 20 00 00 00 00
OPT_INT_54 -1
OPT_INT_51 1
OPT_INT_53 0
OPT_INT_52 0
OPT_INT_55 10
OPT_FLOAT_0 1
OPT_FLOAT_1 1

object ob_9900_0308
id 55
rotation 0,000 0,000 0,000 1,000
position 36,625 2,459 3,648 0,000
item_flag 00 00 00 00 00 00 00 00 00 00 00 00 00 00 00 00 00 00 00 00 04 00 00 00
byte_flag 00 00 00 00 00 00 00 00 00 00 00 00 00 00 00 20 00 00 00 00
OPT_INT_54 -1
OPT_INT_51 1
OPT_INT_53 0
OPT_INT_52 0
OPT_INT_55 10
OPT_FLOAT_0 1
OPT_FLOAT_1 1

object ob_9900_0310
id 62
rotation 0,000 -0,259 0,000 0,966
position 147,000 1,149 -2,670 0,000
item_flag 00 00 00 00 00 00 00 00 00 00 00 00 00 00 00 00 00 00 00 00 04 00 00 00
byte_flag 00 00 00 00 00 00 00 00 00 00 00 00 00 00 00 20 00 00 00 00
OPT_INT_54 -1
OPT_INT_51 1
OPT_INT_53 0
OPT_INT_52 0
OPT_INT_55 10
OPT_FLOAT_0 1
OPT_FLOAT_1 1

object ob_9900_0308
id 59
rotation 0,000 0,707 0,000 0,707
position 160,875 2,369 44,125 0,000
item_flag 00 00 00 00 00 00 00 00 00 00 00 00 00 00 00 00 00 00 00 00 04 00 00 00
byte_flag 02 00 00 00 00 00 00 00 00 00 00 00 00 00 00 20 00 00 00 00
OPT_INT_54 -1
OPT_INT_51 1
OPT_INT_53 0
OPT_INT_52 0
OPT_INT_55 10
OPT_FLOAT_0 1
OPT_FLOAT_1 1

colision EventCollision
id 17
rotation 0,000 0,000 0,000 1,000
position -80,000 0,000 0,000 0,000
byte_flag 01 00 00 00 00 00 00 00 01 00 00 00 10 00 00 00 00 00 00 00 00 00 00 00 00 00 A0 42 00 00 20 43 00 00 A0 42 00 00 00 00 00 00 00 00 00 00 00 00 00 00 00 00 04 00 00 00 00 00 00 00

object ob_9900_0309
id 60
rotation 0,000 0,044 0,000 0,999
position -48,719 2,068 -0,570 0,000
item_flag 00 00 00 00 00 00 00 00 00 00 00 00 00 00 00 00 00 00 00 00 04 00 00 00
byte_flag 02 00 00 00 00 00 00 00 00 00 00 00 00 00 00 20 00 00 00 00
OPT_INT_54 -1
OPT_INT_51 1
OPT_INT_53 0
OPT_INT_52 0
OPT_INT_55 10
OPT_FLOAT_0 1
OPT_FLOAT_1 1

colision EventCollision
id 18
rotation 0,000 0,000 0,000 1,000
position 160,000 0,000 0,000 0,000
byte_flag 01 00 00 00 00 00 00 00 01 00 00 00 10 00 00 00 00 00 00 00 00 00 00 00 00 00 A0 42 00 00 20 43 00 00 A0 42 00 00 00 00 00 00 00 00 00 00 00 00 00 00 00 00 04 00 00 00 00 00 00 00

colision EventCollision
id 15
rotation 0,000 0,000 0,000 1,000
position -160,000 0,000 0,000 0,000
byte_flag 01 00 00 00 00 00 00 00 01 00 00 00 10 00 00 00 00 00 00 00 00 00 00 00 00 00 A0 42 00 00 20 43 00 00 A0 42 00 00 00 00 00 00 00 00 00 00 00 00 00 00 00 00 04 00 00 00 00 00 00 00

object ob_9900_0310
id 66
rotation 0,000 -0,259 0,000 0,966
position 147,000 1,149 -2,670 0,000
item_flag 00 00 00 00 00 00 00 00 00 00 00 00 00 00 00 00 00 00 00 00 04 00 00 00
byte_flag 02 00 00 00 00 00 00 00 00 00 00 00 00 00 00 20 00 00 00 00
OPT_INT_54 -1
OPT_INT_51 1
OPT_INT_53 0
OPT_INT_52 0
OPT_INT_55 10
OPT_FLOAT_0 1
OPT_FLOAT_1 1

colision EventCollision
id 16
rotation 0,000 0,000 0,000 1,000
position 160,000 0,000 80,000 0,000
byte_flag 01 00 00 00 00 00 00 00 01 00 00 00 10 00 00 00 00 00 00 00 00 00 00 00 00 00 A0 42 00 00 20 43 00 00 A0 42 00 00 00 00 00 00 00 00 00 00 00 00 00 00 00 00 04 00 00 00 00 00 00 00

colision EventCollision
id 21
rotation 0,000 0,000 0,000 1,000
position -80,000 0,000 -160,000 0,000
byte_flag 01 00 00 00 00 00 00 00 01 00 00 00 10 00 00 00 00 00 00 00 00 00 00 00 00 00 A0 42 00 00 20 43 00 00 A0 42 00 00 00 00 00 00 00 00 00 00 00 00 00 00 00 00 04 00 00 00 00 00 00 00

object ob_9900_0310
id 64
rotation 0,000 -0,259 0,000 0,966
position 147,000 1,149 -2,670 0,000
item_flag 00 00 00 00 00 00 00 00 00 00 00 00 00 00 00 00 00 00 00 00 04 00 00 00
byte_flag 00 00 00 00 00 00 00 00 00 00 00 00 00 00 00 20 00 00 00 00
OPT_INT_54 -1
OPT_INT_51 1
OPT_INT_53 0
OPT_INT_52 0
OPT_INT_55 10
OPT_FLOAT_0 1
OPT_FLOAT_1 1

colision EventCollision
id 22
rotation 0,000 0,000 0,000 1,000
position 156,625 2,260 46,219 0,000
byte_flag 01 00 00 00 00 00 00 00 01 00 00 00 10 00 00 00 00 00 00 00 00 00 00 00 00 00 70 42 00 00 20 43 00 00 A0 41 00 00 00 00 00 00 00 00 00 00 00 00 00 00 00 00 04 00 00 00 00 00 00 00

colision EventCollision
id 19
rotation 0,000 0,000 0,000 1,000
position -160,000 0,000 -80,000 0,000
byte_flag 01 00 00 00 00 00 00 00 01 00 00 00 10 00 00 00 00 00 00 00 00 00 00 00 00 00 A0 42 00 00 20 43 00 00 A0 42 00 00 00 00 00 00 00 00 00 00 00 00 00 00 00 00 04 00 00 00 00 00 00 00

object ob_9900_0308
id 70
rotation 0,000 0,000 0,000 1,000
position 36,625 2,459 3,648 0,000
item_flag 00 00 00 00 00 00 00 00 00 00 00 00 00 00 00 00 00 00 00 00 04 00 00 00
byte_flag 00 00 00 00 00 00 00 00 00 00 00 00 00 00 00 20 00 00 00 00
OPT_INT_54 -1
OPT_INT_51 1
OPT_INT_53 0
OPT_INT_52 0
OPT_INT_55 10
OPT_FLOAT_0 1
OPT_FLOAT_1 1

colision EventCollision
id 20
rotation 0,000 0,000 0,000 1,000
position -80,000 0,000 -80,000 0,000
byte_flag 01 00 00 00 00 00 00 00 01 00 00 00 10 00 00 00 00 00 00 00 00 00 00 00 00 00 A0 42 00 00 20 43 00 00 A0 42 00 00 00 00 00 00 00 00 00 00 00 00 00 00 00 00 04 00 00 00 00 00 00 00

object ob_9900_0308
id 68
rotation 0,000 0,000 0,000 1,000
position 36,625 2,459 3,648 0,000
item_flag 00 00 00 00 00 00 00 00 00 00 00 00 00 00 00 00 00 00 00 00 04 00 00 00
byte_flag 00 00 00 00 00 00 00 00 00 00 00 00 00 00 00 20 00 00 00 00
OPT_INT_54 -1
OPT_INT_51 1
OPT_INT_53 0
OPT_INT_52 0
OPT_INT_55 10
OPT_FLOAT_0 1
OPT_FLOAT_1 1

trigger Transporter
id 26
rotation 0,000 0,000 0,000 1,000
position -82,750 26,281 -164,500 0,000
item_flag 01 00 00 00 00 00 20 42 00 00 20 42 00 00 20 41 00 00 00 00

object oa_msg_pack
id 74
rotation 0,000 0,000 0,000 1,000
position 153,750 2,568 114,938 0,000
item_flag 1D 00 00 00 00 00 00 00 00 00 00 00 00 00 00 00 00 00 00 00 04 00 00 00
byte_flag 02 00 00 00 00 00 00 00 00 00 00 00 00 00 00 00 00 00 00 00
OPT_INT_54 -1
OPT_INT_51 1
OPT_INT_53 0
OPT_INT_61 0

colision EventCollision
id 24
rotation 0,000 0,000 0,000 1,000
position 160,000 -2,039 140,000 0,000
byte_flag 01 00 00 00 00 00 00 00 01 00 00 00 10 00 00 00 00 00 00 00 00 00 00 00 00 00 A0 42 00 00 20 43 00 00 A0 42 00 00 00 00 00 00 00 00 00 00 00 00 00 00 00 00 04 00 00 00 00 00 00 00

object ob_9900_0405
id 29
rotation 0,000 0,000 0,000 1,000
position -79,938 13,438 -127,688 0,000
item_flag 00 00 00 00 00 00 00 00 00 00 00 00 00 00 00 00 00 00 00 00 04 00 00 00
byte_flag 02 00 00 00 00 00 00 00 00 00 00 00 00 00 00 20 00 80 05 47
OPT_INT_54 -1
OPT_INT_51 1
OPT_INT_53 1
OPT_INT_64 3000
OPT_INT_52 0
OPT_INT_55 10

object ob_9900_0308
id 72
rotation 0,000 0,000 0,000 1,000
position 36,625 2,459 3,648 0,000
item_flag 00 00 00 00 00 00 00 00 00 00 00 00 00 00 00 00 00 00 00 00 04 00 00 00
byte_flag 02 00 00 00 00 00 00 00 00 00 00 00 00 00 00 20 00 00 00 00
OPT_INT_54 -1
OPT_INT_51 1
OPT_INT_53 0
OPT_INT_52 0
OPT_INT_55 10
OPT_FLOAT_0 1
OPT_FLOAT_1 1

object ob_9900_0403
id 30
rotation 0,000 0,000 0,000 1,000
position 87,500 8,180 -18,047 0,000
item_flag 00 00 00 00 00 00 00 00 00 00 00 00 00 00 00 00 00 00 00 00 04 00 00 00
byte_flag 02 00 00 00 00 00 00 00 00 00 00 00 00 00 00 20 00 80 05 47
OPT_INT_54 -1
OPT_INT_51 1
OPT_INT_53 1
OPT_INT_64 500
OPT_INT_52 0
OPT_INT_55 10

