define OPT_FLOAT_1 = 1
define OPT_FLOAT_0 = 0
define OPT_INT_52 = 52
define OPT_INT_49 = 49
define OPT_INT_50 = 50
define OPT_INT_48 = 48
define OPT_INT_51 = 51

object oa_stalactite_sign
id 427
rotation 0,000 0,000 0,000 1,000
position -146,750 -0,136 -66,938 0,000
item_flag 00 00 00 00 00 00 00 00 00 00 00 00 00 00 00 00 00 00 00 00 04 00 00 00
byte_flag 03 00 00 00 00 00 00 00 00 00 00 00 00 00 00 90 00 00 00 00
OPT_INT_51 -1
OPT_INT_48 1
OPT_INT_50 0
OPT_INT_49 0
OPT_INT_52 11
OPT_FLOAT_0 0
OPT_FLOAT_1 0

