ver 1

define OPT_ID_9 = 9
define OPT_INT_48 = 48
define OPT_INT_45 = 45
define OPT_INT_46 = 46
define OPT_INT_44 = 44
define OPT_INT_47 = 47

object ob_0104_0003
id 3402
rotation 0,000 1,000 0,000 0,000
position 15,000 13,000 70,000 0,000
item_flag 2C 00 00 00 00 00 00 00 00 00 00 00 00 00 00 00 00 00 30 DD 04 00 00 00
byte_flag 02 00 00 00 00 00 00 00 00 00 00 00 00 00 08 00 00 00 00 00
OPT_INT_47 -1
OPT_INT_44 1
OPT_INT_46 1
OPT_INT_45 0
OPT_INT_48 1
OPT_ID_9 0

object ob_0104_0003
id 3401
rotation 0,000 1,000 0,000 0,000
position 5,000 13,000 70,000 0,000
item_flag 2C 00 00 00 00 00 00 00 00 00 00 00 00 00 00 00 00 00 30 DD 04 00 00 00
byte_flag 02 00 00 00 00 00 00 00 00 00 00 00 00 00 08 00 00 00 00 00
OPT_INT_47 -1
OPT_INT_44 1
OPT_INT_46 1
OPT_INT_45 0
OPT_INT_48 1
OPT_ID_9 0

object ob_0104_0003
id 3400
rotation 0,000 1,000 0,000 0,000
position -5,000 13,000 70,000 0,000
item_flag 2C 00 00 00 00 00 00 00 00 00 00 00 00 00 00 00 00 00 30 DD 04 00 00 00
byte_flag 02 00 00 00 00 00 00 00 00 00 00 00 00 00 08 00 00 00 00 00
OPT_INT_47 -1
OPT_INT_44 1
OPT_INT_46 1
OPT_INT_45 0
OPT_INT_48 1
OPT_ID_9 0

object ob_0104_0003
id 3399
rotation 0,000 1,000 0,000 0,000
position -15,000 13,000 70,000 0,000
item_flag 2C 00 00 00 00 00 00 00 00 00 00 00 00 00 00 00 00 00 30 DD 04 00 00 00
byte_flag 02 00 00 00 00 00 00 00 00 00 00 00 00 00 08 00 00 00 00 00
OPT_INT_47 -1
OPT_INT_44 1
OPT_INT_46 1
OPT_INT_45 0
OPT_INT_48 1
OPT_ID_9 0

